{"data":[{"code":"AAM","shareholderType":"PERSON","shareholderName":"Lương Hoàng Mãnh","roleType":"Chủ tịch HĐQT","enRoleType":"Chairman","numberOfShares":4879732,"ownershipPct":46.69071881056133,"effectiveDate":"2020-06-30"},{"code":"AAM","shareholderType":"COMPANY","shareholderName":"Thủy sản Mekong","roleType":"Cổ phiếu quỹ","enRoleType":"Treasury Stock","numberOfShares":1895229,"ownershipPct":18.134111529203107,"effectiveDate":"2019-10-24"},{"code":"AAM","shareholderType":"COMPANY","shareholderName":"Công ty cổ phần Đầu tư Kim Cương (Paragon)","roleType":"Cổ đông lớn","enRoleType":"Major Shareholder","numberOfShares":837200,"ownershipPct":8.010577176820766,"effectiveDate":"2020-06-30"},{"code":"AAM","shareholderType":"PERSON","shareholderName":"Vũ Thị Thanh Thủy","roleType":"Cổ đông lớn","enRoleType":"Major Shareholder","numberOfShares":822250,"ownershipPct":7.867531155806109,"effectiveDate":"2020-06-30"},{"code":"AAM","shareholderType":"COMPANY","shareholderName":"Công ty Cố phần Vật liệu Xây dựng Motilen Cần Thơ","roleType":"Cổ đông lớn","enRoleType":"Major Shareholder","numberOfShares":768418,"ownershipPct":7.352450660604704,"effectiveDate":"2022-12-15"},{"code":"AAM","shareholderType":"PERSON","shareholderName":"Võ Lương Ngọc","roleType":"Cổ đông lớn","enRoleType":"Major Shareholder","numberOfShares":632714,"ownershipPct":6.053994658211866,"effectiveDate":"2020-06-30"},{"code":"AAM","shareholderType":"PERSON","shareholderName":"Đinh Khắc Cao","roleType":"Cổ đông lớn","enRoleType":"Major Shareholder","numberOfShares":590960,"ownershipPct":5.654480038717152,"effectiveDate":"2009-12-24"},{"code":"AAM","shareholderType":"COMPANY","shareholderName":"Công ty Cổ phần Chứng khoán Âu Việt","roleType":"Cổ đông lớn","enRoleType":"Major Shareholder","numberOfShares":536000,"ownershipPct":5.128606505943538,"effectiveDate":"2010-03-15"},{"code":"AAM","shareholderType":"PERSON","shareholderName":"Nguyễn Hoàng Anh","roleType":"Kế toán trưởng","enRoleType":"Chief Accountant","numberOfShares":396834,"ownershipPct":3.7970250637679066,"effectiveDate":"2023-07-25"},{"code":"AAM","shareholderType":"PERSON","shareholderName":"Nguyễn Hoàng Nhơn","roleType":"Cổ đông lớn","enRoleType":"Major Shareholder","numberOfShares":395577,"ownershipPct":3.7849977160478114,"effectiveDate":"2020-06-30"}],"currentPage":1,"size":10,"totalElements":22,"totalPages":3}