{
  "data": [
    {
      "code": "ADP",
      "shareholderType": "PERSON",
      "shareholderName": "Trần Bửu Trí",
      "roleType": "Thành viên HĐQT",
      "enRoleType": "Board member",
      "numberOfShares": 2616568,
      "ownershipPct": 11.356705881331692,
      "effectiveDate": "2022-12-31"
    },
    {
      "code": "ADP",
      "shareholderType": "PERSON",
      "shareholderName": "Võ Hồng Hà",
      "roleType": "Thành viên HĐQT",
      "enRoleType": "Board member",
      "numberOfShares": 2534400,
      "ownershipPct": 11.000071615049578,
      "groupPct": 14.915062381048488,
      "effectiveDate": "2023-06-30"
    },
    {
      "code": "ADP",
      "shareholderType": "PERSON",
      "shareholderName": "Nguyễn Thị Nhung",
      "roleType": "Chủ tịch HĐQT",
      "enRoleType": "Chairman",
      "numberOfShares": 2318269,
      "ownershipPct": 10.061996931403634,
      "effectiveDate": "2023-05-11"
    },
    {
      "code": "ADP",
      "shareholderType": "PERSON",
      "shareholderName": "Lê Đình Quang",
      "roleType": "Thành viên HĐQT",
      "enRoleType": "Board member",
      "numberOfShares": 2124000,
      "ownershipPct": 9.21881001829439,
      "effectiveDate": "2022-12-31"
    },
    {
      "code": "ADP",
      "shareholderType": "PERSON",
      "shareholderName": "Đỗ Thụy Thúy Vy",
      "roleType": "Cổ đông lớn",
      "enRoleType": "Major Shareholder",
      "numberOfShares": 1642924,
      "ownershipPct": 7.130792952211061,
      "effectiveDate": "2022-12-31"
    },
    {
      "code": "ADP",
      "shareholderType": "PERSON",
      "shareholderName": "Đỗ Thị Thúy Vy",
      "roleType": "Cổ đông lớn",
      "enRoleType": "Major Shareholder",
      "numberOfShares": 1282924,
      "ownershipPct": 5.568282779618791,
      "effectiveDate": "2021-12-31"
    },
    {
      "code": "ADP",
      "shareholderType": "PERSON",
      "shareholderName": "Tống Quốc Minh",
      "roleType": "Cổ đông lớn",
      "enRoleType": "Major Shareholder",
      "numberOfShares": 1148250,
      "ownershipPct": 4.983756404664093,
      "effectiveDate": "2023-05-18"
    },
    {
      "code": "ADP",
      "shareholderType": "PERSON",
      "shareholderName": "Nguyễn Tài Thảo",
      "roleType": "Chồng của Thành viên HĐQT",
      "enRoleType": "Husband of Board member",
      "numberOfShares": 972258,
      "ownershipPct": 4.219897264956152,
      "groupPct": 4.306703385655722,
      "effectiveDate": "2023-06-30"
    },
    {
      "code": "ADP",
      "shareholderType": "PERSON",
      "shareholderName": "Vương Thị Huyền Trang",
      "roleType": "Vợ của Thành viên HĐQT",
      "enRoleType": "Wife of Board member",
      "numberOfShares": 964974,
      "ownershipPct": 4.188282475797369,
      "effectiveDate": "2021-12-31"
    },
    {
      "code": "ADP",
      "shareholderType": "PERSON",
      "shareholderName": "Cao Trí Đức",
      "roleType": "Cổ đông lớn",
      "enRoleType": "Major Shareholder",
      "numberOfShares": 836757,
      "ownershipPct": 3.631781456910527,
      "effectiveDate": "2021-06-11"
    }
  ],
  "currentPage": 1,
  "size": 10,
  "totalElements": 17,
  "totalPages": 2
}