{
  "data": [
    {
      "code": "AFX",
      "shareholderType": "PERSON",
      "shareholderName": "Đặng Quang Thái",
      "roleType": "Chủ tịch HĐQT",
      "enRoleType": "Chairman",
      "numberOfShares": 7480000,
      "ownershipPct": 21.37142857142857,
      "effectiveDate": "2025-06-11"
    },
    {
      "code": "AFX",
      "shareholderType": "PERSON",
      "shareholderName": "Chế Minh Lý",
      "roleType": "Cổ đông lớn",
      "enRoleType": "Major Shareholder",
      "numberOfShares": 7181650,
      "ownershipPct": 20.519,
      "effectiveDate": "2020-12-31"
    },
    {
      "code": "AFX",
      "shareholderType": "PERSON",
      "shareholderName": "Phạm Anh Vũ",
      "roleType": "Cổ đông lớn",
      "enRoleType": "Major Shareholder",
      "numberOfShares": 7181650,
      "ownershipPct": 20.519,
      "effectiveDate": "2022-06-30"
    },
    {
      "code": "AFX",
      "shareholderType": "COMPANY",
      "shareholderName": "Công ty cổ phần Đầu tư Lộc Thuận",
      "roleType": "Cổ đông lớn",
      "enRoleType": "Major Shareholder",
      "numberOfShares": 3847000,
      "ownershipPct": 10.991428571428571,
      "effectiveDate": "2025-10-22"
    },
    {
      "code": "AFX",
      "shareholderType": "PERSON",
      "shareholderName": "Trần Văn Lắm",
      "roleType": "Cổ đông lớn",
      "enRoleType": "Major Shareholder",
      "numberOfShares": 3018750,
      "ownershipPct": 8.625,
      "effectiveDate": "2020-12-31"
    },
    {
      "code": "AFX",
      "shareholderType": "COMPANY",
      "shareholderName": "Công ty TNHH MTV Xổ số Kiến thiết An Giang",
      "roleType": "Cổ đông lớn",
      "enRoleType": "Major Shareholder",
      "numberOfShares": 3018750,
      "ownershipPct": 8.625,
      "effectiveDate": "2020-06-30"
    },
    {
      "code": "AFX",
      "shareholderType": "COMPANY",
      "shareholderName": "Công ty TNHH MTV Xổ số Kiến thiết Tiền Giang",
      "roleType": "Cổ đông lớn",
      "enRoleType": "Major Shareholder",
      "numberOfShares": 3018750,
      "ownershipPct": 8.625,
      "effectiveDate": "2022-12-31"
    },
    {
      "code": "AFX",
      "shareholderType": "COMPANY",
      "shareholderName": "CTCP DỊCH VỤ TÀI CHÍNH VÀ MUA BÁN NỢ VIỆT NAM",
      "roleType": "Cổ đông lớn",
      "enRoleType": "Major Shareholder",
      "numberOfShares": 2073000,
      "ownershipPct": 5.922857142857143,
      "effectiveDate": "2025-09-10"
    },
    {
      "code": "AFX",
      "shareholderType": "COMPANY",
      "shareholderName": "L.thực miền Nam",
      "roleType": "Cổ đông lớn",
      "enRoleType": "Major Shareholder",
      "numberOfShares": 1679330,
      "ownershipPct": 4.7980857142857145,
      "effectiveDate": "2022-08-29"
    },
    {
      "code": "AFX",
      "shareholderType": "PERSON",
      "shareholderName": "Lê Tiến Dũng",
      "roleType": "Cổ đông lớn",
      "enRoleType": "Major Shareholder",
      "numberOfShares": 1250000,
      "ownershipPct": 3.5714285714285716,
      "effectiveDate": "2025-03-10"
    }
  ],
  "currentPage": 1,
  "size": 10,
  "totalElements": 11,
  "totalPages": 2
}