{
  "data": [
    {
      "code": "ALT",
      "shareholderType": "COMPANY",
      "shareholderName": "Công ty cổ phần Địa ốc ACB",
      "roleType": "Cổ đông lớn",
      "enRoleType": "Major Shareholder",
      "numberOfShares": 1051244,
      "ownershipPct": 18.324861867666637,
      "effectiveDate": "2020-06-30"
    },
    {
      "code": "ALT",
      "shareholderType": "COMPANY",
      "shareholderName": "Công ty sản xuất và kinh doanhh xuất nhập khẩu giấy in và Bao bì LIKSIN",
      "roleType": "Cổ đông lớn",
      "enRoleType": "Major Shareholder",
      "numberOfShares": 760212,
      "ownershipPct": 13.25170929883318,
      "effectiveDate": "2020-06-30"
    },
    {
      "code": "ALT",
      "shareholderType": "COMPANY",
      "shareholderName": "Tổng công ty Công nghiệp In - Bao bì Liksin",
      "roleType": "Cổ đông lớn",
      "enRoleType": "Major Shareholder",
      "numberOfShares": 760211,
      "ownershipPct": 13.251691867236076,
      "effectiveDate": "2023-06-30"
    },
    {
      "code": "ALT",
      "shareholderType": "PERSON",
      "shareholderName": "Hoàng Văn Điều",
      "roleType": "Cổ đông lớn",
      "enRoleType": "Major Shareholder",
      "numberOfShares": 582000,
      "ownershipPct": 10.145189515452152,
      "effectiveDate": "2023-12-31"
    },
    {
      "code": "ALT",
      "shareholderType": "PERSON",
      "shareholderName": "Hoàng Minh Anh Tú",
      "roleType": "Thành viên HĐQT",
      "enRoleType": "Board member",
      "numberOfShares": 560595,
      "ownershipPct": 9.772066179407043,
      "groupPct": 14.77469050635129,
      "effectiveDate": "2024-08-27"
    },
    {
      "code": "ALT",
      "shareholderType": "COMPANY",
      "shareholderName": "Văn hoá Tân Bình",
      "roleType": "Cổ phiếu quỹ",
      "enRoleType": "Treasury Stock",
      "numberOfShares": 435814,
      "ownershipPct": 7.5969340609746805,
      "effectiveDate": "2011-01-11"
    },
    {
      "code": "ALT",
      "shareholderType": "PERSON",
      "shareholderName": "Lại Thị Hồng Điệp",
      "roleType": "Phó chủ tịch HĐQT",
      "enRoleType": "Vice-chairman",
      "numberOfShares": 355863,
      "ownershipPct": 6.203260440785823,
      "effectiveDate": "2020-06-30"
    },
    {
      "code": "ALT",
      "shareholderType": "PERSON",
      "shareholderName": "La Thế Nhân",
      "roleType": "Chủ tịch HĐQT",
      "enRoleType": "Chairman",
      "numberOfShares": 295550,
      "ownershipPct": 5.151908524556501,
      "effectiveDate": "2020-06-30"
    },
    {
      "code": "ALT",
      "shareholderType": "PERSON",
      "shareholderName": "Hoàng Minh Anh Tài",
      "roleType": "Em trai của Thành viên HĐQT",
      "enRoleType": "Young Brother of Board member",
      "numberOfShares": 282100,
      "ownershipPct": 4.917453543486344,
      "effectiveDate": "2024-01-22"
    },
    {
      "code": "ALT",
      "shareholderType": "PERSON",
      "shareholderName": "Hoàng Minh Anh Tài",
      "roleType": "Nhóm cổ đông lớn",
      "enRoleType": "Major Shareholder Group",
      "numberOfShares": 282100,
      "ownershipPct": 4.917453543486344,
      "groupPct": 14.77469050635129,
      "effectiveDate": "2024-01-22"
    }
  ],
  "currentPage": 1,
  "size": 10,
  "totalElements": 14,
  "totalPages": 2
}