{
  "data": [
    {
      "code": "ALV",
      "shareholderType": "PERSON",
      "shareholderName": "Phạm Ngọc Phương",
      "roleType": "Cổ đông lớn",
      "enRoleType": "Major Shareholder",
      "numberOfShares": 2138600,
      "ownershipPct": 22.23456436119346,
      "effectiveDate": "2025-09-08"
    },
    {
      "code": "ALV",
      "shareholderType": "PERSON",
      "shareholderName": "Nguyễn Viết Nhiên",
      "roleType": "Cổ đông lớn",
      "enRoleType": "Major Shareholder",
      "numberOfShares": 582590,
      "ownershipPct": 6.05706296230604,
      "effectiveDate": "2025-09-08"
    },
    {
      "code": "ALV",
      "shareholderType": "PERSON",
      "shareholderName": "Phương Tiến Dũng",
      "roleType": "Cổ đông lớn",
      "enRoleType": "Major Shareholder",
      "numberOfShares": 481793,
      "ownershipPct": 5.009098226537211,
      "effectiveDate": "2025-09-08"
    },
    {
      "code": "ALV",
      "shareholderType": "PERSON",
      "shareholderName": "Lâm Thu Huyền",
      "roleType": "Chủ tịch HĐQT",
      "enRoleType": "Chairman",
      "numberOfShares": 476000,
      "ownershipPct": 4.948869651140039,
      "effectiveDate": "2025-09-08"
    },
    {
      "code": "ALV",
      "shareholderType": "PERSON",
      "shareholderName": "Vũ Thị Thanh Thảo",
      "roleType": "Cổ đông lớn",
      "enRoleType": "Major Shareholder",
      "numberOfShares": 468690,
      "ownershipPct": 4.872869152926103,
      "effectiveDate": "2025-09-08"
    },
    {
      "code": "ALV",
      "shareholderType": "PERSON",
      "shareholderName": "Phạm Huy Hoàng",
      "roleType": "Cổ đông lớn",
      "enRoleType": "Major Shareholder",
      "numberOfShares": 463950,
      "ownershipPct": 4.823588392114329,
      "effectiveDate": "2025-09-08"
    },
    {
      "code": "ALV",
      "shareholderType": "PERSON",
      "shareholderName": "Trương Thế Sơn",
      "roleType": "Cổ đông lớn",
      "enRoleType": "Major Shareholder",
      "numberOfShares": 447678,
      "ownershipPct": 4.654411906897207,
      "effectiveDate": "2025-09-08"
    },
    {
      "code": "ALV",
      "shareholderType": "PERSON",
      "shareholderName": "Trương Thế Dũng",
      "roleType": "Cổ đông lớn",
      "enRoleType": "Major Shareholder",
      "numberOfShares": 444380,
      "ownershipPct": 4.620123310028593,
      "effectiveDate": "2025-09-08"
    },
    {
      "code": "ALV",
      "shareholderType": "PERSON",
      "shareholderName": "Phạm Thị Minh Ngọc",
      "roleType": "Cổ đông lớn",
      "enRoleType": "Major Shareholder",
      "numberOfShares": 442510,
      "ownershipPct": 4.600681322113401,
      "effectiveDate": "2025-09-08"
    },
    {
      "code": "ALV",
      "shareholderType": "PERSON",
      "shareholderName": "Hồ Thị Thủy",
      "roleType": "Cổ đông lớn",
      "enRoleType": "Major Shareholder",
      "numberOfShares": 425000,
      "ownershipPct": 4.41863361708932,
      "effectiveDate": "2025-09-08"
    }
  ],
  "currentPage": 1,
  "size": 10,
  "totalElements": 17,
  "totalPages": 2
}