{"data":[{"code":"AMV","shareholderType":"PERSON","shareholderName":"Nguyễn Hoàn Thiện","roleType":"Cổ đông lớn","enRoleType":"Major Shareholder","numberOfShares":6333420,"ownershipPct":4.830775790364489,"effectiveDate":"2022-07-26"},{"code":"AMV","shareholderType":"PERSON","shareholderName":"Phạm Thế Vỹ","roleType":"Cổ đông lớn","enRoleType":"Major Shareholder","numberOfShares":6308000,"ownershipPct":4.81138684717249,"effectiveDate":"2022-07-04"},{"code":"AMV","shareholderType":"PERSON","shareholderName":"Nguyễn Thị Hồng Hải","roleType":"Cổ đông lớn","enRoleType":"Major Shareholder","numberOfShares":6092000,"ownershipPct":4.646634222094929,"effectiveDate":"2022-07-21"},{"code":"AMV","shareholderType":"PERSON","shareholderName":"Phạm Thế Vĩ","roleType":"Cổ đông lớn","enRoleType":"Major Shareholder","numberOfShares":5762300,"ownershipPct":4.395157645761262,"effectiveDate":"2022-05-22"},{"code":"AMV","shareholderType":"PERSON","shareholderName":"Lê Đức Khanh","roleType":"Cổ đông lớn","enRoleType":"Major Shareholder","numberOfShares":5000000,"ownershipPct":3.813718173091701,"effectiveDate":"2023-08-15"},{"code":"AMV","shareholderType":"PERSON","shareholderName":"Hoàng Văn Ba","roleType":"Cổ đông lớn","enRoleType":"Major Shareholder","numberOfShares":5000000,"ownershipPct":3.813718173091701,"effectiveDate":"2023-06-27"},{"code":"AMV","shareholderType":"PERSON","shareholderName":"Phạm Thị Oanh","roleType":"Cổ đông lớn","enRoleType":"Major Shareholder","numberOfShares":4712044,"ownershipPct":3.5940815670415422,"effectiveDate":"2023-06-12"},{"code":"AMV","shareholderType":"PERSON","shareholderName":"Nguyễn Mai Loan","roleType":"Cổ đông lớn","enRoleType":"Major Shareholder","numberOfShares":4332000,"ownershipPct":3.30420542516665,"effectiveDate":"2022-03-22"},{"code":"AMV","shareholderType":"PERSON","shareholderName":"Ngô Văn Bình","roleType":"Cổ đông lớn","enRoleType":"Major Shareholder","numberOfShares":2740145,"ownershipPct":2.0900281566812717,"effectiveDate":"2022-03-17"},{"code":"AMV","shareholderType":"PERSON","shareholderName":"Phạm Văn Tuy","roleType":"Cổ đông lớn","enRoleType":"Major Shareholder","numberOfShares":1512000,"ownershipPct":1.1532683755429305,"effectiveDate":"2020-06-30"}],"currentPage":1,"size":10,"totalElements":11,"totalPages":2}