{
  "data": [
    {
      "code": "APC",
      "shareholderType": "PERSON",
      "shareholderName": "Võ Thùy Dương",
      "roleType": "Thành viên HĐQT",
      "enRoleType": "Board member",
      "numberOfShares": 8052920,
      "ownershipPct": 40.02167841742583,
      "effectiveDate": "2019-11-04"
    },
    {
      "code": "APC",
      "shareholderType": "COMPANY",
      "shareholderName": "Công ty Trách nhiệm hữu hạn Thái Sơn",
      "roleType": "Cổ đông lớn",
      "enRoleType": "Major Shareholder",
      "numberOfShares": 4459654,
      "ownershipPct": 22.163741629245884,
      "effectiveDate": "2019-11-04"
    },
    {
      "code": "APC",
      "shareholderType": "COMPANY",
      "shareholderName": "Torus Capital Investments Pte.Ltd",
      "roleType": "Cổ đông lớn",
      "enRoleType": "Major Shareholder",
      "numberOfShares": 2870720,
      "ownershipPct": 14.267002859394193,
      "effectiveDate": "2019-11-04"
    },
    {
      "code": "APC",
      "shareholderType": "PERSON",
      "shareholderName": "Võ Thái Sơn",
      "roleType": "Thành viên HĐQT",
      "enRoleType": "Board member",
      "numberOfShares": 871100,
      "ownershipPct": 4.329222700513558,
      "effectiveDate": "2024-04-26"
    },
    {
      "code": "APC",
      "shareholderType": "PERSON",
      "shareholderName": "Đào Ngọc Quốc",
      "roleType": "Cổ đông lớn",
      "enRoleType": "Major Shareholder",
      "numberOfShares": 577340,
      "ownershipPct": 2.8692841624549392,
      "effectiveDate": "2018-05-21"
    },
    {
      "code": "APC",
      "shareholderType": "PERSON",
      "shareholderName": "Lê Thị Mỹ Duyên",
      "roleType": "Thành viên HĐQT",
      "enRoleType": "Board member",
      "numberOfShares": 548340,
      "ownershipPct": 2.725158966363913,
      "effectiveDate": "2023-06-30"
    },
    {
      "code": "APC",
      "shareholderType": "COMPANY",
      "shareholderName": "Vietnam Dragon Fund Ltd",
      "roleType": "Cổ đông lớn",
      "enRoleType": "Major Shareholder",
      "numberOfShares": 525000,
      "ownershipPct": 2.609163032682376,
      "effectiveDate": "2020-06-30"
    },
    {
      "code": "APC",
      "shareholderType": "COMPANY",
      "shareholderName": "Công ty CP Đầu tư Toàn Việt",
      "roleType": "Cổ đông lớn",
      "enRoleType": "Major Shareholder",
      "numberOfShares": 500310,
      "ownershipPct": 2.486457822631085,
      "effectiveDate": "2014-08-27"
    },
    {
      "code": "APC",
      "shareholderType": "COMPANY",
      "shareholderName": "Chứng khoán MB",
      "roleType": "Cổ đông lớn",
      "enRoleType": "Major Shareholder",
      "numberOfShares": 440309,
      "ownershipPct": 2.188262791918751,
      "effectiveDate": "2011-04-08"
    },
    {
      "code": "APC",
      "shareholderType": "COMPANY",
      "shareholderName": "Caledonia Investment PLC",
      "roleType": "Cổ đông lớn",
      "enRoleType": "Major Shareholder",
      "numberOfShares": 437498,
      "ownershipPct": 2.1742925875666175,
      "effectiveDate": "2020-06-30"
    }
  ],
  "currentPage": 1,
  "size": 10,
  "totalElements": 11,
  "totalPages": 2
}