{
  "data": [
    {
      "code": "APF",
      "shareholderType": "PERSON",
      "shareholderName": "Nguyễn Đức Thắng",
      "roleType": "Cổ đông lớn",
      "enRoleType": "Major Shareholder",
      "numberOfShares": 1825175,
      "ownershipPct": 5.573455915213419,
      "effectiveDate": "2025-07-25"
    },
    {
      "code": "APF",
      "shareholderType": "PERSON",
      "shareholderName": "Nguyễn Đức Thắng",
      "roleType": "Phó chủ tịch HĐQT",
      "enRoleType": "Vice-chairman",
      "numberOfShares": 1738825,
      "ownershipPct": 5.309772751528469,
      "effectiveDate": "2024-07-09"
    },
    {
      "code": "APF",
      "shareholderType": "PERSON",
      "shareholderName": "Võ Văn Danh",
      "roleType": "Chủ tịch HĐQT",
      "enRoleType": "Chairman",
      "numberOfShares": 1705613,
      "ownershipPct": 5.208354740731659,
      "effectiveDate": "2025-07-25"
    },
    {
      "code": "APF",
      "shareholderType": "PERSON",
      "shareholderName": "Vũ Lam Sơn",
      "roleType": "Cổ đông lớn",
      "enRoleType": "Major Shareholder",
      "numberOfShares": 1451290,
      "ownershipPct": 4.431739879841705,
      "effectiveDate": "2023-06-19"
    },
    {
      "code": "APF",
      "shareholderType": "PERSON",
      "shareholderName": "Lê Tuấn Toàn",
      "roleType": "Thành viên HĐQT",
      "enRoleType": "Board member",
      "numberOfShares": 852809,
      "ownershipPct": 2.6041850045049055,
      "effectiveDate": "2025-08-20"
    },
    {
      "code": "APF",
      "shareholderType": "PERSON",
      "shareholderName": "Bùi Thị Như Hoa",
      "roleType": "Cổ đông lớn",
      "enRoleType": "Major Shareholder",
      "numberOfShares": 623940,
      "ownershipPct": 1.9052978940311263,
      "effectiveDate": "2025-07-25"
    },
    {
      "code": "APF",
      "shareholderType": "PERSON",
      "shareholderName": "Trần Ngọc Hải",
      "roleType": "Phó chủ tịch HĐQT",
      "enRoleType": "Vice-chairman",
      "numberOfShares": 580400,
      "ownershipPct": 1.7723417278835556,
      "effectiveDate": "2025-07-25"
    },
    {
      "code": "APF",
      "shareholderType": "PERSON",
      "shareholderName": "Ngô Văn Tươi",
      "roleType": "Cổ đông lớn",
      "enRoleType": "Major Shareholder",
      "numberOfShares": 486048,
      "ownershipPct": 1.484223211844153,
      "effectiveDate": "2023-06-19"
    },
    {
      "code": "APF",
      "shareholderType": "PERSON",
      "shareholderName": "Lê Ngọc Hinh",
      "roleType": "Thành viên HĐQT",
      "enRoleType": "Board member",
      "numberOfShares": 443066,
      "ownershipPct": 1.352970985538345,
      "effectiveDate": "2024-07-09"
    },
    {
      "code": "APF",
      "shareholderType": "PERSON",
      "shareholderName": "Đặng Mỹ Ái Hoa",
      "roleType": "Vợ của Chủ tịch HĐQT",
      "enRoleType": "Wife of Chairman",
      "numberOfShares": 374763,
      "ownershipPct": 1.1443971450152048,
      "groupPct": 1.314363617403211,
      "effectiveDate": "2023-06-19"
    }
  ],
  "currentPage": 1,
  "size": 10,
  "totalElements": 11,
  "totalPages": 2
}