{"data":[{"code":"API","shareholderType":"PERSON","shareholderName":"Nguyễn Đỗ Lăng","roleType":"Thành viên HĐQT","enRoleType":"Board member","numberOfShares":16482668,"ownershipPct":19.602626783490827,"effectiveDate":"2023-06-30"},{"code":"API","shareholderType":"COMPANY","shareholderName":"Asean Small Cap Fund","roleType":"Cổ đông lớn","enRoleType":"Major Shareholder","numberOfShares":14428920,"ownershipPct":17.160130486693447,"effectiveDate":"2022-09-06"},{"code":"API","shareholderType":"COMPANY","shareholderName":"Chứng khoán APEC","roleType":"Cổ đông lớn","enRoleType":"Major Shareholder","numberOfShares":11016720,"ownershipPct":13.102044556028131,"effectiveDate":"2023-06-20"},{"code":"API","shareholderType":"PERSON","shareholderName":"Huỳnh Thị Mai Dung","roleType":"Cổ đông lớn","enRoleType":"Major Shareholder","numberOfShares":8258360,"ownershipPct":9.821562196345235,"effectiveDate":"2022-09-06"},{"code":"API","shareholderType":"PERSON","shareholderName":"Nguyễn Thu Phương","roleType":"Cổ đông lớn","enRoleType":"Major Shareholder","numberOfShares":6600000,"ownershipPct":7.849295803994806,"effectiveDate":"2022-09-06"},{"code":"API","shareholderType":"PERSON","shareholderName":"Nguyễn Ngọc Diệp","roleType":"Cổ đông lớn","enRoleType":"Major Shareholder","numberOfShares":5623600,"ownershipPct":6.688075739900786,"effectiveDate":"2023-06-07"},{"code":"API","shareholderType":"COMPANY","shareholderName":"PYN ELITE FUND (NON - UCITS)","roleType":"Cổ đông lớn","enRoleType":"Major Shareholder","numberOfShares":2630540,"ownershipPct":3.128467664278863,"effectiveDate":"2022-09-06"},{"code":"API","shareholderType":"COMPANY","shareholderName":"CTCP Đầu tư Châu Á Thái Bình Dương","roleType":"Cổ đông lớn","enRoleType":"Major Shareholder","numberOfShares":2200000,"ownershipPct":2.6164319346649356,"effectiveDate":"2022-09-06"},{"code":"API","shareholderType":"PERSON","shareholderName":"Lê Hồng Nam","roleType":"Cổ đông lớn","enRoleType":"Major Shareholder","numberOfShares":1664100,"ownershipPct":1.9790929011254177,"effectiveDate":"2017-04-25"},{"code":"API","shareholderType":"PERSON","shareholderName":"Đặng Thanh Tú","roleType":"Cổ đông lớn","enRoleType":"Major Shareholder","numberOfShares":1298400,"ownershipPct":1.5441705563495238,"effectiveDate":"2014-11-19"}],"currentPage":1,"size":10,"totalElements":12,"totalPages":2}