{"data":[{"code":"APP","shareholderType":"PERSON","shareholderName":"Hoàng Trung Dũng","roleType":"Thành viên HĐQT","enRoleType":"Board member","numberOfShares":1139828,"ownershipPct":24.125222874501127,"effectiveDate":"2020-12-31"},{"code":"APP","shareholderType":"PERSON","shareholderName":"Nguyễn Hà Trung","roleType":"Cổ đông lớn","enRoleType":"Major Shareholder","numberOfShares":785065,"ownershipPct":16.616426422206004,"effectiveDate":"2020-12-31"},{"code":"APP","shareholderType":"PERSON","shareholderName":"Vũ Thị Phương Thảo","roleType":"Cổ đông lớn","enRoleType":"Major Shareholder","numberOfShares":323083,"ownershipPct":6.838268038653593,"effectiveDate":"2020-06-30"},{"code":"APP","shareholderType":"PERSON","shareholderName":"Bùi Bảo Ngọc","roleType":"Cổ đông lớn","enRoleType":"Major Shareholder","numberOfShares":250325,"ownershipPct":5.298296248258065,"effectiveDate":"2020-06-30"},{"code":"APP","shareholderType":"PERSON","shareholderName":"Nguyễn Thành Luyện","roleType":"Cổ đông lớn","enRoleType":"Major Shareholder","numberOfShares":235500,"ownershipPct":4.984515196104162,"effectiveDate":"2023-08-09"},{"code":"APP","shareholderType":"PERSON","shareholderName":"Phan Hải Hà","roleType":"Thành viên BKS","enRoleType":"Control member","numberOfShares":231078,"ownershipPct":4.890920605033365,"effectiveDate":"2022-06-30"},{"code":"APP","shareholderType":"PERSON","shareholderName":"Hoàng Bình Dương","roleType":"Thành viên HĐQT","enRoleType":"Board member","numberOfShares":229591,"ownershipPct":4.859447254304674,"effectiveDate":"2022-12-31"},{"code":"APP","shareholderType":"PERSON","shareholderName":"Đào Thị Thanh Hà","roleType":"Trưởng BKS","enRoleType":"Head of Control","numberOfShares":213078,"ownershipPct":4.509938551827952,"effectiveDate":"2022-12-31"},{"code":"APP","shareholderType":"PERSON","shareholderName":"Nguyễn Anh Tuấn","roleType":"Thành viên HĐQT","enRoleType":"Board member","numberOfShares":207282,"ownershipPct":4.387262330695808,"effectiveDate":"2022-06-30"},{"code":"APP","shareholderType":"PERSON","shareholderName":"Huỳnh Cẩm Đoan","roleType":"Cổ đông lớn","enRoleType":"Major Shareholder","numberOfShares":167600,"ownershipPct":3.5473662287348517,"effectiveDate":"2022-12-12"}],"currentPage":1,"size":10,"totalElements":11,"totalPages":2}