{"data":[{"code":"ATG","shareholderType":"PERSON","shareholderName":"Võ Quí Lâm","roleType":"Tổng Giám đốc","enRoleType":"CEO","numberOfShares":1388200,"ownershipPct":9.120893561103811,"effectiveDate":"2022-12-31"},{"code":"ATG","shareholderType":"PERSON","shareholderName":"Trương Đình Xuân","roleType":"Đại diện CBTT","enRoleType":"Spokeman","numberOfShares":940429,"ownershipPct":6.178902759526938,"effectiveDate":"2023-04-07"},{"code":"ATG","shareholderType":"PERSON","shareholderName":"Lê Anh Quân","roleType":"Cổ đông lớn","enRoleType":"Major Shareholder","numberOfShares":743580,"ownershipPct":4.885545335085414,"effectiveDate":"2020-07-15"},{"code":"ATG","shareholderType":"PERSON","shareholderName":"Đỗ Phi Thường","roleType":"Cổ đông lớn","enRoleType":"Major Shareholder","numberOfShares":675560,"ownershipPct":4.438633377135348,"effectiveDate":"2019-04-10"},{"code":"ATG","shareholderType":"PERSON","shareholderName":"Phan Văn Phước","roleType":"Cổ đông lớn","enRoleType":"Major Shareholder","numberOfShares":658760,"ownershipPct":4.328252299605782,"effectiveDate":"2016-10-03"},{"code":"ATG","shareholderType":"PERSON","shareholderName":"Tạ Minh Hiếu","roleType":"Cổ đông lớn","enRoleType":"Major Shareholder","numberOfShares":647860,"ownershipPct":4.256636005256242,"effectiveDate":"2020-08-26"},{"code":"ATG","shareholderType":"PERSON","shareholderName":"Đào Minh Tùng","roleType":"Phó TGĐ","enRoleType":"Deputy CEO","numberOfShares":294021,"ownershipPct":1.9318068331143232,"effectiveDate":"2017-04-27"},{"code":"ATG","shareholderType":"PERSON","shareholderName":"Lê Quốc Cường","roleType":"Cổ đông lớn","enRoleType":"Major Shareholder","numberOfShares":288600,"ownershipPct":1.8961892247043364,"effectiveDate":"2021-08-20"},{"code":"ATG","shareholderType":"PERSON","shareholderName":"Lê Quốc","roleType":"Cổ đông lớn","enRoleType":"Major Shareholder","numberOfShares":216690,"ownershipPct":1.423718791064389,"effectiveDate":"2021-08-20"},{"code":"ATG","shareholderType":"PERSON","shareholderName":"Huỳnh Thị Nga","roleType":"Cổ đông lớn","enRoleType":"Major Shareholder","numberOfShares":198930,"ownershipPct":1.307030223390276,"effectiveDate":"2017-01-25"}],"currentPage":1,"size":10,"totalElements":11,"totalPages":2}