{
  "data": [
    {
      "code": "ATS",
      "shareholderType": "PERSON",
      "shareholderName": "Đỗ Duy Kiên",
      "roleType": "Cổ đông lớn",
      "enRoleType": "Major Shareholder",
      "numberOfShares": 866060,
      "ownershipPct": 24.74457142857143,
      "effectiveDate": "2024-03-15"
    },
    {
      "code": "ATS",
      "shareholderType": "PERSON",
      "shareholderName": "Trần Thị Thanh",
      "roleType": "Cổ đông lớn",
      "enRoleType": "Major Shareholder",
      "numberOfShares": 347700,
      "ownershipPct": 9.934285714285714,
      "effectiveDate": "2024-05-15"
    },
    {
      "code": "ATS",
      "shareholderType": "PERSON",
      "shareholderName": "Nguyễn Thị Thúy",
      "roleType": "Cổ đông lớn",
      "enRoleType": "Major Shareholder",
      "numberOfShares": 338610,
      "ownershipPct": 9.67457142857143,
      "effectiveDate": "2025-02-06"
    },
    {
      "code": "ATS",
      "shareholderType": "PERSON",
      "shareholderName": "Phạm Anh Tuấn",
      "roleType": "Phó TGĐ",
      "enRoleType": "Deputy CEO",
      "numberOfShares": 177300,
      "ownershipPct": 5.065714285714286,
      "effectiveDate": "2022-01-28"
    },
    {
      "code": "ATS",
      "shareholderType": "PERSON",
      "shareholderName": "Trần Thị Thúy Hằng",
      "roleType": "Thành viên HĐQT",
      "enRoleType": "Board member",
      "numberOfShares": 174000,
      "ownershipPct": 4.9714285714285715,
      "effectiveDate": "2024-06-13"
    },
    {
      "code": "ATS",
      "shareholderType": "PERSON",
      "shareholderName": "Đoàn Hồng Ngọc",
      "roleType": "Cổ đông lớn",
      "enRoleType": "Major Shareholder",
      "numberOfShares": 173800,
      "ownershipPct": 4.965714285714285,
      "effectiveDate": "2018-10-09"
    },
    {
      "code": "ATS",
      "shareholderType": "PERSON",
      "shareholderName": "Chu Quang Dũng",
      "roleType": "Cổ đông lớn",
      "enRoleType": "Major Shareholder",
      "numberOfShares": 172900,
      "ownershipPct": 4.94,
      "effectiveDate": "2017-09-25"
    },
    {
      "code": "ATS",
      "shareholderType": "PERSON",
      "shareholderName": "Châu Thị Sương Mai",
      "roleType": "Kế toán trưởng",
      "enRoleType": "Chief Accountant",
      "numberOfShares": 172230,
      "ownershipPct": 4.920857142857143,
      "effectiveDate": "2024-12-31"
    },
    {
      "code": "ATS",
      "shareholderType": "PERSON",
      "shareholderName": "Nguyễn Trương Quốc Cường",
      "roleType": "Thành viên HĐQT",
      "enRoleType": "Board member",
      "numberOfShares": 170000,
      "ownershipPct": 4.857142857142857,
      "effectiveDate": "2024-05-15"
    },
    {
      "code": "ATS",
      "shareholderType": "PERSON",
      "shareholderName": "Vũ Huy Quý",
      "roleType": "Cổ đông lớn",
      "enRoleType": "Major Shareholder",
      "numberOfShares": 170000,
      "ownershipPct": 4.857142857142857,
      "effectiveDate": "2017-04-20"
    }
  ],
  "currentPage": 1,
  "size": 10,
  "totalElements": 17,
  "totalPages": 2
}