{"data":[{"code":"B82","shareholderType":"PERSON","shareholderName":"Hoàng Quyết Chiến","roleType":"Thành viên HĐQT","enRoleType":"Board member","numberOfShares":683162,"ownershipPct":13.66324,"effectiveDate":"2020-06-30"},{"code":"B82","shareholderType":"PERSON","shareholderName":"Phan Thị Huệ","roleType":"Thành viên HĐQT","enRoleType":"Board member","numberOfShares":601000,"ownershipPct":12.02,"effectiveDate":"2020-06-30"},{"code":"B82","shareholderType":"PERSON","shareholderName":"Lê Hòa Nguyễn","roleType":"Cổ đông lớn","enRoleType":"Major Shareholder","numberOfShares":344126,"ownershipPct":6.88252,"effectiveDate":"2020-06-30"},{"code":"B82","shareholderType":"PERSON","shareholderName":"Nguyễn Trọng Cẩm","roleType":"Cổ đông lớn","enRoleType":"Major Shareholder","numberOfShares":334000,"ownershipPct":6.68,"effectiveDate":"2017-04-27"},{"code":"B82","shareholderType":"PERSON","shareholderName":"Trần Văn Long","roleType":"Chủ tịch HĐQT","enRoleType":"Chairman","numberOfShares":300000,"ownershipPct":6,"effectiveDate":"2020-06-30"},{"code":"B82","shareholderType":"PERSON","shareholderName":"Dương Tạ Hải Ninh","roleType":"Cổ đông lớn","enRoleType":"Major Shareholder","numberOfShares":196600,"ownershipPct":3.932,"effectiveDate":"2022-07-01"},{"code":"B82","shareholderType":"PERSON","shareholderName":"Trần Thanh Hải","roleType":"Cổ đông lớn","enRoleType":"Major Shareholder","numberOfShares":148000,"ownershipPct":2.96,"effectiveDate":"2011-03-23"},{"code":"B82","shareholderType":"PERSON","shareholderName":"Trần Quốc Phổ","roleType":"Cổ đông lớn","enRoleType":"Major Shareholder","numberOfShares":111800,"ownershipPct":2.236,"effectiveDate":"2010-05-11"},{"code":"B82","shareholderType":"PERSON","shareholderName":"Nguyễn Khắc Thiện","roleType":"Thành viên HĐQT","enRoleType":"Board member","numberOfShares":96700,"ownershipPct":1.934,"effectiveDate":"2020-06-30"},{"code":"B82","shareholderType":"PERSON","shareholderName":"Đặng Văn Khoa","roleType":"Cổ đông lớn","enRoleType":"Major Shareholder","numberOfShares":65100,"ownershipPct":1.302,"effectiveDate":"2015-03-13"}],"currentPage":1,"size":10,"totalElements":11,"totalPages":2}