{"data":[{"code":"BBS","shareholderType":"COMPANY","shareholderName":"Công ty Cổ phần Prime Trung Tín","roleType":"Cổ đông lớn","enRoleType":"Major Shareholder","numberOfShares":4100000,"ownershipPct":68.33333333333333,"effectiveDate":"2014-08-11"},{"code":"BBS","shareholderType":"COMPANY","shareholderName":"Tổng công ty Công nghiệp xi măng Việt Nam","roleType":"Cổ đông lớn","enRoleType":"Major Shareholder","numberOfShares":2057666,"ownershipPct":34.29443333333333,"effectiveDate":"2015-10-13"},{"code":"BBS","shareholderType":"PERSON","shareholderName":"Nguyễn Mạnh Hải","roleType":"Thành viên HĐQT","enRoleType":"Board member","numberOfShares":543715,"ownershipPct":9.061916666666667,"effectiveDate":"2020-06-30"},{"code":"BBS","shareholderType":"PERSON","shareholderName":"Hoàng Trung Chiến","roleType":"Chủ tịch HĐQT","enRoleType":"Chairman","numberOfShares":480000,"ownershipPct":8,"effectiveDate":"2022-12-31"},{"code":"BBS","shareholderType":"PERSON","shareholderName":"Dương Tuấn Linh","roleType":"Phó TGĐ","enRoleType":"Deputy CEO","numberOfShares":461085,"ownershipPct":7.68475,"effectiveDate":"2022-12-31"},{"code":"BBS","shareholderType":"PERSON","shareholderName":"Dương Minh Tuấn","roleType":"Phó TGĐ","enRoleType":"Deputy CEO","numberOfShares":454727,"ownershipPct":7.578783333333333,"effectiveDate":"2022-12-31"},{"code":"BBS","shareholderType":"COMPANY","shareholderName":"CTCP Kanetora Việt Nam","roleType":"Cổ đông lớn","enRoleType":"Major Shareholder","numberOfShares":295800,"ownershipPct":4.93,"effectiveDate":"2023-03-09"},{"code":"BBS","shareholderType":"PERSON","shareholderName":"Phạm Thu Thủy","roleType":"Con của Thành viên HĐQT","enRoleType":"Child of Board member","numberOfShares":292000,"ownershipPct":4.866666666666666,"groupPct":19.416666666666668,"effectiveDate":"2023-12-31"},{"code":"BBS","shareholderType":"PERSON","shareholderName":"Trần Thị Thanh Huyền","roleType":"Em gái của Thành viên HĐQT","enRoleType":"Young Sister of Board member","numberOfShares":290000,"ownershipPct":4.833333333333333,"groupPct":19.416666666666668,"effectiveDate":"2023-12-31"},{"code":"BBS","shareholderType":"PERSON","shareholderName":"Trần Thị Nền","roleType":"Vợ của Thành viên HĐQT","enRoleType":"Wife of Board member","numberOfShares":282000,"ownershipPct":4.7,"groupPct":19.416666666666668,"effectiveDate":"2023-12-31"}],"currentPage":1,"size":10,"totalElements":14,"totalPages":2}