{"data":[{"code":"BCF","shareholderType":"PERSON","shareholderName":"Phạm Thanh Bình","roleType":"Thành viên HĐQT","enRoleType":"Board member","numberOfShares":4662008,"ownershipPct":14.44098134074772,"effectiveDate":"2023-06-23"},{"code":"BCF","shareholderType":"PERSON","shareholderName":"Bùi Văn Sáu","roleType":"Phó chủ tịch HĐQT","enRoleType":"Vice-chairman","numberOfShares":3230941,"ownershipPct":10.008124974057699,"effectiveDate":"2023-06-23"},{"code":"BCF","shareholderType":"PERSON","shareholderName":"Nguyễn Hương Liên","roleType":"Thành viên HĐQT","enRoleType":"Board member","numberOfShares":3139580,"ownershipPct":9.725126211234457,"groupPct":13.535308479524012,"effectiveDate":"2023-06-23"},{"code":"BCF","shareholderType":"PERSON","shareholderName":"Mai Thế Khôi","roleType":"Chủ tịch HĐQT","enRoleType":"Chairman","numberOfShares":3129723,"ownershipPct":9.694593283561284,"effectiveDate":"2023-06-30"},{"code":"BCF","shareholderType":"PERSON","shareholderName":"Trần Thị Như","roleType":"Vợ của Thành viên HĐQT","enRoleType":"Wife of Board member","numberOfShares":1909025,"ownershipPct":5.913373465687085,"groupPct":11.784632121123137,"effectiveDate":"2023-06-23"},{"code":"BCF","shareholderType":"PERSON","shareholderName":"Phạm Hoàng Thái","roleType":"Thành viên HĐQT","enRoleType":"Board member","numberOfShares":1618158,"ownershipPct":5.012387255530589,"groupPct":11.784632121123137,"effectiveDate":"2023-06-23"},{"code":"BCF","shareholderType":"PERSON","shareholderName":"Nguyễn Ngọc Tiều","roleType":"Thành viên HĐQT","enRoleType":"Board member","numberOfShares":1576022,"ownershipPct":4.881867275776426,"effectiveDate":"2023-06-23"},{"code":"BCF","shareholderType":"PERSON","shareholderName":"Trang Sĩ Đức","roleType":"Thành viên HĐQT","enRoleType":"Board member","numberOfShares":1462349,"ownershipPct":4.529755123256135,"effectiveDate":"2023-06-23"},{"code":"BCF","shareholderType":"PERSON","shareholderName":"Vũ Văn Hải","roleType":"Cổ đông lớn","enRoleType":"Major Shareholder","numberOfShares":1351012,"ownershipPct":4.184878936957264,"effectiveDate":"2023-06-23"},{"code":"BCF","shareholderType":"PERSON","shareholderName":"Nguyễn Thị Ngọc Hà","roleType":"Cổ đông lớn","enRoleType":"Major Shareholder","numberOfShares":1160000,"ownershipPct":3.5932024044719264,"effectiveDate":"2023-06-23"}],"currentPage":1,"size":10,"totalElements":11,"totalPages":2}