{"data":[{"code":"BIG","shareholderType":"PERSON","shareholderName":"Võ Phi Nhật Huy","roleType":"Chủ tịch HĐQT","enRoleType":"Chairman","numberOfShares":800000,"ownershipPct":16,"effectiveDate":"2023-07-27"},{"code":"BIG","shareholderType":"PERSON","shareholderName":"Lương Hoàng Hưng","roleType":"Cổ đông lớn","enRoleType":"Major Shareholder","numberOfShares":244795,"ownershipPct":4.8959,"effectiveDate":"2023-04-07"},{"code":"BIG","shareholderType":"COMPANY","shareholderName":"CTCP Huy Hoàng Holding","roleType":"Cổ đông lớn","enRoleType":"Major Shareholder","numberOfShares":240000,"ownershipPct":4.8,"effectiveDate":"2023-02-22"},{"code":"BIG","shareholderType":"COMPANY","shareholderName":"Dược Lâm Đồng","roleType":"Cổ đông lớn","enRoleType":"Major Shareholder","numberOfShares":201000,"ownershipPct":4.02,"effectiveDate":"2024-07-11"},{"code":"BIG","shareholderType":"COMPANY","shareholderName":"Công ty cổ phần đầu tư BLC","roleType":"Cổ đông lớn","enRoleType":"Major Shareholder","numberOfShares":171600,"ownershipPct":3.432,"effectiveDate":"2024-05-30"},{"code":"BIG","shareholderType":"PERSON","shareholderName":"Trương Huy Tâm","roleType":"Cổ đông lớn","enRoleType":"Major Shareholder","numberOfShares":150000,"ownershipPct":3,"effectiveDate":"2023-12-01"},{"code":"BIG","shareholderType":"PERSON","shareholderName":"Kim Thị Vân","roleType":"Cổ đông lớn","enRoleType":"Major Shareholder","numberOfShares":150000,"ownershipPct":3,"effectiveDate":"2023-11-16"},{"code":"BIG","shareholderType":"COMPANY","shareholderName":"CTCP Tập đoàn Đầu tư tài chính MYA Capital","roleType":"Cổ đông lớn","enRoleType":"Major Shareholder","numberOfShares":123000,"ownershipPct":2.46,"effectiveDate":"2023-05-31"},{"code":"BIG","shareholderType":"PERSON","shareholderName":"Kiều Văn Khoa","roleType":"Phó chủ tịch HĐQT","enRoleType":"Vice-chairman","numberOfShares":50000,"ownershipPct":1,"effectiveDate":"2021-09-28"},{"code":"BIG","shareholderType":"PERSON","shareholderName":"Trần Thị Mưa Thao","roleType":"Thành viên HĐQT","enRoleType":"Board member","numberOfShares":50000,"ownershipPct":1,"effectiveDate":"2021-09-28"}],"currentPage":1,"size":10,"totalElements":11,"totalPages":2}