{"data":[{"code":"BMG","shareholderType":"COMPANY","shareholderName":"T.đoàn Dệt May VN","roleType":"Cổ đông lớn","enRoleType":"Major Shareholder","numberOfShares":1323000,"ownershipPct":25,"effectiveDate":"2020-06-30"},{"code":"BMG","shareholderType":"COMPANY","shareholderName":"Domex Company Ltd","roleType":"Cổ đông lớn","enRoleType":"Major Shareholder","numberOfShares":529200,"ownershipPct":10,"effectiveDate":"2020-06-30"},{"code":"BMG","shareholderType":"PERSON","shareholderName":"Nguyễn Ngọc Hải","roleType":"Thành viên HĐQT","enRoleType":"Board member","numberOfShares":264600,"ownershipPct":5,"effectiveDate":"2020-06-30"},{"code":"BMG","shareholderType":"PERSON","shareholderName":"Phạm Thị Hoa","roleType":"Vợ của Thành viên HĐQT","enRoleType":"Wife of Board member","numberOfShares":264600,"ownershipPct":5,"groupPct":7.935563114134543,"effectiveDate":"2020-06-30"},{"code":"BMG","shareholderType":"PERSON","shareholderName":"Tu Yen Hsien","roleType":"Cổ đông lớn","enRoleType":"Major Shareholder","numberOfShares":264600,"ownershipPct":5,"effectiveDate":"2023-11-03"},{"code":"BMG","shareholderType":"PERSON","shareholderName":"Nguyễn Thị Thắng","roleType":"Thành viên HĐQT","enRoleType":"Board member","numberOfShares":237082,"ownershipPct":4.480007558578987,"effectiveDate":"2020-06-30"},{"code":"BMG","shareholderType":"PERSON","shareholderName":"Ngô Kim Quy","roleType":"Cổ đông lớn","enRoleType":"Major Shareholder","numberOfShares":208211,"ownershipPct":3.934448223733938,"effectiveDate":"2022-04-29"},{"code":"BMG","shareholderType":"PERSON","shareholderName":"Hồ Đặng Ngọc Diễm","roleType":"Thành viên BKS","enRoleType":"Control member","numberOfShares":158760,"ownershipPct":3,"effectiveDate":"2022-12-31"},{"code":"BMG","shareholderType":"PERSON","shareholderName":"Phạm Thị Nụ","roleType":"Em gái của Thành viên HĐQT","enRoleType":"Young Sister of Board member","numberOfShares":155350,"ownershipPct":2.935563114134543,"groupPct":7.935563114134543,"effectiveDate":"2020-06-30"},{"code":"BMG","shareholderType":"PERSON","shareholderName":"Võ Quốc Hào","roleType":"Thành viên HĐQT","enRoleType":"Board member","numberOfShares":150024,"ownershipPct":2.834920634920635,"effectiveDate":"2022-12-31"}],"currentPage":1,"size":10,"totalElements":13,"totalPages":2}