{
  "data": [
    {
      "code": "BT6",
      "shareholderType": "COMPANY",
      "shareholderName": " Công ty cổ phần Thiết bị Xây dựng An Phong",
      "roleType": "Cổ đông lớn",
      "enRoleType": "Major Shareholder",
      "numberOfShares": 6323148,
      "ownershipPct": 19.21607657805638,
      "effectiveDate": "2023-05-12"
    },
    {
      "code": "BT6",
      "shareholderType": "COMPANY",
      "shareholderName": "Công ty TNHH Mascon",
      "roleType": "Cổ đông lớn",
      "enRoleType": "Major Shareholder",
      "numberOfShares": 5249540,
      "ownershipPct": 15.953376805282762,
      "effectiveDate": "2021-11-12"
    },
    {
      "code": "BT6",
      "shareholderType": "COMPANY",
      "shareholderName": "Golden Trinity Assets Limited",
      "roleType": "Cổ đông lớn",
      "enRoleType": "Major Shareholder",
      "numberOfShares": 2581395,
      "ownershipPct": 7.844871573180297,
      "effectiveDate": "2017-09-11"
    },
    {
      "code": "BT6",
      "shareholderType": "COMPANY",
      "shareholderName": "CTCP Xây dựng Đầu tư HB",
      "roleType": "Cổ đông lớn",
      "enRoleType": "Major Shareholder",
      "numberOfShares": 2450640,
      "ownershipPct": 7.447506511827351,
      "effectiveDate": "2017-08-08"
    },
    {
      "code": "BT6",
      "shareholderType": "PERSON",
      "shareholderName": "Trịnh Thanh Huy",
      "roleType": "Chủ tịch HĐQT",
      "enRoleType": "Chairman",
      "numberOfShares": 2202448,
      "ownershipPct": 6.693249853899848,
      "effectiveDate": "2022-12-31"
    },
    {
      "code": "BT6",
      "shareholderType": "COMPANY",
      "shareholderName": "Tổng Công ty Xây dựng công trình giao thông 6 - CTCP",
      "roleType": "Cổ đông lớn",
      "enRoleType": "Major Shareholder",
      "numberOfShares": 1956903,
      "ownershipPct": 5.947037441449775,
      "effectiveDate": "2020-06-30"
    },
    {
      "code": "BT6",
      "shareholderType": "COMPANY",
      "shareholderName": "DV ôtô PTM",
      "roleType": "Cổ đông lớn",
      "enRoleType": "Major Shareholder",
      "numberOfShares": 1834266,
      "ownershipPct": 5.574343020363459,
      "effectiveDate": "2008-03-14"
    },
    {
      "code": "BT6",
      "shareholderType": "COMPANY",
      "shareholderName": "Croesus Global Equity Limited",
      "roleType": "Cổ đông lớn",
      "enRoleType": "Major Shareholder",
      "numberOfShares": 1823880,
      "ownershipPct": 5.54277991740593,
      "effectiveDate": "2009-06-08"
    },
    {
      "code": "BT6",
      "shareholderType": "COMPANY",
      "shareholderName": "Commerzbank (South East Asia) Ltd.",
      "roleType": "Cổ đông lớn",
      "enRoleType": "Major Shareholder",
      "numberOfShares": 1633395,
      "ownershipPct": 4.963895104497697,
      "effectiveDate": "2020-06-30"
    },
    {
      "code": "BT6",
      "shareholderType": "PERSON",
      "shareholderName": "Ngô Thu Nga",
      "roleType": "Cổ đông lớn",
      "enRoleType": "Major Shareholder",
      "numberOfShares": 1620000,
      "ownershipPct": 4.923187636356343,
      "effectiveDate": "2022-09-09"
    }
  ],
  "currentPage": 1,
  "size": 10,
  "totalElements": 20,
  "totalPages": 2
}