{"data":[{"code":"C32","shareholderType":"PERSON","shareholderName":"Bùi Thu Huyền","roleType":"Thành viên HĐQT","enRoleType":"Board member","numberOfShares":3610322,"ownershipPct":24.020540054670132,"effectiveDate":"2024-01-23"},{"code":"C32","shareholderType":"PERSON","shareholderName":"Mai Tiến Trung","roleType":"Cổ đông lớn","enRoleType":"Major Shareholder","numberOfShares":2000000,"ownershipPct":13.306591519908823,"effectiveDate":"2011-01-18"},{"code":"C32","shareholderType":"PERSON","shareholderName":"Phạm Thị Thu Thủy","roleType":"Cổ đông lớn","enRoleType":"Major Shareholder","numberOfShares":1362000,"ownershipPct":9.061788825057908,"effectiveDate":"2024-04-04"},{"code":"C32","shareholderType":"PERSON","shareholderName":"Phan Hoàng Tuấn","roleType":"Cổ đông lớn","enRoleType":"Major Shareholder","numberOfShares":748550,"ownershipPct":4.980324541113875,"effectiveDate":"2022-07-06"},{"code":"C32","shareholderType":"COMPANY","shareholderName":"Quỹ Đầu Tư Chứng Khoán Việt Nam","roleType":"Cổ đông lớn","enRoleType":"Major Shareholder","numberOfShares":713262,"ownershipPct":4.745543040336604,"effectiveDate":"2020-06-30"},{"code":"C32","shareholderType":"COMPANY","shareholderName":"Công đoàn cơ sở Công ty cổ phần CIC39","roleType":"Cổ đông lớn","enRoleType":"Major Shareholder","numberOfShares":467310,"ownershipPct":3.109151641584296,"effectiveDate":"2022-07-27"},{"code":"C32","shareholderType":"PERSON","shareholderName":"Ngô Đức Tài","roleType":"Cổ đông lớn","enRoleType":"Major Shareholder","numberOfShares":450000,"ownershipPct":2.9939830919794854,"effectiveDate":"2013-12-06"},{"code":"C32","shareholderType":"COMPANY","shareholderName":"Hợp tác xã Phúc Tài","roleType":"Cổ đông lớn","enRoleType":"Major Shareholder","numberOfShares":354552,"ownershipPct":2.3589393182833565,"effectiveDate":"2020-06-30"},{"code":"C32","shareholderType":"PERSON","shareholderName":"Võ Văn Lãnh","roleType":"Thành viên HĐQT","enRoleType":"Board member","numberOfShares":258782,"ownershipPct":1.7217531833525226,"effectiveDate":"2022-02-08"},{"code":"C32","shareholderType":"COMPANY","shareholderName":"Công đoàn cơ sở CTCP Đầu tư xây dựng 3-2","roleType":"Cổ đông lớn","enRoleType":"Major Shareholder","numberOfShares":254010,"ownershipPct":1.69000365598602,"effectiveDate":"2019-12-24"}],"currentPage":1,"size":10,"totalElements":11,"totalPages":2}