{"data":[{"code":"C47","shareholderType":"COMPANY","shareholderName":"Công ty TNHH VP Invest","roleType":"Cổ đông lớn","enRoleType":"Major Shareholder","numberOfShares":6633000,"ownershipPct":18.251474612110762,"effectiveDate":"2023-11-29"},{"code":"C47","shareholderType":"COMPANY","shareholderName":"SCIC","roleType":"Cổ đông lớn","enRoleType":"Major Shareholder","numberOfShares":4992790,"ownershipPct":13.738245127182346,"effectiveDate":"2023-11-29"},{"code":"C47","shareholderType":"PERSON","shareholderName":"Lê Đông Lâm","roleType":"Phó chủ tịch HĐQT","enRoleType":"Vice-chairman","numberOfShares":1990164,"ownershipPct":5.476168810483462,"effectiveDate":"2023-11-29"},{"code":"C47","shareholderType":"COMPANY","shareholderName":"CK Bảo Minh","roleType":"Cổ đông lớn","enRoleType":"Major Shareholder","numberOfShares":1716171,"ownershipPct":4.722245052998755,"effectiveDate":"2023-11-29"},{"code":"C47","shareholderType":"PERSON","shareholderName":"Phạm Thị Trung Hiếu","roleType":"Cổ đông lớn","enRoleType":"Major Shareholder","numberOfShares":1324065,"ownershipPct":3.643319573689799,"effectiveDate":"2023-11-29"},{"code":"C47","shareholderType":"PERSON","shareholderName":"Tô Thị Bình","roleType":"Mẹ chồng/vợ của Thành viên HĐQT","enRoleType":"Mother in law of Board member","numberOfShares":1142143,"ownershipPct":3.1427399318407994,"groupPct":3.1430150935264938,"effectiveDate":"2023-11-29"},{"code":"C47","shareholderType":"PERSON","shareholderName":"Nguyễn Lương Am","roleType":"Cổ đông lớn","enRoleType":"Major Shareholder","numberOfShares":1002047,"ownershipPct":2.7572494166503474,"effectiveDate":"2023-11-29"},{"code":"C47","shareholderType":"PERSON","shareholderName":"Nguyễn Đức Viện","roleType":"Cổ đông lớn","enRoleType":"Major Shareholder","numberOfShares":950624,"ownershipPct":2.6157530230157064,"effectiveDate":"2023-11-29"},{"code":"C47","shareholderType":"PERSON","shareholderName":"Dương Minh Quang","roleType":"Thành viên HĐQT","enRoleType":"Board member","numberOfShares":925797,"ownershipPct":2.5474386313083532,"effectiveDate":"2023-11-29"},{"code":"C47","shareholderType":"PERSON","shareholderName":"Lê Trường Sơn","roleType":"Cổ đông lớn","enRoleType":"Major Shareholder","numberOfShares":900079,"ownershipPct":2.4766725489814627,"effectiveDate":"2023-11-29"}],"currentPage":1,"size":10,"totalElements":13,"totalPages":2}