{
  "data": [
    {
      "code": "C69",
      "shareholderType": "PERSON",
      "shareholderName": "Lê Tuấn Nghĩa",
      "roleType": "Thành viên HĐQT",
      "enRoleType": "Board member",
      "numberOfShares": 5170342,
      "ownershipPct": 8.366252981473842,
      "effectiveDate": "2023-05-25"
    },
    {
      "code": "C69",
      "shareholderType": "PERSON",
      "shareholderName": "Nguyễn Bá Dũng",
      "roleType": "Cổ đông lớn",
      "enRoleType": "Major Shareholder",
      "numberOfShares": 5150000,
      "ownershipPct": 8.333337108955325,
      "effectiveDate": "2023-05-25"
    },
    {
      "code": "C69",
      "shareholderType": "COMPANY",
      "shareholderName": "Công ty TNHH Đầu tư và Thương mại Nam Phương",
      "roleType": "Cổ đông lớn",
      "enRoleType": "Major Shareholder",
      "numberOfShares": 3090000,
      "ownershipPct": 5.000002265373195,
      "effectiveDate": "2023-05-25"
    },
    {
      "code": "C69",
      "shareholderType": "PERSON",
      "shareholderName": "Lưu Bảo Trung",
      "roleType": "Cổ đông lớn",
      "enRoleType": "Major Shareholder",
      "numberOfShares": 3081657,
      "ownershipPct": 4.986502259256687,
      "effectiveDate": "2023-05-25"
    },
    {
      "code": "C69",
      "shareholderType": "PERSON",
      "shareholderName": "Vũ Hồng Quân",
      "roleType": "Cổ đông lớn",
      "enRoleType": "Major Shareholder",
      "numberOfShares": 2986485,
      "ownershipPct": 4.8325021894831925,
      "effectiveDate": "2023-05-25"
    },
    {
      "code": "C69",
      "shareholderType": "PERSON",
      "shareholderName": "Vũ Thị Thu Chung",
      "roleType": "Cổ đông lớn",
      "enRoleType": "Major Shareholder",
      "numberOfShares": 2938899,
      "ownershipPct": 4.755502154596446,
      "effectiveDate": "2023-05-25"
    },
    {
      "code": "C69",
      "shareholderType": "PERSON",
      "shareholderName": "Phạm Anh Đức",
      "roleType": "Cổ đông lớn",
      "enRoleType": "Major Shareholder",
      "numberOfShares": 2729500,
      "ownershipPct": 4.416668667746322,
      "effectiveDate": "2023-05-25"
    },
    {
      "code": "C69",
      "shareholderType": "PERSON",
      "shareholderName": "Lê Minh Tân",
      "roleType": "Bố của Thành viên HĐQT",
      "enRoleType": "Father of Board member",
      "numberOfShares": 2060000,
      "ownershipPct": 3.3333348435821297,
      "effectiveDate": "2023-05-25"
    },
    {
      "code": "C69",
      "shareholderType": "PERSON",
      "shareholderName": "Lê Thị Thùy Linh",
      "roleType": "Nhóm cổ đông lớn",
      "enRoleType": "Major Shareholder Group",
      "numberOfShares": 1582801,
      "ownershipPct": 2.5611678270663294,
      "groupPct": 4.207668573053723,
      "effectiveDate": "2023-05-25"
    },
    {
      "code": "C69",
      "shareholderType": "PERSON",
      "shareholderName": "Nguyễn Thị Tuyết",
      "roleType": "Cổ đông lớn",
      "enRoleType": "Major Shareholder",
      "numberOfShares": 1442000,
      "ownershipPct": 2.333334390507491,
      "effectiveDate": "2023-05-25"
    }
  ],
  "currentPage": 1,
  "size": 10,
  "totalElements": 14,
  "totalPages": 2
}