{"data":[{"code":"CAN","shareholderType":"COMPANY","shareholderName":"TCT Thủy sản VN","roleType":"Cổ đông lớn","enRoleType":"Major Shareholder","numberOfShares":1387360,"ownershipPct":27.7472,"effectiveDate":"2020-06-30"},{"code":"CAN","shareholderType":"COMPANY","shareholderName":"LANDIAL PTE.LTD","roleType":"Cổ đông lớn","enRoleType":"Major Shareholder","numberOfShares":732100,"ownershipPct":14.642,"effectiveDate":"2023-05-29"},{"code":"CAN","shareholderType":"PERSON","shareholderName":"Phạm Hữu Quý Lâm","roleType":"Cổ đông lớn","enRoleType":"Major Shareholder","numberOfShares":438120,"ownershipPct":8.7624,"effectiveDate":"2020-06-30"},{"code":"CAN","shareholderType":"PERSON","shareholderName":"Low Say Pun","roleType":"Cổ đông lớn","enRoleType":"Major Shareholder","numberOfShares":384500,"ownershipPct":7.69,"effectiveDate":"2021-12-31"},{"code":"CAN","shareholderType":"PERSON","shareholderName":"Phan Văn Tạo","roleType":"Cổ đông lớn","enRoleType":"Major Shareholder","numberOfShares":364700,"ownershipPct":7.294,"effectiveDate":"2015-06-18"},{"code":"CAN","shareholderType":"PERSON","shareholderName":"Lê Thị Ánh Tuyết","roleType":"Cổ đông lớn","enRoleType":"Major Shareholder","numberOfShares":337100,"ownershipPct":6.742,"effectiveDate":"2010-05-18"},{"code":"CAN","shareholderType":"PERSON","shareholderName":"Nguyễn Văn Bình","roleType":"Cổ đông lớn","enRoleType":"Major Shareholder","numberOfShares":313200,"ownershipPct":6.264,"effectiveDate":"2017-11-29"},{"code":"CAN","shareholderType":"PERSON","shareholderName":"Lê Minh Hà","roleType":"Cổ đông lớn","enRoleType":"Major Shareholder","numberOfShares":274190,"ownershipPct":5.4838,"effectiveDate":"2020-06-30"},{"code":"CAN","shareholderType":"COMPANY","shareholderName":"Balestrand Limited","roleType":"Cổ đông lớn","enRoleType":"Major Shareholder","numberOfShares":245300,"ownershipPct":4.906,"effectiveDate":"2008-08-12"},{"code":"CAN","shareholderType":"PERSON","shareholderName":"Nguyễn Văn Mạnh","roleType":"Cổ đông lớn","enRoleType":"Major Shareholder","numberOfShares":180200,"ownershipPct":3.604,"effectiveDate":"2023-01-18"}],"currentPage":1,"size":10,"totalElements":11,"totalPages":2}