{
  "data": [
    {
      "code": "CAP",
      "shareholderType": "PERSON",
      "shareholderName": "Hoàng Thị Bình",
      "roleType": "Thành viên HĐQT",
      "enRoleType": "Board member",
      "numberOfShares": 1788116,
      "ownershipPct": 11.710020291467597,
      "groupPct": 22.217680263183315,
      "effectiveDate": "2024-12-31"
    },
    {
      "code": "CAP",
      "shareholderType": "PERSON",
      "shareholderName": "Hoàng Thị Bình",
      "roleType": "Thành viên HĐQT",
      "enRoleType": "Board member",
      "numberOfShares": 1788116,
      "ownershipPct": 11.710020291467597,
      "groupPct": 16.670188831474075,
      "effectiveDate": "2024-12-31"
    },
    {
      "code": "CAP",
      "shareholderType": "PERSON",
      "shareholderName": "Lê Xuân Lương",
      "roleType": "Cổ đông lớn",
      "enRoleType": "Major Shareholder",
      "numberOfShares": 1437302,
      "ownershipPct": 9.412608345860649,
      "effectiveDate": "2024-12-06"
    },
    {
      "code": "CAP",
      "shareholderType": "PERSON",
      "shareholderName": "Trương Ngọc Biên",
      "roleType": "Chủ tịch HĐQT",
      "enRoleType": "Chairman",
      "numberOfShares": 1014955,
      "ownershipPct": 6.646740840597866,
      "effectiveDate": "2024-11-20"
    },
    {
      "code": "CAP",
      "shareholderType": "PERSON",
      "shareholderName": "Trương Thị Hoàng Yến",
      "roleType": "Con của Chủ tịch HĐQT",
      "enRoleType": "Child of Chairman",
      "numberOfShares": 764640,
      "ownershipPct": 5.007477096378413,
      "groupPct": 22.217680263183315,
      "effectiveDate": "2024-03-18"
    },
    {
      "code": "CAP",
      "shareholderType": "PERSON",
      "shareholderName": "Trương Thị Hoàng Anh",
      "roleType": "Nhóm cổ đông lớn",
      "enRoleType": "Major Shareholder Group",
      "numberOfShares": 757416,
      "ownershipPct": 4.960168540006476,
      "groupPct": 16.670188831474075,
      "effectiveDate": "2024-03-18"
    },
    {
      "code": "CAP",
      "shareholderType": "PERSON",
      "shareholderName": "Trương Thị Hoàng Anh",
      "roleType": "Con của Chủ tịch HĐQT",
      "enRoleType": "Child of Chairman",
      "numberOfShares": 757416,
      "ownershipPct": 4.960168540006476,
      "groupPct": 22.217680263183315,
      "effectiveDate": "2024-03-18"
    },
    {
      "code": "CAP",
      "shareholderType": "PERSON",
      "shareholderName": "Nguyễn Quốc Trinh",
      "roleType": "Thành viên HĐQT",
      "enRoleType": "Board member",
      "numberOfShares": 730969,
      "ownershipPct": 4.78697233425224,
      "effectiveDate": "2024-12-31"
    },
    {
      "code": "CAP",
      "shareholderType": "PERSON",
      "shareholderName": "Hứa Minh Hồng",
      "roleType": "Cổ đông lớn",
      "enRoleType": "Major Shareholder",
      "numberOfShares": 726711,
      "ownershipPct": 4.759087529015292,
      "effectiveDate": "2024-03-18"
    },
    {
      "code": "CAP",
      "shareholderType": "PERSON",
      "shareholderName": "Trần Công Bình",
      "roleType": "Cổ đông lớn",
      "enRoleType": "Major Shareholder",
      "numberOfShares": 678364,
      "ownershipPct": 4.442472526950782,
      "effectiveDate": "2024-03-18"
    }
  ],
  "currentPage": 1,
  "size": 10,
  "totalElements": 12,
  "totalPages": 2
}