{
  "data": [
    {
      "code": "CAR",
      "shareholderType": "COMPANY",
      "shareholderName": "Công ty cổ phần Fibo Invest",
      "roleType": "Cổ đông lớn",
      "enRoleType": "Major Shareholder",
      "numberOfShares": 921600,
      "ownershipPct": 16.56063499684816,
      "effectiveDate": "2023-12-22"
    },
    {
      "code": "CAR",
      "shareholderType": "PERSON",
      "shareholderName": "Nguyễn Thùy Thương",
      "roleType": "Chủ tịch HĐQT",
      "enRoleType": "Chairman",
      "numberOfShares": 884950,
      "ownershipPct": 15.902055056923588,
      "effectiveDate": "2025-06-05"
    },
    {
      "code": "CAR",
      "shareholderType": "COMPANY",
      "shareholderName": "CÔNG TY CỔ PHẦN ĐẦU TƯ VÀ TƯ VẤN IB PLUS",
      "roleType": "Cổ đông lớn",
      "enRoleType": "Major Shareholder",
      "numberOfShares": 853600,
      "ownershipPct": 15.338713143782106,
      "effectiveDate": "2025-06-05"
    },
    {
      "code": "CAR",
      "shareholderType": "PERSON",
      "shareholderName": "Đào Thị Thanh Hà",
      "roleType": "Kế toán trưởng",
      "enRoleType": "Chief Accountant",
      "numberOfShares": 208560,
      "ownershipPct": 3.747706201109649,
      "effectiveDate": "2025-06-05"
    },
    {
      "code": "CAR",
      "shareholderType": "PERSON",
      "shareholderName": "Đỗ Quốc Hùng",
      "roleType": "Anh/em rể của Chủ tịch HĐQT",
      "enRoleType": "Brother in law of Chairman",
      "numberOfShares": 204600,
      "ownershipPct": 3.676547222607567,
      "groupPct": 23.730441164103386,
      "effectiveDate": "2025-06-05"
    },
    {
      "code": "CAR",
      "shareholderType": "PERSON",
      "shareholderName": "Nguyễn Hoàng Thơ",
      "roleType": "Chị của Chủ tịch HĐQT",
      "enRoleType": "Elder Sister of Chairman",
      "numberOfShares": 198000,
      "ownershipPct": 3.557948925104097,
      "groupPct": 23.730441164103386,
      "effectiveDate": "2025-06-05"
    },
    {
      "code": "CAR",
      "shareholderType": "PERSON",
      "shareholderName": "Hoàng Thị Thi",
      "roleType": "Mẹ của Chủ tịch HĐQT",
      "enRoleType": "Mother of Chairman",
      "numberOfShares": 186000,
      "ownershipPct": 3.3423156569159698,
      "groupPct": 23.730441164103386,
      "effectiveDate": "2023-12-22"
    },
    {
      "code": "CAR",
      "shareholderType": "PERSON",
      "shareholderName": "Trịnh Văn Liêm",
      "roleType": "Bố chồng/vợ của Chủ tịch HĐQT",
      "enRoleType": "Father in law of Chairman",
      "numberOfShares": 186000,
      "ownershipPct": 3.3423156569159698,
      "groupPct": 23.730441164103386,
      "effectiveDate": "2023-12-22"
    },
    {
      "code": "CAR",
      "shareholderType": "PERSON",
      "shareholderName": "Trịnh An Phong",
      "roleType": "Chồng của Chủ tịch HĐQT",
      "enRoleType": "Husband of Chairman",
      "numberOfShares": 186000,
      "ownershipPct": 3.3423156569159698,
      "groupPct": 23.730441164103386,
      "effectiveDate": "2023-12-22"
    },
    {
      "code": "CAR",
      "shareholderType": "PERSON",
      "shareholderName": "Nguyễn Đức Thanh",
      "roleType": "Bố của Chủ tịch HĐQT",
      "enRoleType": "Father of Chairman",
      "numberOfShares": 180000,
      "ownershipPct": 3.234499022821906,
      "groupPct": 23.730441164103386,
      "effectiveDate": "2023-12-22"
    }
  ],
  "currentPage": 1,
  "size": 10,
  "totalElements": 12,
  "totalPages": 2
}