{"data":[{"code":"CAT","shareholderType":"PERSON","shareholderName":"Bùi Vĩnh Hoàng Chương","roleType":"Chủ tịch HĐQT","enRoleType":"Chairman","numberOfShares":1082500,"ownershipPct":10.987588845947915,"effectiveDate":"2020-06-30"},{"code":"CAT","shareholderType":"PERSON","shareholderName":"Bùi Vĩnh Hoàng Chương","roleType":"Chủ tịch HĐQT","enRoleType":"Chairman","numberOfShares":1082500,"ownershipPct":10.987588845947915,"groupPct":25.502371339902204,"effectiveDate":"2020-06-30"},{"code":"CAT","shareholderType":"COMPANY","shareholderName":"CK Bảo Việt","roleType":"Cổ đông lớn","enRoleType":"Major Shareholder","numberOfShares":975000,"ownershipPct":9.896442609514288,"effectiveDate":"2020-06-30"},{"code":"CAT","shareholderType":"PERSON","shareholderName":"Bùi Nguyên Khánh","roleType":"Thành viên HĐQT","enRoleType":"Board member","numberOfShares":830000,"ownershipPct":8.42466396502242,"effectiveDate":"2023-06-30"},{"code":"CAT","shareholderType":"PERSON","shareholderName":"Bùi Phan Hoàng Anh","roleType":"Con của Thành viên HĐQT","enRoleType":"Child of Board member","numberOfShares":730000,"ownershipPct":7.409644210200441,"groupPct":25.502371339902204,"effectiveDate":"2023-06-30"},{"code":"CAT","shareholderType":"PERSON","shareholderName":"Phan Thị Ngọc Ánh","roleType":"Phó TGĐ","enRoleType":"Deputy CEO","numberOfShares":700000,"ownershipPct":7.105138283753847,"groupPct":25.502371339902204,"effectiveDate":"2023-06-30"},{"code":"CAT","shareholderType":"PERSON","shareholderName":"Huỳnh Nhật Vũ","roleType":"Thành viên HĐQT","enRoleType":"Board member","numberOfShares":570457,"ownershipPct":5.790251242764812,"effectiveDate":"2020-06-30"},{"code":"CAT","shareholderType":"COMPANY","shareholderName":"Thủy sản Cà Mau","roleType":"Cổ phiếu quỹ","enRoleType":"Treasury Stock","numberOfShares":499406,"ownershipPct":5.069069556766249,"effectiveDate":"2023-01-27"},{"code":"CAT","shareholderType":"PERSON","shareholderName":"Nguyễn Hồng Đức","roleType":"Thành viên HĐQT","enRoleType":"Board member","numberOfShares":319140,"ownershipPct":3.2393340455388615,"effectiveDate":"2020-06-30"},{"code":"CAT","shareholderType":"PERSON","shareholderName":"Tô Tần Hoài","roleType":"Phó TGĐ","enRoleType":"Deputy CEO","numberOfShares":150000,"ownershipPct":1.5225296322329673,"effectiveDate":"2020-06-30"}],"currentPage":1,"size":10,"totalElements":12,"totalPages":2}