{"data":[{"code":"CCI","shareholderType":"COMPANY","shareholderName":"Công ty Đầu tư Tài chính nhà nước TP.HCM (HFIC)","roleType":"Cổ đông lớn","enRoleType":"Major Shareholder","numberOfShares":4556250,"ownershipPct":25.974703418057185,"effectiveDate":"2020-06-30"},{"code":"CCI","shareholderType":"COMPANY","shareholderName":"Công ty cổ phần Bảo hiểm Hùng Vương","roleType":"Cổ đông lớn","enRoleType":"Major Shareholder","numberOfShares":1622800,"ownershipPct":9.251412610551046,"effectiveDate":"2023-04-07"},{"code":"CCI","shareholderType":"COMPANY","shareholderName":"Công ty TNHH Xây dựng, Thương mại Thuận Việt","roleType":"Cổ đông lớn","enRoleType":"Major Shareholder","numberOfShares":1096875,"ownershipPct":6.253169341384138,"effectiveDate":"2020-06-30"},{"code":"CCI","shareholderType":"PERSON","shareholderName":"Đoàn Minh Duy","roleType":"Thành viên HĐQT","enRoleType":"Board member","numberOfShares":912345,"ownershipPct":5.20118316377446,"effectiveDate":"2023-03-23"},{"code":"CCI","shareholderType":"COMPANY","shareholderName":"Công ty Xăng dầu Khu vực II","roleType":"Cổ đông lớn","enRoleType":"Major Shareholder","numberOfShares":900000,"ownershipPct":5.130805613443395,"effectiveDate":"2020-06-30"},{"code":"CCI","shareholderType":"PERSON","shareholderName":"Đặng Thị Mai Thi","roleType":"Cổ đông lớn","enRoleType":"Major Shareholder","numberOfShares":893780,"ownershipPct":5.095346045759375,"effectiveDate":"2022-09-26"},{"code":"CCI","shareholderType":"PERSON","shareholderName":"Nguyễn Văn Tâm","roleType":"Phó TGĐ","enRoleType":"Deputy CEO","numberOfShares":540000,"ownershipPct":3.078483368066037,"effectiveDate":"2020-06-30"},{"code":"CCI","shareholderType":"PERSON","shareholderName":"Phan Hoàng Tuấn","roleType":"Thành viên HĐQT","enRoleType":"Board member","numberOfShares":521860,"ownershipPct":2.9750691304795223,"effectiveDate":"2020-12-31"},{"code":"CCI","shareholderType":"COMPANY","shareholderName":"Công ty Cổ phần Tập Đoàn Đầu tư Việt Phương","roleType":"Cổ đông lớn","enRoleType":"Major Shareholder","numberOfShares":375000,"ownershipPct":2.137835672268081,"effectiveDate":"2020-03-25"},{"code":"CCI","shareholderType":"PERSON","shareholderName":"Lâm Thị Thu Hương","roleType":"Vợ của Chủ tịch HĐQT","enRoleType":"Wife of Chairman","numberOfShares":270000,"ownershipPct":1.5392416840330185,"effectiveDate":"2020-06-30"}],"currentPage":1,"size":10,"totalElements":11,"totalPages":2}