{
  "data": [
    {
      "code": "CCL",
      "shareholderType": "PERSON",
      "shareholderName": "Nguyễn Triệu Dõng",
      "roleType": "Chủ tịch HĐQT",
      "enRoleType": "Chairman",
      "numberOfShares": 10662400,
      "ownershipPct": 17.89551232231499,
      "effectiveDate": "2023-09-14"
    },
    {
      "code": "CCL",
      "shareholderType": "PERSON",
      "shareholderName": "Trịnh Sướng",
      "roleType": "Cổ đông lớn",
      "enRoleType": "Major Shareholder",
      "numberOfShares": 6272000,
      "ownershipPct": 10.526771954302934,
      "effectiveDate": "2023-09-14"
    },
    {
      "code": "CCL",
      "shareholderType": "PERSON",
      "shareholderName": "Võ Đức Dũng",
      "roleType": "Cổ đông lớn",
      "enRoleType": "Major Shareholder",
      "numberOfShares": 5270988,
      "ownershipPct": 8.846697807695682,
      "effectiveDate": "2023-09-14"
    },
    {
      "code": "CCL",
      "shareholderType": "PERSON",
      "shareholderName": "Tăng Lưỡng Nghi",
      "roleType": "Cổ đông lớn",
      "enRoleType": "Major Shareholder",
      "numberOfShares": 3857442,
      "ownershipPct": 6.47423664874844,
      "effectiveDate": "2023-09-14"
    },
    {
      "code": "CCL",
      "shareholderType": "PERSON",
      "shareholderName": "Dương Thế Nghiêm",
      "roleType": "Thành viên HĐQT",
      "enRoleType": "Board member",
      "numberOfShares": 3765834,
      "ownershipPct": 6.3204840139924165,
      "effectiveDate": "2023-09-14"
    },
    {
      "code": "CCL",
      "shareholderType": "PERSON",
      "shareholderName": "Chen Duxiong",
      "roleType": "Cổ đông lớn",
      "enRoleType": "Major Shareholder",
      "numberOfShares": 1774326,
      "ownershipPct": 2.9779855189079254,
      "effectiveDate": "2023-09-14"
    },
    {
      "code": "CCL",
      "shareholderType": "COMPANY",
      "shareholderName": "Công ty cổ phần Quản lý Quỹ Đầu tư Tài chính Dầu khí",
      "roleType": "Cổ đông lớn",
      "enRoleType": "Major Shareholder",
      "numberOfShares": 1680000,
      "ownershipPct": 2.819671059188286,
      "effectiveDate": "2023-09-14"
    },
    {
      "code": "CCL",
      "shareholderType": "PERSON",
      "shareholderName": "Nguyễn Hoàng Nhã",
      "roleType": "Em trai của Chủ tịch HĐQT",
      "enRoleType": "Young Brother of Chairman",
      "numberOfShares": 1568000,
      "ownershipPct": 2.6316929885757334,
      "groupPct": 5.360993590317035,
      "effectiveDate": "2023-09-14"
    },
    {
      "code": "CCL",
      "shareholderType": "PERSON",
      "shareholderName": "Nguyễn Hoàng Nhã",
      "roleType": "Nhóm cổ đông lớn",
      "enRoleType": "Major Shareholder Group",
      "numberOfShares": 1568000,
      "ownershipPct": 2.6316929885757334,
      "groupPct": 3.255639199456448,
      "effectiveDate": "2023-09-14"
    },
    {
      "code": "CCL",
      "shareholderType": "COMPANY",
      "shareholderName": "CTCP Cơ điện lạnh",
      "roleType": "Cổ đông lớn",
      "enRoleType": "Major Shareholder",
      "numberOfShares": 1519392,
      "ownershipPct": 2.5501105059298856,
      "effectiveDate": "2023-09-14"
    }
  ],
  "currentPage": 1,
  "size": 10,
  "totalElements": 15,
  "totalPages": 2
}