{
  "data": [
    {
      "code": "CDC",
      "shareholderType": "COMPANY",
      "shareholderName": "TCT Xây dựng số 1",
      "roleType": "Cổ đông lớn",
      "enRoleType": "Major Shareholder",
      "numberOfShares": 6272024,
      "ownershipPct": 11.88492931165944,
      "effectiveDate": "2025-10-16"
    },
    {
      "code": "CDC",
      "shareholderType": "PERSON",
      "shareholderName": "Phùng Khánh Ly",
      "roleType": "Cổ đông lớn",
      "enRoleType": "Major Shareholder",
      "numberOfShares": 3065160,
      "ownershipPct": 5.808206398592551,
      "effectiveDate": "2025-10-16"
    },
    {
      "code": "CDC",
      "shareholderType": "PERSON",
      "shareholderName": "Nguyễn Thị Trang",
      "roleType": "Cổ đông lớn",
      "enRoleType": "Major Shareholder",
      "numberOfShares": 3000000,
      "ownershipPct": 5.684733976620357,
      "effectiveDate": "2025-10-16"
    },
    {
      "code": "CDC",
      "shareholderType": "COMPANY",
      "shareholderName": "CÔNG TY TNHH NƯỚC SẠCH REE",
      "roleType": "Cổ đông lớn",
      "enRoleType": "Major Shareholder",
      "numberOfShares": 1440000,
      "ownershipPct": 2.7286723087777713,
      "effectiveDate": "2025-10-16"
    },
    {
      "code": "CDC",
      "shareholderType": "PERSON",
      "shareholderName": "Văn Minh Hoàng",
      "roleType": "Thành viên HĐQT",
      "enRoleType": "Board member",
      "numberOfShares": 1365772,
      "ownershipPct": 2.588016830905579,
      "effectiveDate": "2025-10-16"
    },
    {
      "code": "CDC",
      "shareholderType": "PERSON",
      "shareholderName": "Trịnh Duy Minh",
      "roleType": "Cổ đông lớn",
      "enRoleType": "Major Shareholder",
      "numberOfShares": 1276143,
      "ownershipPct": 2.418177823708744,
      "effectiveDate": "2025-10-16"
    },
    {
      "code": "CDC",
      "shareholderType": "PERSON",
      "shareholderName": "Nguyễn Mạnh Tòng",
      "roleType": "Nhóm cổ đông lớn",
      "enRoleType": "Major Shareholder Group",
      "numberOfShares": 1182007,
      "ownershipPct": 2.239798451167699,
      "groupPct": 4.513692041815842,
      "effectiveDate": "2025-10-16"
    },
    {
      "code": "CDC",
      "shareholderType": "PERSON",
      "shareholderName": "Trần Thị Duyên",
      "roleType": "Cổ đông lớn",
      "enRoleType": "Major Shareholder",
      "numberOfShares": 1150660,
      "ownershipPct": 2.1803986658459933,
      "effectiveDate": "2020-12-24"
    },
    {
      "code": "CDC",
      "shareholderType": "PERSON",
      "shareholderName": "Hồ Đình Thuần",
      "roleType": "Cổ đông lớn",
      "enRoleType": "Major Shareholder",
      "numberOfShares": 1044600,
      "ownershipPct": 1.9794243706592083,
      "effectiveDate": "2025-10-16"
    },
    {
      "code": "CDC",
      "shareholderType": "COMPANY",
      "shareholderName": "Công ty Tài chính TNHH MTV Cao su Việt Nam ",
      "roleType": "Cổ đông lớn",
      "enRoleType": "Major Shareholder",
      "numberOfShares": 999600,
      "ownershipPct": 1.8941533610099028,
      "effectiveDate": "2020-12-24"
    }
  ],
  "currentPage": 1,
  "size": 10,
  "totalElements": 18,
  "totalPages": 2
}