{"data":[{"code":"CE1","shareholderType":"COMPANY","shareholderName":"Tập đoàn XD & T.bị CN","roleType":"Cổ đông lớn","enRoleType":"Major Shareholder","numberOfShares":3240000,"ownershipPct":54,"effectiveDate":"2020-06-30"},{"code":"CE1","shareholderType":"PERSON","shareholderName":"Tạ Thị Ngọc Thanh","roleType":"Cổ đông lớn","enRoleType":"Major Shareholder","numberOfShares":484958,"ownershipPct":8.082633333333334,"effectiveDate":"2020-06-30"},{"code":"CE1","shareholderType":"PERSON","shareholderName":"Lê Xuân Thắng","roleType":"Cổ đông lớn","enRoleType":"Major Shareholder","numberOfShares":343602,"ownershipPct":5.7267,"effectiveDate":"2023-12-08"},{"code":"CE1","shareholderType":"PERSON","shareholderName":"Tạ Đình Lân","roleType":"Thành viên HĐQT","enRoleType":"Board member","numberOfShares":123260,"ownershipPct":2.054333333333333,"effectiveDate":"2022-06-30"},{"code":"CE1","shareholderType":"PERSON","shareholderName":"Đỗ Văn Vũ","roleType":"Chủ tịch HĐQT","enRoleType":"Chairman","numberOfShares":118552,"ownershipPct":1.9758666666666667,"effectiveDate":"2023-06-30"},{"code":"CE1","shareholderType":"PERSON","shareholderName":"Vũ Trọng Hiến","roleType":"Thành viên HĐQT","enRoleType":"Board member","numberOfShares":114272,"ownershipPct":1.9045333333333334,"effectiveDate":"2020-06-30"},{"code":"CE1","shareholderType":"PERSON","shareholderName":"Đỗ Quang Minh","roleType":"Con của Chủ tịch HĐQT","enRoleType":"Child of Chairman","numberOfShares":89174,"ownershipPct":1.4862333333333333,"groupPct":1.6479666666666666,"effectiveDate":"2023-12-29"},{"code":"CE1","shareholderType":"PERSON","shareholderName":"Phan Trọng Phượng","roleType":"Cổ đông lớn","enRoleType":"Major Shareholder","numberOfShares":76102,"ownershipPct":1.2683666666666666,"effectiveDate":"2020-06-30"},{"code":"CE1","shareholderType":"PERSON","shareholderName":"Nguyễn Hùng Sơn","roleType":"Cổ đông lớn","enRoleType":"Major Shareholder","numberOfShares":70310,"ownershipPct":1.1718333333333333,"effectiveDate":"2020-06-30"},{"code":"CE1","shareholderType":"PERSON","shareholderName":"Nguyễn Thị Phương Nga","roleType":"Vợ của Thành viên HĐQT","enRoleType":"Wife of Board member","numberOfShares":68454,"ownershipPct":1.1409,"groupPct":2.2304,"effectiveDate":"2020-06-30"}],"currentPage":1,"size":10,"totalElements":11,"totalPages":2}