{
  "data": [
    {
      "code": "CET",
      "shareholderType": "PERSON",
      "shareholderName": "Bùi Thị Hải Yến",
      "roleType": "Cổ đông lớn",
      "enRoleType": "Major Shareholder",
      "numberOfShares": 1346948,
      "ownershipPct": 22.263603305785125,
      "effectiveDate": "2024-08-07"
    },
    {
      "code": "CET",
      "shareholderType": "COMPANY",
      "shareholderName": "CTCP Đầu tư Thương mại Trương Gia",
      "roleType": "Cổ đông lớn",
      "enRoleType": "Major Shareholder",
      "numberOfShares": 1321500,
      "ownershipPct": 21.84297520661157,
      "effectiveDate": "2020-12-31"
    },
    {
      "code": "CET",
      "shareholderType": "PERSON",
      "shareholderName": "Trần Hoàng Anh Tuấn",
      "roleType": "Cổ đông lớn",
      "enRoleType": "Major Shareholder",
      "numberOfShares": 1044052,
      "ownershipPct": 17.25705785123967,
      "effectiveDate": "2024-08-07"
    },
    {
      "code": "CET",
      "shareholderType": "PERSON",
      "shareholderName": "Trần Hoàng Cường",
      "roleType": "Cổ đông lớn",
      "enRoleType": "Major Shareholder",
      "numberOfShares": 907865,
      "ownershipPct": 15.006033057851239,
      "effectiveDate": "2023-06-02"
    },
    {
      "code": "CET",
      "shareholderType": "PERSON",
      "shareholderName": "Trần Hoàng Anh Tuấn",
      "roleType": "Phó chủ tịch HĐQT",
      "enRoleType": "Vice-chairman",
      "numberOfShares": 696000,
      "ownershipPct": 11.50413223140496,
      "effectiveDate": "2023-05-18"
    },
    {
      "code": "CET",
      "shareholderType": "PERSON",
      "shareholderName": "Nguyễn Thế Tài",
      "roleType": "Chủ tịch HĐQT",
      "enRoleType": "Chairman",
      "numberOfShares": 605000,
      "ownershipPct": 10,
      "effectiveDate": "2024-08-07"
    },
    {
      "code": "CET",
      "shareholderType": "PERSON",
      "shareholderName": "Nguyễn Tấn Thọ",
      "roleType": "Cổ đông lớn",
      "enRoleType": "Major Shareholder",
      "numberOfShares": 527865,
      "ownershipPct": 8.72504132231405,
      "effectiveDate": "2022-12-31"
    },
    {
      "code": "CET",
      "shareholderType": "PERSON",
      "shareholderName": "Trần Thị Thu",
      "roleType": "Cổ đông lớn",
      "enRoleType": "Major Shareholder",
      "numberOfShares": 297400,
      "ownershipPct": 4.915702479338843,
      "effectiveDate": "2025-04-14"
    },
    {
      "code": "CET",
      "shareholderType": "PERSON",
      "shareholderName": "Cao Thị Thu Thủy",
      "roleType": "Cổ đông lớn",
      "enRoleType": "Major Shareholder",
      "numberOfShares": 276200,
      "ownershipPct": 4.565289256198347,
      "effectiveDate": "2020-05-14"
    },
    {
      "code": "CET",
      "shareholderType": "PERSON",
      "shareholderName": "Nguyễn Hữu Trí",
      "roleType": "Cổ đông lớn",
      "enRoleType": "Major Shareholder",
      "numberOfShares": 248600,
      "ownershipPct": 4.109090909090909,
      "effectiveDate": "2021-01-19"
    }
  ],
  "currentPage": 1,
  "size": 10,
  "totalElements": 12,
  "totalPages": 2
}