{
  "data": [
    {
      "code": "CGV",
      "shareholderType": "PERSON",
      "shareholderName": "Trần Lê Dũng",
      "roleType": "Phó chủ tịch HĐQT",
      "enRoleType": "Vice-chairman",
      "numberOfShares": 1432879,
      "ownershipPct": 15.083006700241558,
      "effectiveDate": "2020-06-30"
    },
    {
      "code": "CGV",
      "shareholderType": "PERSON",
      "shareholderName": "Lưu Quang Hưng",
      "roleType": "Cổ đông lớn",
      "enRoleType": "Major Shareholder",
      "numberOfShares": 1145700,
      "ownershipPct": 12.060055857100812,
      "effectiveDate": "2025-04-04"
    },
    {
      "code": "CGV",
      "shareholderType": "COMPANY",
      "shareholderName": "Công ty cổ phần Hà Quang",
      "roleType": "Cổ đông lớn",
      "enRoleType": "Major Shareholder",
      "numberOfShares": 674636,
      "ownershipPct": 7.101464469940703,
      "effectiveDate": "2020-06-30"
    },
    {
      "code": "CGV",
      "shareholderType": "COMPANY",
      "shareholderName": "TCT Bia Hà Nội",
      "roleType": "Cổ đông lớn",
      "enRoleType": "Major Shareholder",
      "numberOfShares": 570000,
      "ownershipPct": 6.000027789602394,
      "effectiveDate": "2020-06-30"
    },
    {
      "code": "CGV",
      "shareholderType": "PERSON",
      "shareholderName": "Lê Quang Tuấn",
      "roleType": "Cổ đông lớn",
      "enRoleType": "Major Shareholder",
      "numberOfShares": 528169,
      "ownershipPct": 5.5596994343973805,
      "effectiveDate": "2021-12-31"
    },
    {
      "code": "CGV",
      "shareholderType": "PERSON",
      "shareholderName": "Phan Ngọc Anh",
      "roleType": "Phó chủ tịch HĐQT",
      "enRoleType": "Vice-chairman",
      "numberOfShares": 478036,
      "ownershipPct": 5.031981200755035,
      "effectiveDate": "2020-06-30"
    },
    {
      "code": "CGV",
      "shareholderType": "PERSON",
      "shareholderName": "Nguyễn Miên Tiến",
      "roleType": "Cổ đông lớn",
      "enRoleType": "Major Shareholder",
      "numberOfShares": 465000,
      "ownershipPct": 4.894759512570374,
      "effectiveDate": "2021-03-24"
    },
    {
      "code": "CGV",
      "shareholderType": "COMPANY",
      "shareholderName": "CK Rồng Việt",
      "roleType": "Cổ đông lớn",
      "enRoleType": "Major Shareholder",
      "numberOfShares": 464600,
      "ownershipPct": 4.8905489667531095,
      "effectiveDate": "2019-04-08"
    },
    {
      "code": "CGV",
      "shareholderType": "PERSON",
      "shareholderName": "Huỳnh Thị Kim Hoa",
      "roleType": "Thành viên HĐQT",
      "enRoleType": "Board member",
      "numberOfShares": 436430,
      "ownershipPct": 4.594021277572233,
      "effectiveDate": "2020-06-30"
    },
    {
      "code": "CGV",
      "shareholderType": "PERSON",
      "shareholderName": "Trần Huỳnh Quang",
      "roleType": "Chủ tịch HĐQT",
      "enRoleType": "Chairman",
      "numberOfShares": 327526,
      "ownershipPct": 3.447658073363708,
      "effectiveDate": "2024-09-09"
    }
  ],
  "currentPage": 1,
  "size": 10,
  "totalElements": 11,
  "totalPages": 2
}