{
  "data": [
    {
      "code": "CII",
      "shareholderType": "COMPANY",
      "shareholderName": "Công ty Cổ phần Đầu tư hạ tầng kỹ thuật Vinaphil",
      "roleType": "Cổ đông lớn",
      "enRoleType": "Major Shareholder",
      "numberOfShares": 36822395,
      "ownershipPct": 5.89215807665177,
      "effectiveDate": "2025-08-05"
    },
    {
      "code": "CII",
      "shareholderType": "COMPANY",
      "shareholderName": "H.tầng KT HCM",
      "roleType": "Cổ phiếu quỹ",
      "enRoleType": "Treasury Stock",
      "numberOfShares": 31797370,
      "ownershipPct": 5.0880756252216806,
      "effectiveDate": "2022-04-06"
    },
    {
      "code": "CII",
      "shareholderType": "COMPANY",
      "shareholderName": "Công ty Đầu tư Tài chính nhà nước TP.HCM (HFIC)",
      "roleType": "Cổ đông lớn",
      "enRoleType": "Major Shareholder",
      "numberOfShares": 27416105,
      "ownershipPct": 4.387004824267486,
      "effectiveDate": "2025-08-05"
    },
    {
      "code": "CII",
      "shareholderType": "COMPANY",
      "shareholderName": "PYN ELITE FUND (NON - UCITS)",
      "roleType": "Cổ đông lớn",
      "enRoleType": "Major Shareholder",
      "numberOfShares": 18907071,
      "ownershipPct": 3.02542653997597,
      "effectiveDate": "2025-08-05"
    },
    {
      "code": "CII",
      "shareholderType": "COMPANY",
      "shareholderName": "Cảng Nghệ Tĩnh",
      "roleType": "Cổ đông lớn",
      "enRoleType": "Major Shareholder",
      "numberOfShares": 10844552,
      "ownershipPct": 1.7352976267423699,
      "effectiveDate": "2025-08-05"
    },
    {
      "code": "CII",
      "shareholderType": "COMPANY",
      "shareholderName": "KIM Vietnam Growth Equity Fund",
      "roleType": "Cổ đông lớn",
      "enRoleType": "Major Shareholder",
      "numberOfShares": 10559820,
      "ownershipPct": 1.6897360614644672,
      "effectiveDate": "2025-08-05"
    },
    {
      "code": "CII",
      "shareholderType": "COMPANY",
      "shareholderName": "Norges Bank",
      "roleType": "Cổ đông lớn",
      "enRoleType": "Major Shareholder",
      "numberOfShares": 8741531,
      "ownershipPct": 1.3987814340689089,
      "effectiveDate": "2025-08-05"
    },
    {
      "code": "CII",
      "shareholderType": "COMPANY",
      "shareholderName": "VIAC (No.1) Ltd Partnership",
      "roleType": "Cổ đông lớn",
      "enRoleType": "Major Shareholder",
      "numberOfShares": 8202095,
      "ownershipPct": 1.3124632523146607,
      "effectiveDate": "2025-08-05"
    },
    {
      "code": "CII",
      "shareholderType": "COMPANY",
      "shareholderName": "Vietnam Infrastructure Strategic Limited",
      "roleType": "Cổ đông lớn",
      "enRoleType": "Major Shareholder",
      "numberOfShares": 7098306,
      "ownershipPct": 1.1358397797982918,
      "effectiveDate": "2025-08-05"
    },
    {
      "code": "CII",
      "shareholderType": "COMPANY",
      "shareholderName": "Master Fund Holdings (Cayman) Ltd",
      "roleType": "Cổ đông lớn",
      "enRoleType": "Major Shareholder",
      "numberOfShares": 7007247,
      "ownershipPct": 1.1212689181717779,
      "effectiveDate": "2025-08-05"
    }
  ],
  "currentPage": 1,
  "size": 10,
  "totalElements": 11,
  "totalPages": 2
}