{
  "data": [
    {
      "code": "CMD",
      "shareholderType": "COMPANY",
      "shareholderName": "XD & trang trí HCM",
      "roleType": "Cổ phiếu quỹ",
      "enRoleType": "Treasury Stock",
      "numberOfShares": 4500000,
      "ownershipPct": 28.625954198473284,
      "effectiveDate": "2020-06-30"
    },
    {
      "code": "CMD",
      "shareholderType": "PERSON",
      "shareholderName": "Lê Văn Phải",
      "roleType": "Phó chủ tịch HĐQT",
      "enRoleType": "Vice-chairman",
      "numberOfShares": 3034687,
      "ownershipPct": 19.30462468193384,
      "effectiveDate": "2025-05-06"
    },
    {
      "code": "CMD",
      "shareholderType": "PERSON",
      "shareholderName": "Châu Thị Kim Xoàn",
      "roleType": "Vợ của Phó chủ tịch HĐQT",
      "enRoleType": "Wife of Vice-chairman",
      "numberOfShares": 800000,
      "ownershipPct": 5.089058524173028,
      "groupPct": 16.990311704834607,
      "effectiveDate": "2020-06-30"
    },
    {
      "code": "CMD",
      "shareholderType": "PERSON",
      "shareholderName": "Huỳnh Văn Tư",
      "roleType": "Em trai của Phó chủ tịch HĐQT",
      "enRoleType": "Young Brother of Vice-chairman",
      "numberOfShares": 736159,
      "ownershipPct": 4.6829452926208655,
      "groupPct": 16.990311704834607,
      "effectiveDate": "2021-12-31"
    },
    {
      "code": "CMD",
      "shareholderType": "PERSON",
      "shareholderName": "Huỳnh Văn Tư",
      "roleType": "Bố của Thành viên HĐQT",
      "enRoleType": "Father of Board member",
      "numberOfShares": 736159,
      "ownershipPct": 4.6829452926208655,
      "groupPct": 7.9786132315521625,
      "effectiveDate": "2021-12-31"
    },
    {
      "code": "CMD",
      "shareholderType": "PERSON",
      "shareholderName": "Huỳnh Ngọc Khánh",
      "roleType": "Thành viên HĐQT",
      "enRoleType": "Board member",
      "numberOfShares": 668080,
      "ownershipPct": 4.249872773536896,
      "effectiveDate": "2025-06-30"
    },
    {
      "code": "CMD",
      "shareholderType": "PERSON",
      "shareholderName": "Huỳnh Ngọc Khánh",
      "roleType": "Thành viên HĐQT",
      "enRoleType": "Board member",
      "numberOfShares": 668080,
      "ownershipPct": 4.249872773536896,
      "effectiveDate": "2025-06-30"
    },
    {
      "code": "CMD",
      "shareholderType": "PERSON",
      "shareholderName": "Trần Thị Tường",
      "roleType": "Nhóm cổ đông lớn",
      "enRoleType": "Major Shareholder Group",
      "numberOfShares": 518079,
      "ownershipPct": 3.2956679389312975,
      "groupPct": 5.267678117048346,
      "effectiveDate": "2023-01-18"
    },
    {
      "code": "CMD",
      "shareholderType": "PERSON",
      "shareholderName": "Trần Thị Tường",
      "roleType": "Mẹ của Thành viên HĐQT",
      "enRoleType": "Mother of Board member",
      "numberOfShares": 518079,
      "ownershipPct": 3.2956679389312975,
      "groupPct": 7.9786132315521625,
      "effectiveDate": "2023-01-18"
    },
    {
      "code": "CMD",
      "shareholderType": "PERSON",
      "shareholderName": "Lê Kim Trinh",
      "roleType": "Thành viên HĐQT",
      "enRoleType": "Board member",
      "numberOfShares": 396985,
      "ownershipPct": 2.525349872773537,
      "groupPct": 16.990311704834607,
      "effectiveDate": "2025-06-12"
    }
  ],
  "currentPage": 1,
  "size": 10,
  "totalElements": 15,
  "totalPages": 2
}