{
  "data": [
    {
      "code": "CMG",
      "shareholderType": "COMPANY",
      "shareholderName": "Samsung SDS Asia Pacific Pte. Ltd",
      "roleType": "Cổ đông lớn",
      "enRoleType": "Major Shareholder",
      "numberOfShares": 56792116,
      "ownershipPct": 26.820981511511384,
      "effectiveDate": "2023-12-05"
    },
    {
      "code": "CMG",
      "shareholderType": "COMPANY",
      "shareholderName": "Công ty TNHH Đầu tư MVI",
      "roleType": "Cổ đông lớn",
      "enRoleType": "Major Shareholder",
      "numberOfShares": 25652208,
      "ownershipPct": 12.114663882174145,
      "effectiveDate": "2023-12-05"
    },
    {
      "code": "CMG",
      "shareholderType": "COMPANY",
      "shareholderName": "Công ty cổ phần Xuất nhập khẩu tổng hợp Hà Nội",
      "roleType": "Cổ đông lớn",
      "enRoleType": "Major Shareholder",
      "numberOfShares": 14391647,
      "ownershipPct": 6.796684562822035,
      "effectiveDate": "2023-12-05"
    },
    {
      "code": "CMG",
      "shareholderType": "COMPANY",
      "shareholderName": "XNK Tổng hợp I VN",
      "roleType": "Cổ đông lớn",
      "enRoleType": "Major Shareholder",
      "numberOfShares": 13641546,
      "ownershipPct": 6.442437416039087,
      "effectiveDate": "2023-12-05"
    },
    {
      "code": "CMG",
      "shareholderType": "COMPANY",
      "shareholderName": "Tập đoàn GELEXIMCO - CTCP",
      "roleType": "Cổ đông lớn",
      "enRoleType": "Major Shareholder",
      "numberOfShares": 12612584,
      "ownershipPct": 5.956493719592775,
      "effectiveDate": "2024-12-30"
    },
    {
      "code": "CMG",
      "shareholderType": "COMPANY",
      "shareholderName": "PYN ELITE FUND",
      "roleType": "Cổ đông lớn",
      "enRoleType": "Major Shareholder",
      "numberOfShares": 10244499,
      "ownershipPct": 4.838127853410091,
      "effectiveDate": "2024-12-30"
    },
    {
      "code": "CMG",
      "shareholderType": "COMPANY",
      "shareholderName": "CTCP Đầu tư CMC",
      "roleType": "Cổ đông lớn",
      "enRoleType": "Major Shareholder",
      "numberOfShares": 10231079,
      "ownershipPct": 4.831790044621905,
      "effectiveDate": "2024-12-30"
    },
    {
      "code": "CMG",
      "shareholderType": "COMPANY",
      "shareholderName": "Công ty TNHH Đầu tư Mỹ Linh",
      "roleType": "Cổ đông lớn",
      "enRoleType": "Major Shareholder",
      "numberOfShares": 9716878,
      "ownershipPct": 4.588950430859307,
      "effectiveDate": "2023-12-05"
    },
    {
      "code": "CMG",
      "shareholderType": "COMPANY",
      "shareholderName": "Tập đoàn Bảo Việt",
      "roleType": "Cổ đông lớn",
      "enRoleType": "Major Shareholder",
      "numberOfShares": 7151669,
      "ownershipPct": 3.3774896153798726,
      "effectiveDate": "2023-12-05"
    },
    {
      "code": "CMG",
      "shareholderType": "COMPANY",
      "shareholderName": "PYN ELITE FUND (NON - UCITS)",
      "roleType": "Cổ đông lớn",
      "enRoleType": "Major Shareholder",
      "numberOfShares": 6957773,
      "ownershipPct": 3.285919140506987,
      "effectiveDate": "2023-12-05"
    }
  ],
  "currentPage": 1,
  "size": 10,
  "totalElements": 14,
  "totalPages": 2
}