{"data":[{"code":"CMX","shareholderType":"PERSON","shareholderName":"Bùi Sĩ Tuấn","roleType":"Chủ tịch HĐQT","enRoleType":"Chairman","numberOfShares":17948690,"ownershipPct":17.614198138764674,"effectiveDate":"2023-06-30"},{"code":"CMX","shareholderType":"PERSON","shareholderName":"Bùi Sĩ Tuấn","roleType":"Chủ tịch HĐQT","enRoleType":"Chairman","numberOfShares":17948690,"ownershipPct":17.614198138764674,"groupPct":25.204744423865243,"effectiveDate":"2023-06-30"},{"code":"CMX","shareholderType":"PERSON","shareholderName":"Bùi Sĩ Tuấn","roleType":"Chủ tịch HĐQT","enRoleType":"Chairman","numberOfShares":17948690,"ownershipPct":17.614198138764674,"effectiveDate":"2023-06-30"},{"code":"CMX","shareholderType":"PERSON","shareholderName":"Bùi Sĩ Tuấn","roleType":"Chủ tịch HĐQT","enRoleType":"Chairman","numberOfShares":17948690,"ownershipPct":17.614198138764674,"effectiveDate":"2023-06-30"},{"code":"CMX","shareholderType":"PERSON","shareholderName":"Hà Văn Bằng","roleType":"Cổ đông lớn","enRoleType":"Major Shareholder","numberOfShares":13649137,"ownershipPct":13.394771626293842,"effectiveDate":"2023-10-20"},{"code":"CMX","shareholderType":"COMPANY","shareholderName":"Công ty TNHH ES VINA","roleType":"Cổ đông lớn","enRoleType":"Major Shareholder","numberOfShares":12375700,"ownershipPct":12.145066403504098,"effectiveDate":"2023-06-15"},{"code":"CMX","shareholderType":"PERSON","shareholderName":"Bùi Đức Dũng","roleType":"Nhóm cổ đông lớn","enRoleType":"Major Shareholder Group","numberOfShares":7734690,"ownershipPct":7.590546285100569,"groupPct":25.204744423865243,"effectiveDate":"2023-06-30"},{"code":"CMX","shareholderType":"PERSON","shareholderName":"Bùi Đức Dũng","roleType":"Con của Chủ tịch HĐQT","enRoleType":"Child of Chairman","numberOfShares":7734690,"ownershipPct":7.590546285100569,"groupPct":15.812413842374688,"effectiveDate":"2023-06-30"},{"code":"CMX","shareholderType":"PERSON","shareholderName":"Bùi Đức Cường","roleType":"Thành viên HĐQT","enRoleType":"Board member","numberOfShares":4480000,"ownershipPct":4.3965107014308975,"groupPct":15.812413842374688,"effectiveDate":"2024-03-11"},{"code":"CMX","shareholderType":"PERSON","shareholderName":"Vũ Thị Bích Ngọc","roleType":"Vợ của Chủ tịch HĐQT","enRoleType":"Wife of Chairman","numberOfShares":3898000,"ownershipPct":3.8253568558432227,"groupPct":15.812413842374688,"effectiveDate":"2022-12-16"}],"currentPage":1,"size":10,"totalElements":15,"totalPages":2}