{
  "data": [
    {
      "code": "CPC",
      "shareholderType": "COMPANY",
      "shareholderName": "Công ty TNHH TMDV Thanh Sơn Hóa Nông",
      "roleType": "Cổ đông lớn",
      "enRoleType": "Major Shareholder",
      "numberOfShares": 875220,
      "ownershipPct": 21.44384961227015,
      "effectiveDate": "2015-09-24"
    },
    {
      "code": "CPC",
      "shareholderType": "COMPANY",
      "shareholderName": "CTCP Ô tô TMT",
      "roleType": "Cổ đông lớn",
      "enRoleType": "Major Shareholder",
      "numberOfShares": 835220,
      "ownershipPct": 20.46380575530755,
      "effectiveDate": "2015-07-08"
    },
    {
      "code": "CPC",
      "shareholderType": "PERSON",
      "shareholderName": "Võ Thanh Tùng",
      "roleType": "Cổ đông lớn",
      "enRoleType": "Major Shareholder",
      "numberOfShares": 575000,
      "ownershipPct": 14.088130443837361,
      "effectiveDate": "2020-07-14"
    },
    {
      "code": "CPC",
      "shareholderType": "PERSON",
      "shareholderName": "Võ Viết Thanh",
      "roleType": "Chủ tịch HĐQT",
      "enRoleType": "Chairman",
      "numberOfShares": 360543,
      "ownershipPct": 8.833698808021659,
      "effectiveDate": "2020-06-30"
    },
    {
      "code": "CPC",
      "shareholderType": "COMPANY",
      "shareholderName": "Sát trùng Cần Thơ",
      "roleType": "Cổ phiếu quỹ",
      "enRoleType": "Treasury Stock",
      "numberOfShares": 221600,
      "ownershipPct": 5.429442967572799,
      "effectiveDate": "2011-02-23"
    },
    {
      "code": "CPC",
      "shareholderType": "PERSON",
      "shareholderName": "Lê Thị Thu Trang",
      "roleType": "Cổ đông lớn",
      "enRoleType": "Major Shareholder",
      "numberOfShares": 216544,
      "ownershipPct": 5.305565424052727,
      "effectiveDate": "2020-06-30"
    },
    {
      "code": "CPC",
      "shareholderType": "COMPANY",
      "shareholderName": "AFC Umbrella Fund",
      "roleType": "Cổ đông lớn",
      "enRoleType": "Major Shareholder",
      "numberOfShares": 204200,
      "ownershipPct": 5.003123889794068,
      "effectiveDate": "2016-02-18"
    },
    {
      "code": "CPC",
      "shareholderType": "PERSON",
      "shareholderName": "Phan Văn Mưa",
      "roleType": "Cổ đông lớn",
      "enRoleType": "Major Shareholder",
      "numberOfShares": 202230,
      "ownershipPct": 4.95485672983866,
      "effectiveDate": "2020-06-30"
    },
    {
      "code": "CPC",
      "shareholderType": "PERSON",
      "shareholderName": "Nguyễn Văn Trung",
      "roleType": "Thành viên HĐQT",
      "enRoleType": "Board member",
      "numberOfShares": 93262,
      "ownershipPct": 2.2850212547011477,
      "effectiveDate": "2020-06-30"
    },
    {
      "code": "CPC",
      "shareholderType": "PERSON",
      "shareholderName": "Cao Thị Kim Tuyến",
      "roleType": "Vợ của Thành viên HĐQT",
      "enRoleType": "Wife of Board member",
      "numberOfShares": 59658,
      "ownershipPct": 1.4616864104668683,
      "effectiveDate": "2020-06-30"
    }
  ],
  "currentPage": 1,
  "size": 10,
  "totalElements": 15,
  "totalPages": 2
}