{"data":[{"code":"CSC","shareholderType":"PERSON","shareholderName":"Đào Ngọc Thanh","roleType":"Chủ tịch HĐQT","enRoleType":"Chairman","numberOfShares":9168801,"ownershipPct":29.41101409767318,"effectiveDate":"2023-12-31"},{"code":"CSC","shareholderType":"PERSON","shareholderName":"Huỳnh Thị Mai Dung","roleType":"Vợ của Phó chủ tịch HĐQT","enRoleType":"Wife of Vice-chairman","numberOfShares":4150669,"ownershipPct":13.31421463654572,"groupPct":14.05933121642572,"effectiveDate":"2023-11-02"},{"code":"CSC","shareholderType":"COMPANY","shareholderName":"Asean Small Cap Fund","roleType":"Cổ đông lớn","enRoleType":"Major Shareholder","numberOfShares":3106268,"ownershipPct":9.964060943099438,"effectiveDate":"2023-05-25"},{"code":"CSC","shareholderType":"COMPANY","shareholderName":"Công ty cổ phần Quản lý Quỹ đầu tư Sài Gòn - Hà Nội","roleType":"Cổ đông lớn","enRoleType":"Major Shareholder","numberOfShares":2189956,"ownershipPct":7.024781843262164,"effectiveDate":"2023-05-25"},{"code":"CSC","shareholderType":"PERSON","shareholderName":"Đào Thu Thủy","roleType":"Phó chủ tịch HĐQT","enRoleType":"Vice-chairman","numberOfShares":1627954,"ownershipPct":5.222032634841071,"effectiveDate":"2023-12-31"},{"code":"CSC","shareholderType":"PERSON","shareholderName":"Trần Văn Năm","roleType":"Cổ đông lớn","enRoleType":"Major Shareholder","numberOfShares":1075674,"ownershipPct":3.4504689521018617,"effectiveDate":"2023-05-25"},{"code":"CSC","shareholderType":"COMPANY","shareholderName":"CTCP Chứng khoán Châu Á Thái Bình Dương","roleType":"Cổ đông lớn","enRoleType":"Major Shareholder","numberOfShares":991314,"ownershipPct":3.1798650695135375,"effectiveDate":"2023-11-09"},{"code":"CSC","shareholderType":"COMPANY","shareholderName":"ASEAN Deep Value Fund","roleType":"Cổ đông lớn","enRoleType":"Major Shareholder","numberOfShares":689613,"ownershipPct":2.212090508337862,"effectiveDate":"2023-05-25"},{"code":"CSC","shareholderType":"PERSON","shareholderName":"Nguyễn Thị Hồng Cúc","roleType":"Cổ đông lớn","enRoleType":"Major Shareholder","numberOfShares":522160,"ownershipPct":1.6749469337638616,"effectiveDate":"2023-05-25"},{"code":"CSC","shareholderType":"PERSON","shareholderName":"Đoàn Văn Tuấn","roleType":"Thành viên HĐQT","enRoleType":"Board member","numberOfShares":420586,"ownershipPct":1.3491252318906226,"effectiveDate":"2023-12-31"}],"currentPage":1,"size":10,"totalElements":11,"totalPages":2}