{"data":[{"code":"CTB","shareholderType":"PERSON","shareholderName":"Hồ Thị Hà","roleType":"Cổ đông lớn","enRoleType":"Major Shareholder","numberOfShares":3360000,"ownershipPct":24.56140350877193,"effectiveDate":"2019-07-08"},{"code":"CTB","shareholderType":"COMPANY","shareholderName":"Máy T.bị C.nghiệp","roleType":"Cổ đông lớn","enRoleType":"Major Shareholder","numberOfShares":1793758,"ownershipPct":13.112266081871345,"effectiveDate":"2013-05-27"},{"code":"CTB","shareholderType":"PERSON","shareholderName":"Phạm Mạnh Hà","roleType":"Chủ tịch HĐQT","enRoleType":"Chairman","numberOfShares":674000,"ownershipPct":4.926900584795321,"effectiveDate":"2022-05-18"},{"code":"CTB","shareholderType":"COMPANY","shareholderName":"AFC Umbrella Fund","roleType":"Cổ đông lớn","enRoleType":"Major Shareholder","numberOfShares":530167,"ownershipPct":3.8754897660818712,"effectiveDate":"2021-11-15"},{"code":"CTB","shareholderType":"PERSON","shareholderName":"Vũ Huy Toàn","roleType":"Cổ đông lớn","enRoleType":"Major Shareholder","numberOfShares":500000,"ownershipPct":3.654970760233918,"effectiveDate":"2019-05-14"},{"code":"CTB","shareholderType":"PERSON","shareholderName":"Nguyễn Thanh Tùng","roleType":"Con của Thành viên HĐQT","enRoleType":"Child of Board member","numberOfShares":420000,"ownershipPct":3.0701754385964914,"effectiveDate":"2020-06-30"},{"code":"CTB","shareholderType":"PERSON","shareholderName":"Vũ Thị Tuyết Mai","roleType":"Cổ đông lớn","enRoleType":"Major Shareholder","numberOfShares":408000,"ownershipPct":2.982456140350877,"effectiveDate":"2021-12-31"},{"code":"CTB","shareholderType":"PERSON","shareholderName":"Nguyễn Trọng Nam","roleType":"Thành viên HĐQT","enRoleType":"Board member","numberOfShares":373898,"ownershipPct":2.733172514619883,"effectiveDate":"2020-06-30"},{"code":"CTB","shareholderType":"COMPANY","shareholderName":"Công ty Cổ phần Quản lý Quỹ Đầu tư MB","roleType":"Cổ đông lớn","enRoleType":"Major Shareholder","numberOfShares":360000,"ownershipPct":2.6315789473684212,"effectiveDate":"2020-06-30"},{"code":"CTB","shareholderType":"PERSON","shareholderName":"Hoàng Phương","roleType":"Thành viên HĐQT","enRoleType":"Board member","numberOfShares":300000,"ownershipPct":2.192982456140351,"effectiveDate":"2023-06-30"}],"currentPage":1,"size":10,"totalElements":17,"totalPages":2}