{"data":[{"code":"CTC","shareholderType":"COMPANY","shareholderName":"Du lịch Vietourist","roleType":"Cổ đông lớn","enRoleType":"Major Shareholder","numberOfShares":3400000,"ownershipPct":21.519088127374772,"effectiveDate":"2022-01-12"},{"code":"CTC","shareholderType":"PERSON","shareholderName":"Trần Thiện","roleType":"Cổ đông lớn","enRoleType":"Major Shareholder","numberOfShares":842942,"ownershipPct":5.33510093654869,"effectiveDate":"2020-06-30"},{"code":"CTC","shareholderType":"PERSON","shareholderName":"Phan Thị Thuỳ Dung","roleType":"Cổ đông lớn","enRoleType":"Major Shareholder","numberOfShares":800000,"ownershipPct":5.063314853499946,"effectiveDate":"2021-03-19"},{"code":"CTC","shareholderType":"COMPANY","shareholderName":"CTCP BERLAYS HOLDINGS","roleType":"Cổ đông lớn","enRoleType":"Major Shareholder","numberOfShares":780000,"ownershipPct":4.936731982162448,"effectiveDate":"2022-05-24"},{"code":"CTC","shareholderType":"PERSON","shareholderName":"Lưu Ngọc Long","roleType":"Cổ đông lớn","enRoleType":"Major Shareholder","numberOfShares":710000,"ownershipPct":4.493691932481203,"effectiveDate":"2020-05-29"},{"code":"CTC","shareholderType":"PERSON","shareholderName":"Phùng Duy Khương","roleType":"Cổ đông lớn","enRoleType":"Major Shareholder","numberOfShares":613700,"ownershipPct":3.8841954069911466,"effectiveDate":"2020-06-30"},{"code":"CTC","shareholderType":"PERSON","shareholderName":"Phan Thị Thùy Dung","roleType":"Cổ đông lớn","enRoleType":"Major Shareholder","numberOfShares":610000,"ownershipPct":3.8607775757937093,"effectiveDate":"2021-03-26"},{"code":"CTC","shareholderType":"PERSON","shareholderName":"Nguyễn Dương Trung Hiếu","roleType":"Cổ đông lớn","enRoleType":"Major Shareholder","numberOfShares":530900,"ownershipPct":3.360142319653902,"effectiveDate":"2019-12-13"},{"code":"CTC","shareholderType":"PERSON","shareholderName":"Nguyễn Thời Linh","roleType":"Cổ đông lớn","enRoleType":"Major Shareholder","numberOfShares":520900,"ownershipPct":3.2968508839851527,"effectiveDate":"2019-12-12"},{"code":"CTC","shareholderType":"PERSON","shareholderName":"Nguyễn Văn Minh","roleType":"Cổ đông lớn","enRoleType":"Major Shareholder","numberOfShares":520900,"ownershipPct":3.2968508839851527,"effectiveDate":"2020-12-31"}],"currentPage":1,"size":10,"totalElements":13,"totalPages":2}