{
  "data": [
    {
      "code": "CTD",
      "shareholderType": "COMPANY",
      "shareholderName": "Kustoshem Pte., Ltd",
      "roleType": "Cổ đông lớn",
      "enRoleType": "Major Shareholder",
      "numberOfShares": 18537585,
      "ownershipPct": 18.276232319163437,
      "effectiveDate": "2023-09-28"
    },
    {
      "code": "CTD",
      "shareholderType": "COMPANY",
      "shareholderName": "Công ty TNHH MTV Kinh doanh và Đầu tư Thành Công",
      "roleType": "Cổ đông lớn",
      "enRoleType": "Major Shareholder",
      "numberOfShares": 14919805,
      "ownershipPct": 14.709457695628435,
      "effectiveDate": "2023-09-28"
    },
    {
      "code": "CTD",
      "shareholderType": "COMPANY",
      "shareholderName": "The&TH PTE.LTD",
      "roleType": "Cổ đông lớn",
      "enRoleType": "Major Shareholder",
      "numberOfShares": 11005914,
      "ownershipPct": 10.85074680163211,
      "effectiveDate": "2023-09-28"
    },
    {
      "code": "CTD",
      "shareholderType": "COMPANY",
      "shareholderName": "Korea Investment Management Co.Ltd",
      "roleType": "Cổ đông lớn",
      "enRoleType": "Major Shareholder",
      "numberOfShares": 7633400,
      "ownershipPct": 7.525780288268519,
      "effectiveDate": "2023-09-28"
    },
    {
      "code": "CTD",
      "shareholderType": "COMPANY",
      "shareholderName": "Quỹ ETF VinaCapital VN100",
      "roleType": "Cổ đông lớn",
      "enRoleType": "Major Shareholder",
      "numberOfShares": 7414372,
      "ownershipPct": 7.3098402608916135,
      "effectiveDate": "2023-09-28"
    },
    {
      "code": "CTD",
      "shareholderType": "COMPANY",
      "shareholderName": "Xây dựng Coteccons",
      "roleType": "Cổ phiếu quỹ",
      "enRoleType": "Treasury Stock",
      "numberOfShares": 5395527,
      "ownershipPct": 5.319458005793039,
      "effectiveDate": "2021-07-15"
    },
    {
      "code": "CTD",
      "shareholderType": "COMPANY",
      "shareholderName": "The Ton Poh Thailand Fund",
      "roleType": "Cổ đông lớn",
      "enRoleType": "Major Shareholder",
      "numberOfShares": 4443332,
      "ownershipPct": 4.380687554671933,
      "effectiveDate": "2023-09-28"
    },
    {
      "code": "CTD",
      "shareholderType": "PERSON",
      "shareholderName": "Nguyễn Bá Dương",
      "roleType": "Cổ đông lớn",
      "enRoleType": "Major Shareholder",
      "numberOfShares": 4295424,
      "ownershipPct": 4.2348648399082345,
      "effectiveDate": "2023-09-28"
    },
    {
      "code": "CTD",
      "shareholderType": "COMPANY",
      "shareholderName": "Preston Pacific Limited",
      "roleType": "Cổ đông lớn",
      "enRoleType": "Major Shareholder",
      "numberOfShares": 3481796,
      "ownershipPct": 3.4327077979107843,
      "effectiveDate": "2023-09-28"
    },
    {
      "code": "CTD",
      "shareholderType": "COMPANY",
      "shareholderName": "Red River Holding",
      "roleType": "Cổ đông lớn",
      "enRoleType": "Major Shareholder",
      "numberOfShares": 3296371,
      "ownershipPct": 3.249897017661853,
      "effectiveDate": "2023-09-28"
    }
  ],
  "currentPage": 1,
  "size": 10,
  "totalElements": 23,
  "totalPages": 3
}