{"data":[{"code":"CTF","shareholderType":"PERSON","shareholderName":"Trần Ngọc Dân","roleType":"Chủ tịch HĐQT","enRoleType":"Chairman","numberOfShares":8253348,"ownershipPct":9.232281006927007,"effectiveDate":"2023-12-31"},{"code":"CTF","shareholderType":"PERSON","shareholderName":"Trần Lâm","roleType":"Thành viên HĐQT","enRoleType":"Board member","numberOfShares":7507176,"ownershipPct":8.397605238559946,"groupPct":24.682143215937145,"effectiveDate":"2023-12-31"},{"code":"CTF","shareholderType":"PERSON","shareholderName":"Trần Long","roleType":"Con của Chủ tịch HĐQT","enRoleType":"Child of Chairman","numberOfShares":7159785,"ownershipPct":8.00901004891359,"groupPct":24.682143215937145,"effectiveDate":"2023-12-31"},{"code":"CTF","shareholderType":"COMPANY","shareholderName":"Tập đoàn Tân Thành Đô","roleType":"Cổ đông lớn","enRoleType":"Major Shareholder","numberOfShares":6719737,"ownershipPct":7.516767774319544,"effectiveDate":"2022-07-12"},{"code":"CTF","shareholderType":"PERSON","shareholderName":"Phạm Anh Hưng","roleType":"Anh/em rể của Chủ tịch HĐQT","enRoleType":"Brother in law of Chairman","numberOfShares":3754866,"ownershipPct":4.200232203386551,"groupPct":24.682143215937145,"effectiveDate":"2023-12-15"},{"code":"CTF","shareholderType":"PERSON","shareholderName":"Ngô Công Minh","roleType":"Cổ đông lớn","enRoleType":"Major Shareholder","numberOfShares":2401440,"ownershipPct":2.686275787871151,"effectiveDate":"2019-01-10"},{"code":"CTF","shareholderType":"PERSON","shareholderName":"Nguyễn Văn Thành","roleType":"Anh/em rể của Chủ tịch HĐQT","enRoleType":"Brother in law of Chairman","numberOfShares":2325968,"ownershipPct":2.60185202285424,"groupPct":24.682143215937145,"effectiveDate":"2023-12-15"},{"code":"CTF","shareholderType":"PERSON","shareholderName":"Phạm Thị Ái Hạnh","roleType":"Cổ đông lớn","enRoleType":"Major Shareholder","numberOfShares":2000951,"ownershipPct":2.2382846225666966,"effectiveDate":"2019-08-15"},{"code":"CTF","shareholderType":"PERSON","shareholderName":"Ngô Đức Toan","roleType":"Cổ đông lớn","enRoleType":"Major Shareholder","numberOfShares":1321265,"ownershipPct":1.4779807860540244,"effectiveDate":"2019-08-19"},{"code":"CTF","shareholderType":"PERSON","shareholderName":"Trần Thị Tâm","roleType":"Em gái của Chủ tịch HĐQT","enRoleType":"Young Sister of Chairman","numberOfShares":1317209,"ownershipPct":1.473443702222821,"groupPct":24.682143215937145,"effectiveDate":"2023-12-26"}],"currentPage":1,"size":10,"totalElements":11,"totalPages":2}