{
  "data": [
    {
      "code": "CTN",
      "shareholderType": "COMPANY",
      "shareholderName": "XD Công trình ngầm",
      "roleType": "Cổ phiếu quỹ",
      "enRoleType": "Treasury Stock",
      "numberOfShares": 2087500,
      "ownershipPct": 42.85704020554955,
      "effectiveDate": "2014-09-19"
    },
    {
      "code": "CTN",
      "shareholderType": "PERSON",
      "shareholderName": "Trang Thị Minh Hiền",
      "roleType": "Cổ đông lớn",
      "enRoleType": "Major Shareholder",
      "numberOfShares": 342300,
      "ownershipPct": 7.027528077777059,
      "effectiveDate": "2014-04-04"
    },
    {
      "code": "CTN",
      "shareholderType": "PERSON",
      "shareholderName": "Trang Thị Minh Hường",
      "roleType": "Vợ của Thành viên HĐQT",
      "enRoleType": "Wife of Board member",
      "numberOfShares": 264300,
      "ownershipPct": 5.426163222192454,
      "effectiveDate": "2020-06-30"
    },
    {
      "code": "CTN",
      "shareholderType": "PERSON",
      "shareholderName": "Nguyễn Thanh Hoàn",
      "roleType": "Chủ tịch HĐQT",
      "enRoleType": "Chairman",
      "numberOfShares": 160438,
      "ownershipPct": 3.2938432653882437,
      "effectiveDate": "2020-06-30"
    },
    {
      "code": "CTN",
      "shareholderType": "COMPANY",
      "shareholderName": "Công ty TNHH Cavico Việt Nam",
      "roleType": "Cổ đông lớn",
      "enRoleType": "Major Shareholder",
      "numberOfShares": 160400,
      "ownershipPct": 3.293063113279113,
      "effectiveDate": "2010-10-26"
    },
    {
      "code": "CTN",
      "shareholderType": "PERSON",
      "shareholderName": "Đinh Huỳnh Môn",
      "roleType": "Thành viên HĐQT",
      "enRoleType": "Board member",
      "numberOfShares": 153000,
      "ownershipPct": 3.141138755185189,
      "effectiveDate": "2020-06-30"
    },
    {
      "code": "CTN",
      "shareholderType": "PERSON",
      "shareholderName": "Lều Hồng Hải",
      "roleType": "Thành viên HĐQT",
      "enRoleType": "Board member",
      "numberOfShares": 150000,
      "ownershipPct": 3.0795477992011655,
      "effectiveDate": "2020-06-30"
    },
    {
      "code": "CTN",
      "shareholderType": "PERSON",
      "shareholderName": "Chu Anh Đức",
      "roleType": "Cổ đông lớn",
      "enRoleType": "Major Shareholder",
      "numberOfShares": 143192,
      "ownershipPct": 2.939777389754755,
      "effectiveDate": "2014-12-26"
    },
    {
      "code": "CTN",
      "shareholderType": "COMPANY",
      "shareholderName": "Công ty TNHH quản lý Quỹ đầu tư Chứng khoán Hà Nội",
      "roleType": "Cổ đông lớn",
      "enRoleType": "Major Shareholder",
      "numberOfShares": 130000,
      "ownershipPct": 2.668941425974343,
      "effectiveDate": "2007-03-19"
    },
    {
      "code": "CTN",
      "shareholderType": "PERSON",
      "shareholderName": "Trần Thị Thu Hương",
      "roleType": "Vợ của Chủ tịch HĐQT",
      "enRoleType": "Wife of Chairman",
      "numberOfShares": 63745,
      "ownershipPct": 1.3087051630671886,
      "effectiveDate": "2020-06-30"
    }
  ],
  "currentPage": 1,
  "size": 10,
  "totalElements": 11,
  "totalPages": 2
}