{
  "data": [
    {
      "code": "CX8",
      "shareholderType": "PERSON",
      "shareholderName": "Vũ Đức Tiến",
      "roleType": "Chủ tịch HĐQT",
      "enRoleType": "Chairman",
      "numberOfShares": 608678,
      "ownershipPct": 22.778526860510066,
      "effectiveDate": "2023-10-11"
    },
    {
      "code": "CX8",
      "shareholderType": "PERSON",
      "shareholderName": "Nguyễn Quang Huy",
      "roleType": "Cổ đông lớn",
      "enRoleType": "Major Shareholder",
      "numberOfShares": 285569,
      "ownershipPct": 10.686834643323726,
      "effectiveDate": "2025-06-09"
    },
    {
      "code": "CX8",
      "shareholderType": "PERSON",
      "shareholderName": "Vũ Duy Hậu",
      "roleType": "Thành viên HĐQT",
      "enRoleType": "Board member",
      "numberOfShares": 197951,
      "ownershipPct": 7.4079105381906825,
      "effectiveDate": "2023-10-11"
    },
    {
      "code": "CX8",
      "shareholderType": "PERSON",
      "shareholderName": "Vũ Tường Vy",
      "roleType": "Thành viên HĐQT",
      "enRoleType": "Board member",
      "numberOfShares": 190575,
      "ownershipPct": 7.131878852926681,
      "groupPct": 9.831832485890612,
      "effectiveDate": "2023-10-11"
    },
    {
      "code": "CX8",
      "shareholderType": "PERSON",
      "shareholderName": "Trần Bá Hùng",
      "roleType": "Cổ đông lớn",
      "enRoleType": "Major Shareholder",
      "numberOfShares": 185231,
      "ownershipPct": 6.931890603733239,
      "effectiveDate": "2023-10-11"
    },
    {
      "code": "CX8",
      "shareholderType": "COMPANY",
      "shareholderName": "Đ.tư XD T.mại VN",
      "roleType": "Cổ đông lớn",
      "enRoleType": "Major Shareholder",
      "numberOfShares": 136227,
      "ownershipPct": 5.098016321645772,
      "effectiveDate": "2023-10-11"
    },
    {
      "code": "CX8",
      "shareholderType": "PERSON",
      "shareholderName": "Nguyễn Thị Việt Hoa",
      "roleType": "Cổ đông lớn",
      "enRoleType": "Major Shareholder",
      "numberOfShares": 117007,
      "ownershipPct": 4.378747206844508,
      "effectiveDate": "2023-10-11"
    },
    {
      "code": "CX8",
      "shareholderType": "PERSON",
      "shareholderName": "Hoàng Biên Cương",
      "roleType": "Thành viên HĐQT",
      "enRoleType": "Board member",
      "numberOfShares": 114040,
      "ownershipPct": 4.2677133117552595,
      "effectiveDate": "2023-10-11"
    },
    {
      "code": "CX8",
      "shareholderType": "PERSON",
      "shareholderName": "Nguyễn Thị Thu Hoài",
      "roleType": "Kế toán trưởng",
      "enRoleType": "Chief Accountant",
      "numberOfShares": 109352,
      "ownershipPct": 4.092274518301132,
      "effectiveDate": "2023-10-11"
    },
    {
      "code": "CX8",
      "shareholderType": "PERSON",
      "shareholderName": "Vũ Ngọc Trìu",
      "roleType": "Phó TGĐ",
      "enRoleType": "Deputy CEO",
      "numberOfShares": 78352,
      "ownershipPct": 2.932163042815224,
      "effectiveDate": "2023-10-11"
    }
  ],
  "currentPage": 1,
  "size": 10,
  "totalElements": 14,
  "totalPages": 2
}