{"data":[{"code":"DBC","shareholderType":"PERSON","shareholderName":"Nguyễn Như So","roleType":"Chủ tịch HĐQT","enRoleType":"Chairman","numberOfShares":58474590,"ownershipPct":24.162868104248737,"effectiveDate":"2022-12-31"},{"code":"DBC","shareholderType":"COMPANY","shareholderName":"Chứng khoán SSI","roleType":"Cổ đông lớn","enRoleType":"Major Shareholder","numberOfShares":12080367,"ownershipPct":4.991848843607437,"effectiveDate":"2022-06-22"},{"code":"DBC","shareholderType":"COMPANY","shareholderName":"Fraser Investment Holding Pte.Ltd","roleType":"Cổ đông lớn","enRoleType":"Major Shareholder","numberOfShares":11566264,"ownershipPct":4.7794112193162945,"effectiveDate":"2022-06-22"},{"code":"DBC","shareholderType":"COMPANY","shareholderName":"Vietnam Holding LTD","roleType":"Cổ đông lớn","enRoleType":"Major Shareholder","numberOfShares":10440840,"ownershipPct":4.314363552058499,"effectiveDate":"2022-06-22"},{"code":"DBC","shareholderType":"COMPANY","shareholderName":"SSIAM SIF - VIETNAM ACTIVE VALUE PORTFOLIO","roleType":"Cổ đông lớn","enRoleType":"Major Shareholder","numberOfShares":9694969,"ownershipPct":4.006154762637588,"effectiveDate":"2022-06-22"},{"code":"DBC","shareholderType":"PERSON","shareholderName":"Nguyễn Thị Tân Hòa","roleType":"Con của Chủ tịch HĐQT","enRoleType":"Child of Chairman","numberOfShares":4384977,"ownershipPct":1.8119600477945088,"groupPct":3.916443055092399,"effectiveDate":"2024-01-12"},{"code":"DBC","shareholderType":"PERSON","shareholderName":"Nguyễn Thị Thu Hương","roleType":"Thành viên HĐQT","enRoleType":"Board member","numberOfShares":4111812,"ownershipPct":1.6990828157233289,"effectiveDate":"2022-12-31"},{"code":"DBC","shareholderType":"COMPANY","shareholderName":"Vietnam Equity Holding","roleType":"Cổ đông lớn","enRoleType":"Major Shareholder","numberOfShares":3033793,"ownershipPct":1.2536238409639655,"effectiveDate":"2013-04-01"},{"code":"DBC","shareholderType":"PERSON","shareholderName":"Nguyễn Thị Ngọc Anh","roleType":"Cổ đông lớn","enRoleType":"Major Shareholder","numberOfShares":2962880,"ownershipPct":1.2243211734997457,"effectiveDate":"2016-05-23"},{"code":"DBC","shareholderType":"PERSON","shareholderName":"Nguyễn Thu Hiền","roleType":"Con của Chủ tịch HĐQT","enRoleType":"Child of Chairman","numberOfShares":2778173,"ownershipPct":1.1479965532000314,"groupPct":3.916443055092399,"effectiveDate":"2022-12-31"}],"currentPage":1,"size":10,"totalElements":11,"totalPages":2}