{
  "data": [
    {
      "code": "DC2",
      "shareholderType": "COMPANY",
      "shareholderName": "TCT ĐTPT Xây dựng",
      "roleType": "Cổ đông lớn",
      "enRoleType": "Major Shareholder",
      "numberOfShares": 5668477,
      "ownershipPct": 50.14266191430661,
      "effectiveDate": "2025-06-05"
    },
    {
      "code": "DC2",
      "shareholderType": "COMPANY",
      "shareholderName": "Công ty cổ phần D2 Capital",
      "roleType": "Cổ đông lớn",
      "enRoleType": "Major Shareholder",
      "numberOfShares": 696074,
      "ownershipPct": 6.157386410730617,
      "effectiveDate": "2025-06-05"
    },
    {
      "code": "DC2",
      "shareholderType": "PERSON",
      "shareholderName": "Nguyễn Minh Trí",
      "roleType": "Cổ đông lớn",
      "enRoleType": "Major Shareholder",
      "numberOfShares": 687830,
      "ownershipPct": 6.084460983879358,
      "effectiveDate": "2025-06-05"
    },
    {
      "code": "DC2",
      "shareholderType": "PERSON",
      "shareholderName": "Phạm Đức Dũng",
      "roleType": "Chủ tịch HĐQT",
      "enRoleType": "Chairman",
      "numberOfShares": 679220,
      "ownershipPct": 6.00829796529744,
      "effectiveDate": "2025-06-05"
    },
    {
      "code": "DC2",
      "shareholderType": "COMPANY",
      "shareholderName": "CTCP Phát triển Thương mại Thiên Quang",
      "roleType": "Cổ đông lớn",
      "enRoleType": "Major Shareholder",
      "numberOfShares": 352275,
      "ownershipPct": 3.1161820407602185,
      "effectiveDate": "2023-06-22"
    },
    {
      "code": "DC2",
      "shareholderType": "PERSON",
      "shareholderName": "Vũ Gia Tân",
      "roleType": "Tổng Giám đốc",
      "enRoleType": "CEO",
      "numberOfShares": 333823,
      "ownershipPct": 2.952957880612301,
      "effectiveDate": "2025-06-05"
    },
    {
      "code": "DC2",
      "shareholderType": "PERSON",
      "shareholderName": "Trịnh Văn Huynh",
      "roleType": "Cổ đông lớn",
      "enRoleType": "Major Shareholder",
      "numberOfShares": 308288,
      "ownershipPct": 2.7270783591849725,
      "effectiveDate": "2025-06-05"
    },
    {
      "code": "DC2",
      "shareholderType": "PERSON",
      "shareholderName": "Trần Thanh Hải",
      "roleType": "Cổ đông lớn",
      "enRoleType": "Major Shareholder",
      "numberOfShares": 212213,
      "ownershipPct": 1.8772105298867312,
      "effectiveDate": "2023-06-22"
    },
    {
      "code": "DC2",
      "shareholderType": "PERSON",
      "shareholderName": "Phạm Đức Mạnh",
      "roleType": "Em trai của Chủ tịch HĐQT",
      "enRoleType": "Young Brother of Chairman",
      "numberOfShares": 181383,
      "ownershipPct": 1.6044920789133792,
      "effectiveDate": "2025-06-05"
    },
    {
      "code": "DC2",
      "shareholderType": "PERSON",
      "shareholderName": "Ngô Văn Lênh",
      "roleType": "Phó TGĐ",
      "enRoleType": "Deputy CEO",
      "numberOfShares": 122817,
      "ownershipPct": 1.0864243267335114,
      "effectiveDate": "2025-06-05"
    }
  ],
  "currentPage": 1,
  "size": 10,
  "totalElements": 11,
  "totalPages": 2
}