{"data":[{"code":"DFC","shareholderType":"PERSON","shareholderName":"Phan Thanh Việt","roleType":"Con của Chủ tịch HĐQT","enRoleType":"Child of Chairman","numberOfShares":1496000,"ownershipPct":13.12280701754386,"groupPct":23.660105263157895,"effectiveDate":"2023-04-19"},{"code":"DFC","shareholderType":"PERSON","shareholderName":"Đặng Thế Nguyện","roleType":"Thành viên BKS","enRoleType":"Control member","numberOfShares":1451325,"ownershipPct":12.73092105263158,"effectiveDate":"2023-04-14"},{"code":"DFC","shareholderType":"PERSON","shareholderName":"Phan Thành Nam","roleType":"Con của Chủ tịch HĐQT","enRoleType":"Child of Chairman","numberOfShares":1201252,"ownershipPct":10.537298245614036,"groupPct":23.660105263157895,"effectiveDate":"2023-06-30"},{"code":"DFC","shareholderType":"PERSON","shareholderName":"Bạch Quốc Trung","roleType":"Anh/em rể của Thành viên HĐQT","enRoleType":"Brother in law of Board member","numberOfShares":1088273,"ownershipPct":9.546254385964913,"effectiveDate":"2023-04-19"},{"code":"DFC","shareholderType":"PERSON","shareholderName":"Trần Tiến Đức","roleType":"Cổ đông lớn","enRoleType":"Major Shareholder","numberOfShares":987800,"ownershipPct":8.664912280701754,"effectiveDate":"2018-05-18"},{"code":"DFC","shareholderType":"PERSON","shareholderName":"Nguyễn Minh Tuấn","roleType":"Thành viên HĐQT","enRoleType":"Board member","numberOfShares":604680,"ownershipPct":5.3042105263157895,"effectiveDate":"2023-04-19"},{"code":"DFC","shareholderType":"COMPANY","shareholderName":"Công ty TNHH Linh Trung ES","roleType":"Cổ đông lớn","enRoleType":"Major Shareholder","numberOfShares":600000,"ownershipPct":5.2631578947368425,"effectiveDate":"2020-06-30"},{"code":"DFC","shareholderType":"PERSON","shareholderName":"Phạm Đức Hiếu","roleType":"Thành viên HĐQT","enRoleType":"Board member","numberOfShares":573610,"ownershipPct":5.031666666666666,"effectiveDate":"2023-04-20"},{"code":"DFC","shareholderType":"PERSON","shareholderName":"Phùng Quang Anh","roleType":"Con của Thành viên HĐQT","enRoleType":"Child of Board member","numberOfShares":566460,"ownershipPct":4.968947368421053,"groupPct":5.288947368421053,"effectiveDate":"2023-04-19"},{"code":"DFC","shareholderType":"PERSON","shareholderName":"Nguyễn Hữu Thắng","roleType":"Thành viên HĐQT","enRoleType":"Board member","numberOfShares":551000,"ownershipPct":4.833333333333333,"effectiveDate":"2023-04-20"}],"currentPage":1,"size":10,"totalElements":13,"totalPages":2}