{
  "data": [
    {
      "code": "DGC",
      "shareholderType": "PERSON",
      "shareholderName": "Đào Hữu Huyền",
      "roleType": "Chủ tịch HĐQT",
      "enRoleType": "Chairman",
      "numberOfShares": 69794354,
      "ownershipPct": 18.377651707128493,
      "effectiveDate": "2022-11-21"
    },
    {
      "code": "DGC",
      "shareholderType": "PERSON",
      "shareholderName": "Ngô Thị Ngọc Lan",
      "roleType": "Chị/em dâu của Chủ tịch HĐQT",
      "enRoleType": "Sister in law of Chairman",
      "numberOfShares": 25205068,
      "ownershipPct": 6.636782696756384,
      "groupPct": 22.369143977648882,
      "effectiveDate": "2022-06-03"
    },
    {
      "code": "DGC",
      "shareholderType": "PERSON",
      "shareholderName": "Đào Hữu Kha",
      "roleType": "Em trai của Chủ tịch HĐQT",
      "enRoleType": "Young Brother of Chairman",
      "numberOfShares": 22667148,
      "ownershipPct": 5.968519332350783,
      "groupPct": 22.369143977648882,
      "effectiveDate": "2022-09-12"
    },
    {
      "code": "DGC",
      "shareholderType": "PERSON",
      "shareholderName": "Nguyễn Thị Hồng Lan",
      "roleType": "Vợ của Chủ tịch HĐQT",
      "enRoleType": "Wife of Chairman",
      "numberOfShares": 14298574,
      "ownershipPct": 3.7649780794676184,
      "groupPct": 22.369143977648882,
      "effectiveDate": "2022-06-03"
    },
    {
      "code": "DGC",
      "shareholderType": "PERSON",
      "shareholderName": "Đào Hữu Duy Anh",
      "roleType": "Phó chủ tịch HĐQT",
      "enRoleType": "Vice-chairman",
      "numberOfShares": 11436791,
      "ownershipPct": 3.011437882858287,
      "groupPct": 22.369143977648882,
      "effectiveDate": "2023-06-30"
    },
    {
      "code": "DGC",
      "shareholderType": "COMPANY",
      "shareholderName": "Vietnam Enterprise Investments Limited",
      "roleType": "Cổ đông lớn",
      "enRoleType": "Major Shareholder",
      "numberOfShares": 7151540,
      "ownershipPct": 1.8830822804033363,
      "effectiveDate": "2025-05-13"
    },
    {
      "code": "DGC",
      "shareholderType": "COMPANY",
      "shareholderName": "Amersham Industries Ltd",
      "roleType": "Cổ đông lớn",
      "enRoleType": "Major Shareholder",
      "numberOfShares": 5646960,
      "ownershipPct": 1.486909157208996,
      "effectiveDate": "2025-05-13"
    },
    {
      "code": "DGC",
      "shareholderType": "COMPANY",
      "shareholderName": "Norges Bank",
      "roleType": "Cổ đông lớn",
      "enRoleType": "Major Shareholder",
      "numberOfShares": 5281600,
      "ownershipPct": 1.3907056902678667,
      "effectiveDate": "2025-05-13"
    },
    {
      "code": "DGC",
      "shareholderType": "PERSON",
      "shareholderName": "Đào Hồng Hạnh",
      "roleType": "Con của Chủ tịch HĐQT",
      "enRoleType": "Child of Chairman",
      "numberOfShares": 5136504,
      "ownershipPct": 1.3525002538783055,
      "groupPct": 22.369143977648882,
      "effectiveDate": "2022-09-12"
    },
    {
      "code": "DGC",
      "shareholderType": "COMPANY",
      "shareholderName": "Hanoi Investments Holdings Limited",
      "roleType": "Cổ đông lớn",
      "enRoleType": "Major Shareholder",
      "numberOfShares": 5083800,
      "ownershipPct": 1.3386226878566687,
      "effectiveDate": "2025-05-13"
    }
  ],
  "currentPage": 1,
  "size": 10,
  "totalElements": 11,
  "totalPages": 2
}