{"data":[{"code":"DHA","shareholderType":"COMPANY","shareholderName":"TCT Xây dựng số 1","roleType":"Cổ đông lớn","enRoleType":"Major Shareholder","numberOfShares":3758343,"ownershipPct":25.521692035616013,"effectiveDate":"2020-06-30"},{"code":"DHA","shareholderType":"COMPANY","shareholderName":"TCT VLXD số 1","roleType":"Cổ đông lớn","enRoleType":"Major Shareholder","numberOfShares":3058343,"ownershipPct":20.768218383814883,"effectiveDate":"2024-04-15"},{"code":"DHA","shareholderType":"PERSON","shareholderName":"La Mỹ Phượng","roleType":"Cổ đông lớn","enRoleType":"Major Shareholder","numberOfShares":1381100,"ownershipPct":9.378603515003627,"effectiveDate":"2023-10-12"},{"code":"DHA","shareholderType":"PERSON","shareholderName":"Vương Ngọc Tuyết","roleType":"Cổ đông lớn","enRoleType":"Major Shareholder","numberOfShares":724250,"ownershipPct":4.918147560452811,"effectiveDate":"2020-02-10"},{"code":"DHA","shareholderType":"COMPANY","shareholderName":"FTIF – Templeton Frontier Markets Fund","roleType":"Cổ đông lớn","enRoleType":"Major Shareholder","numberOfShares":720980,"ownershipPct":4.8959420478222535,"effectiveDate":"2011-07-13"},{"code":"DHA","shareholderType":"PERSON","shareholderName":"Nguyễn Tấn Lộc","roleType":"Thành viên HĐQT","enRoleType":"Board member","numberOfShares":718230,"ownershipPct":4.877267687047321,"effectiveDate":"2022-06-30"},{"code":"DHA","shareholderType":"COMPANY","shareholderName":"PXP Viet Nam Funds LTD","roleType":"Cổ đông lớn","enRoleType":"Major Shareholder","numberOfShares":500000,"ownershipPct":3.3953383227150917,"effectiveDate":"2009-09-24"},{"code":"DHA","shareholderType":"COMPANY","shareholderName":"CTCP Hoá An","roleType":"Cổ phiếu quỹ","enRoleType":"Treasury Stock","numberOfShares":393873,"ownershipPct":2.6746641823655226,"effectiveDate":"2019-01-17"},{"code":"DHA","shareholderType":"COMPANY","shareholderName":"Vietnam Emerging Equity Fund","roleType":"Cổ đông lớn","enRoleType":"Major Shareholder","numberOfShares":333455,"ownershipPct":2.264385080801922,"effectiveDate":"2007-03-08"},{"code":"DHA","shareholderType":"COMPANY","shareholderName":"Citigroup Global Market LTD","roleType":"Cổ đông lớn","enRoleType":"Major Shareholder","numberOfShares":331957,"ownershipPct":2.2542126471870674,"effectiveDate":"2007-11-28"}],"currentPage":1,"size":10,"totalElements":12,"totalPages":2}