{
  "data": [
    {
      "code": "DHM",
      "shareholderType": "PERSON",
      "shareholderName": "Nguyễn Thị Dung",
      "roleType": "Thành viên HĐQT",
      "enRoleType": "Board member",
      "numberOfShares": 6314140,
      "ownershipPct": 18.282936737432184,
      "effectiveDate": "2023-08-16"
    },
    {
      "code": "DHM",
      "shareholderType": "PERSON",
      "shareholderName": "Trịnh Gia Tùng",
      "roleType": "Cổ đông lớn",
      "enRoleType": "Major Shareholder",
      "numberOfShares": 2327600,
      "ownershipPct": 6.739692745179416,
      "effectiveDate": "2022-08-24"
    },
    {
      "code": "DHM",
      "shareholderType": "PERSON",
      "shareholderName": "Trương Quang Thắng",
      "roleType": "Cổ đông lớn",
      "enRoleType": "Major Shareholder",
      "numberOfShares": 1710000,
      "ownershipPct": 4.951398261839148,
      "effectiveDate": "2021-11-26"
    },
    {
      "code": "DHM",
      "shareholderType": "PERSON",
      "shareholderName": "Lê Thanh Tuấn",
      "roleType": "Cổ đông lớn",
      "enRoleType": "Major Shareholder",
      "numberOfShares": 1567390,
      "ownershipPct": 4.53846322901992,
      "effectiveDate": "2021-06-17"
    },
    {
      "code": "DHM",
      "shareholderType": "PERSON",
      "shareholderName": "Dương Thị Thúy Hà",
      "roleType": "Cổ đông lớn",
      "enRoleType": "Major Shareholder",
      "numberOfShares": 1470230,
      "ownershipPct": 4.257131150002205,
      "effectiveDate": "2025-03-10"
    },
    {
      "code": "DHM",
      "shareholderType": "COMPANY",
      "shareholderName": "CTCP TM và XNK Hưng Nhật",
      "roleType": "Cổ đông lớn",
      "enRoleType": "Major Shareholder",
      "numberOfShares": 1251000,
      "ownershipPct": 3.6223387283981134,
      "effectiveDate": "2020-11-26"
    },
    {
      "code": "DHM",
      "shareholderType": "PERSON",
      "shareholderName": "Tạ Ngọc Phước",
      "roleType": "Cổ đông lớn",
      "enRoleType": "Major Shareholder",
      "numberOfShares": 1237850,
      "ownershipPct": 3.5842621862091164,
      "effectiveDate": "2016-12-22"
    },
    {
      "code": "DHM",
      "shareholderType": "PERSON",
      "shareholderName": "Trần Thị Tường Vi",
      "roleType": "Cổ đông lớn",
      "enRoleType": "Major Shareholder",
      "numberOfShares": 1210830,
      "ownershipPct": 3.50602430256298,
      "effectiveDate": "2016-12-15"
    },
    {
      "code": "DHM",
      "shareholderType": "PERSON",
      "shareholderName": "Trần Thị Lan",
      "roleType": "Cổ đông lớn",
      "enRoleType": "Major Shareholder",
      "numberOfShares": 1110840,
      "ownershipPct": 3.2164978041996486,
      "effectiveDate": "2016-05-12"
    },
    {
      "code": "DHM",
      "shareholderType": "PERSON",
      "shareholderName": "Nguyễn Hữu Hòa",
      "roleType": "Cổ đông lớn",
      "enRoleType": "Major Shareholder",
      "numberOfShares": 1096261,
      "ownershipPct": 3.174283514574296,
      "effectiveDate": "2017-05-08"
    }
  ],
  "currentPage": 1,
  "size": 10,
  "totalElements": 13,
  "totalPages": 2
}