{
  "data": [
    {
      "code": "DHP",
      "shareholderType": "PERSON",
      "shareholderName": "Hoàng Thanh Hải",
      "roleType": "Chủ tịch HĐQT",
      "enRoleType": "Chairman",
      "numberOfShares": 2614181,
      "ownershipPct": 27.540306778196836,
      "effectiveDate": "2023-06-20"
    },
    {
      "code": "DHP",
      "shareholderType": "PERSON",
      "shareholderName": "Nguyễn Thu Hà",
      "roleType": "Vợ của Chủ tịch HĐQT",
      "enRoleType": "Wife of Chairman",
      "numberOfShares": 2006580,
      "ownershipPct": 21.13925117464866,
      "groupPct": 26.201007142706644,
      "effectiveDate": "2022-06-30"
    },
    {
      "code": "DHP",
      "shareholderType": "PERSON",
      "shareholderName": "Nguyễn Quốc Tú",
      "roleType": "Cổ đông lớn",
      "enRoleType": "Major Shareholder",
      "numberOfShares": 663850,
      "ownershipPct": 6.9936368808074,
      "effectiveDate": "2022-10-10"
    },
    {
      "code": "DHP",
      "shareholderType": "PERSON",
      "shareholderName": "Trần Quang Hưng",
      "roleType": "Cổ đông lớn",
      "enRoleType": "Major Shareholder",
      "numberOfShares": 605276,
      "ownershipPct": 6.376561808642886,
      "effectiveDate": "2022-10-07"
    },
    {
      "code": "DHP",
      "shareholderType": "PERSON",
      "shareholderName": "Lê Trung Hiếu",
      "roleType": "Con dâu/rể của Chủ tịch HĐQT",
      "enRoleType": "Child in law of Chairman",
      "numberOfShares": 474500,
      "ownershipPct": 4.998841153789427,
      "groupPct": 26.201007142706644,
      "effectiveDate": "2020-12-31"
    },
    {
      "code": "DHP",
      "shareholderType": "PERSON",
      "shareholderName": "Lê Thị Bích Huệ",
      "roleType": "Phó chủ tịch HĐQT",
      "enRoleType": "Vice-chairman",
      "numberOfShares": 352625,
      "ownershipPct": 3.7148922273024167,
      "effectiveDate": "2020-06-30"
    },
    {
      "code": "DHP",
      "shareholderType": "PERSON",
      "shareholderName": "Phan Quang Huy",
      "roleType": "Nhóm cổ đông lớn",
      "enRoleType": "Major Shareholder Group",
      "numberOfShares": 300000,
      "ownershipPct": 3.160489665198795,
      "groupPct": 3.740302564210615,
      "effectiveDate": "2020-12-31"
    },
    {
      "code": "DHP",
      "shareholderType": "PERSON",
      "shareholderName": "Trần Văn Long",
      "roleType": "Cổ đông lớn",
      "enRoleType": "Major Shareholder",
      "numberOfShares": 265369,
      "ownershipPct": 2.7956532732137966,
      "effectiveDate": "2021-10-29"
    },
    {
      "code": "DHP",
      "shareholderType": "PERSON",
      "shareholderName": "Nguyễn Hữu Thành",
      "roleType": "Cổ đông lớn",
      "enRoleType": "Major Shareholder",
      "numberOfShares": 209776,
      "ownershipPct": 2.209982933355808,
      "effectiveDate": "2022-06-30"
    },
    {
      "code": "DHP",
      "shareholderType": "PERSON",
      "shareholderName": "Mai Văn Minh",
      "roleType": "Thành viên HĐQT",
      "enRoleType": "Board member",
      "numberOfShares": 201394,
      "ownershipPct": 2.1216788521101537,
      "effectiveDate": "2020-06-30"
    }
  ],
  "currentPage": 1,
  "size": 10,
  "totalElements": 14,
  "totalPages": 2
}