{
  "data": [
    {
      "code": "DHT",
      "shareholderType": "COMPANY",
      "shareholderName": "ASKA Pharmaceutical.,Ltd",
      "roleType": "Cổ đông lớn",
      "enRoleType": "Major Shareholder",
      "numberOfShares": 32975239,
      "ownershipPct": 40.04752839012167,
      "effectiveDate": "2025-02-07"
    },
    {
      "code": "DHT",
      "shareholderType": "PERSON",
      "shareholderName": "Trần Thu Thảo",
      "roleType": "Cổ đông lớn",
      "enRoleType": "Major Shareholder",
      "numberOfShares": 7508737,
      "ownershipPct": 9.119156291223758,
      "effectiveDate": "2023-06-23"
    },
    {
      "code": "DHT",
      "shareholderType": "PERSON",
      "shareholderName": "Lê Văn Mạnh",
      "roleType": "Cổ đông lớn",
      "enRoleType": "Major Shareholder",
      "numberOfShares": 5653197,
      "ownershipPct": 6.865653569711827,
      "effectiveDate": "2023-06-23"
    },
    {
      "code": "DHT",
      "shareholderType": "PERSON",
      "shareholderName": "Lê Việt Linh",
      "roleType": "Thành viên HĐQT",
      "enRoleType": "Board member",
      "numberOfShares": 5221986,
      "ownershipPct": 6.341959571174538,
      "groupPct": 6.532422899806243,
      "effectiveDate": "2023-06-23"
    },
    {
      "code": "DHT",
      "shareholderType": "PERSON",
      "shareholderName": "Lê Văn Lớ",
      "roleType": "Chủ tịch HĐQT",
      "enRoleType": "Chairman",
      "numberOfShares": 4619991,
      "ownershipPct": 5.610853062645175,
      "effectiveDate": "2023-06-23"
    },
    {
      "code": "DHT",
      "shareholderType": "PERSON",
      "shareholderName": "Hoàng Văn Tuế",
      "roleType": "Thành viên HĐQT",
      "enRoleType": "Board member",
      "numberOfShares": 3286656,
      "ownershipPct": 3.9915540708761426,
      "effectiveDate": "2023-06-23"
    },
    {
      "code": "DHT",
      "shareholderType": "PERSON",
      "shareholderName": "Lê Xuân Thắng",
      "roleType": "Thành viên HĐQT",
      "enRoleType": "Board member",
      "numberOfShares": 3200481,
      "ownershipPct": 3.886896883735854,
      "effectiveDate": "2023-06-23"
    },
    {
      "code": "DHT",
      "shareholderType": "COMPANY",
      "shareholderName": "Quỹ đầu tư phát triển Hà Nội",
      "roleType": "Cổ đông lớn",
      "enRoleType": "Major Shareholder",
      "numberOfShares": 3097866,
      "ownershipPct": 3.762273764984468,
      "effectiveDate": "2023-06-23"
    },
    {
      "code": "DHT",
      "shareholderType": "PERSON",
      "shareholderName": "Lê Anh Trung",
      "roleType": "Phó chủ tịch HĐQT",
      "enRoleType": "Vice-chairman",
      "numberOfShares": 3065339,
      "ownershipPct": 3.7227706106344574,
      "groupPct": 4.826008564947451,
      "effectiveDate": "2023-06-23"
    },
    {
      "code": "DHT",
      "shareholderType": "PERSON",
      "shareholderName": "Nguyễn Như Hoa",
      "roleType": "Cổ đông lớn",
      "enRoleType": "Major Shareholder",
      "numberOfShares": 2494800,
      "ownershipPct": 3.0298665561658416,
      "effectiveDate": "2023-06-23"
    }
  ],
  "currentPage": 1,
  "size": 10,
  "totalElements": 14,
  "totalPages": 2
}