{
  "data": [
    {
      "code": "DIG",
      "shareholderType": "PERSON",
      "shareholderName": "Nguyễn Hùng Cường",
      "roleType": "Chủ tịch HĐQT",
      "enRoleType": "Chairman",
      "numberOfShares": 63942402,
      "ownershipPct": 8.02861599628134,
      "effectiveDate": "2025-05-29"
    },
    {
      "code": "DIG",
      "shareholderType": "COMPANY",
      "shareholderName": "Chứng khoán Vietcap",
      "roleType": "Cổ đông lớn",
      "enRoleType": "Major Shareholder",
      "numberOfShares": 46193671,
      "ownershipPct": 5.800083111009147,
      "effectiveDate": "2022-07-21"
    },
    {
      "code": "DIG",
      "shareholderType": "PERSON",
      "shareholderName": "Nguyễn Thiện Tuấn",
      "roleType": "Cổ đông lớn",
      "enRoleType": "Major Shareholder",
      "numberOfShares": 43997030,
      "ownershipPct": 5.52427259218179,
      "effectiveDate": "2025-05-29"
    },
    {
      "code": "DIG",
      "shareholderType": "COMPANY",
      "shareholderName": "CTCP Kinh doanh Địa ốc Him Lam",
      "roleType": "Cổ đông lớn",
      "enRoleType": "Major Shareholder",
      "numberOfShares": 30413473,
      "ownershipPct": 3.8187194755409823,
      "effectiveDate": "2022-07-21"
    },
    {
      "code": "DIG",
      "shareholderType": "COMPANY",
      "shareholderName": "CTCP Đầu tư phát triển Thiên Tân",
      "roleType": "Cổ đông lớn",
      "enRoleType": "Major Shareholder",
      "numberOfShares": 30405118,
      "ownershipPct": 3.817670420695515,
      "effectiveDate": "2025-05-29"
    },
    {
      "code": "DIG",
      "shareholderType": "PERSON",
      "shareholderName": "Trương Minh Thuận",
      "roleType": "Cổ đông lớn",
      "enRoleType": "Major Shareholder",
      "numberOfShares": 24897132,
      "ownershipPct": 3.1260870093170423,
      "effectiveDate": "2021-06-08"
    },
    {
      "code": "DIG",
      "shareholderType": "COMPANY",
      "shareholderName": "PYN ELITE FUND (NON - UCITS)",
      "roleType": "Cổ đông lớn",
      "enRoleType": "Major Shareholder",
      "numberOfShares": 18974459,
      "ownershipPct": 2.3824354463284703,
      "effectiveDate": "2022-07-21"
    },
    {
      "code": "DIG",
      "shareholderType": "PERSON",
      "shareholderName": "Lê Thị Hà Thành",
      "roleType": "Mẹ của Chủ tịch HĐQT",
      "enRoleType": "Mother of Chairman",
      "numberOfShares": 16600679,
      "ownershipPct": 2.0843833324955754,
      "effectiveDate": "2025-05-29"
    },
    {
      "code": "DIG",
      "shareholderType": "PERSON",
      "shareholderName": "Lê Thị Hà Thành",
      "roleType": "Nhóm cổ đông lớn",
      "enRoleType": "Major Shareholder Group",
      "numberOfShares": 16600679,
      "ownershipPct": 2.0843833324955754,
      "groupPct": 4.082678625277498,
      "effectiveDate": "2025-05-29"
    },
    {
      "code": "DIG",
      "shareholderType": "COMPANY",
      "shareholderName": "Deutsche Asset Management (Asia) Limited",
      "roleType": "Cổ đông lớn",
      "enRoleType": "Major Shareholder",
      "numberOfShares": 16354336,
      "ownershipPct": 2.0534524745904883,
      "effectiveDate": "2022-07-21"
    }
  ],
  "currentPage": 1,
  "size": 10,
  "totalElements": 14,
  "totalPages": 2
}