{"data":[{"code":"DL1","shareholderType":"PERSON","shareholderName":"Bùi Pháp","roleType":"Bố của Thành viên HĐQT","enRoleType":"Father of Board member","numberOfShares":25509632,"ownershipPct":24.012208129564705,"effectiveDate":"2022-02-09"},{"code":"DL1","shareholderType":"COMPANY","shareholderName":"Công ty TNHH Global Capital","roleType":"Cổ đông lớn","enRoleType":"Major Shareholder","numberOfShares":17898915,"ownershipPct":16.8482427450693,"effectiveDate":"2022-08-08"},{"code":"DL1","shareholderType":"PERSON","shareholderName":"Phạm Thị Hiền","roleType":"Cổ đông lớn","enRoleType":"Major Shareholder","numberOfShares":4996200,"ownershipPct":4.702921400705866,"effectiveDate":"2021-07-05"},{"code":"DL1","shareholderType":"PERSON","shareholderName":"Nguyễn Thị Diễm","roleType":"Cổ đông lớn","enRoleType":"Major Shareholder","numberOfShares":4477800,"ownershipPct":4.214951652872328,"effectiveDate":"2021-08-03"},{"code":"DL1","shareholderType":"COMPANY","shareholderName":"Shine Profit Development Limited","roleType":"Cổ đông lớn","enRoleType":"Major Shareholder","numberOfShares":2940000,"ownershipPct":2.7674210235929797,"effectiveDate":"2022-02-09"},{"code":"DL1","shareholderType":"PERSON","shareholderName":"Vũ Thị Hải","roleType":"Cổ đông lớn","enRoleType":"Major Shareholder","numberOfShares":1651020,"ownershipPct":1.5541045776777147,"effectiveDate":"2022-02-09"},{"code":"DL1","shareholderType":"PERSON","shareholderName":"Vũ Thị Hải","roleType":"Cổ đông lớn","enRoleType":"Major Shareholder","numberOfShares":1572507,"ownershipPct":1.4802003168527638,"effectiveDate":"2017-06-30"},{"code":"DL1","shareholderType":"PERSON","shareholderName":"Trần Văn Phương","roleType":"Cổ đông lớn","enRoleType":"Major Shareholder","numberOfShares":1572268,"ownershipPct":1.4799753462321383,"effectiveDate":"2017-06-30"},{"code":"DL1","shareholderType":"PERSON","shareholderName":"Hoàng Thị Kim Hiếu","roleType":"Cổ đông lớn","enRoleType":"Major Shareholder","numberOfShares":1439920,"ownershipPct":1.3553962177863956,"effectiveDate":"2017-06-30"},{"code":"DL1","shareholderType":"COMPANY","shareholderName":"America LLC","roleType":"Cổ đông lớn","enRoleType":"Major Shareholder","numberOfShares":1252692,"ownershipPct":1.1791585635669173,"effectiveDate":"2022-02-09"}],"currentPage":1,"size":10,"totalElements":11,"totalPages":2}