{"data":[{"code":"DNC","shareholderType":"PERSON","shareholderName":"Nguyễn Trung Kiên","roleType":"Thành viên HĐQT","enRoleType":"Board member","numberOfShares":1596918,"ownershipPct":24.865366666988464,"effectiveDate":"2022-07-25"},{"code":"DNC","shareholderType":"PERSON","shareholderName":"Đỗ Huy Đạt","roleType":"Chủ tịch HĐQT","enRoleType":"Chairman","numberOfShares":1594816,"ownershipPct":24.832636745518478,"effectiveDate":"2022-07-25"},{"code":"DNC","shareholderType":"PERSON","shareholderName":"Lê Hữu Cảnh","roleType":"Thành viên HĐQT","enRoleType":"Board member","numberOfShares":796843,"ownershipPct":12.407520843915021,"effectiveDate":"2022-07-25"},{"code":"DNC","shareholderType":"PERSON","shareholderName":"Lại Thị Dinh","roleType":"Vợ của Thành viên HĐQT","enRoleType":"Wife of Board member","numberOfShares":472808,"ownershipPct":7.362021270400535,"groupPct":7.533300593031298,"effectiveDate":"2024-02-07"},{"code":"DNC","shareholderType":"COMPANY","shareholderName":"Công ty TNHH Hà Nam Xanh","roleType":"Cổ đông lớn","enRoleType":"Major Shareholder","numberOfShares":411703,"ownershipPct":6.410564633186645,"effectiveDate":"2022-07-25"},{"code":"DNC","shareholderType":"COMPANY","shareholderName":"Công ty TNHH Dây cáp điện Thái Dương SUNCO","roleType":"Cổ đông lớn","enRoleType":"Major Shareholder","numberOfShares":406250,"ownershipPct":6.325656801704323,"effectiveDate":"2022-07-25"},{"code":"DNC","shareholderType":"PERSON","shareholderName":"Nguyễn Thị Thu Trang","roleType":"Thành viên BKS","enRoleType":"Control member","numberOfShares":316211,"ownershipPct":4.923673262581478,"effectiveDate":"2022-07-25"},{"code":"DNC","shareholderType":"PERSON","shareholderName":"Vũ Thị Lương Dung","roleType":"Thành viên HĐQT","enRoleType":"Board member","numberOfShares":213340,"ownershipPct":3.321884608186093,"effectiveDate":"2022-07-25"},{"code":"DNC","shareholderType":"PERSON","shareholderName":"Lê Xuân Phòng","roleType":"Cổ đông lớn","enRoleType":"Major Shareholder","numberOfShares":145045,"ownershipPct":2.2584735773617317,"effectiveDate":"2020-12-31"},{"code":"DNC","shareholderType":"PERSON","shareholderName":"Nguyễn Văn Thao","roleType":"Phó TGĐ","enRoleType":"Deputy CEO","numberOfShares":78160,"ownershipPct":1.217017441529132,"effectiveDate":"2022-07-25"}],"currentPage":1,"size":10,"totalElements":11,"totalPages":2}