{"data":[{"code":"DNP","shareholderType":"PERSON","shareholderName":"Vũ Đình Độ","roleType":"Chủ tịch HĐQT","enRoleType":"Chairman","numberOfShares":12780770,"ownershipPct":10.749076061977322,"effectiveDate":"2021-12-30"},{"code":"DNP","shareholderType":"COMPANY","shareholderName":"CAPELLA GROUP CO., LTD","roleType":"Cổ đông lớn","enRoleType":"Major Shareholder","numberOfShares":9705125,"ownershipPct":8.162350689042809,"effectiveDate":"2021-12-30"},{"code":"DNP","shareholderType":"PERSON","shareholderName":"Hoàng Anh Tuấn","roleType":"Thành viên HĐQT","enRoleType":"Board member","numberOfShares":6038524,"ownershipPct":5.078610582779875,"effectiveDate":"2023-06-30"},{"code":"DNP","shareholderType":"PERSON","shareholderName":"Nguyễn Thị Thắm","roleType":"Cổ đông lớn","enRoleType":"Major Shareholder","numberOfShares":5901334,"ownershipPct":4.963228978624361,"effectiveDate":"2022-02-21"},{"code":"DNP","shareholderType":"PERSON","shareholderName":"Phạm Quốc Khánh","roleType":"Cổ đông lớn","enRoleType":"Major Shareholder","numberOfShares":5816190,"ownershipPct":4.891619886823086,"effectiveDate":"2022-01-21"},{"code":"DNP","shareholderType":"PERSON","shareholderName":"Đồng Diễm Nga My","roleType":"Cổ đông lớn","enRoleType":"Major Shareholder","numberOfShares":5587442,"ownershipPct":4.699234791791628,"effectiveDate":"2023-09-07"},{"code":"DNP","shareholderType":"PERSON","shareholderName":"Hoàng Văn Toàn","roleType":"Cổ đông lớn","enRoleType":"Major Shareholder","numberOfShares":5000000,"ownershipPct":4.205175455773526,"effectiveDate":"2023-06-08"},{"code":"DNP","shareholderType":"COMPANY","shareholderName":"CTCP Tập đoàn Capella","roleType":"Cổ đông lớn","enRoleType":"Major Shareholder","numberOfShares":4948806,"ownershipPct":4.162119505316952,"effectiveDate":"2023-06-29"},{"code":"DNP","shareholderType":"PERSON","shareholderName":"Lê Tuấn Điệp","roleType":"Cổ đông lớn","enRoleType":"Major Shareholder","numberOfShares":3596108,"ownershipPct":3.024453019582165,"effectiveDate":"2018-11-23"},{"code":"DNP","shareholderType":"COMPANY","shareholderName":"Đầu tư VSD","roleType":"Cổ đông lớn","enRoleType":"Major Shareholder","numberOfShares":2100000,"ownershipPct":1.7661736914248811,"effectiveDate":"2021-12-08"}],"currentPage":1,"size":10,"totalElements":11,"totalPages":2}