{
  "data": [
    {
      "code": "DPG",
      "shareholderType": "PERSON",
      "shareholderName": "Lương Minh Tuấn",
      "roleType": "Chủ tịch HĐQT",
      "enRoleType": "Chairman",
      "numberOfShares": 16069851,
      "ownershipPct": 15.942465598280746,
      "effectiveDate": "2025-06-11"
    },
    {
      "code": "DPG",
      "shareholderType": "PERSON",
      "shareholderName": "Lương Minh Tuấn",
      "roleType": "Chủ tịch HĐQT",
      "enRoleType": "Chairman",
      "numberOfShares": 16069851,
      "ownershipPct": 15.942465598280746,
      "effectiveDate": "2025-06-11"
    },
    {
      "code": "DPG",
      "shareholderType": "PERSON",
      "shareholderName": "Phạm Kim Châu",
      "roleType": "Phó chủ tịch HĐQT",
      "enRoleType": "Vice-chairman",
      "numberOfShares": 6687161,
      "ownershipPct": 6.6341520025708185,
      "effectiveDate": "2025-06-11"
    },
    {
      "code": "DPG",
      "shareholderType": "PERSON",
      "shareholderName": "Lương Thị Thanh",
      "roleType": "Cổ đông lớn",
      "enRoleType": "Major Shareholder",
      "numberOfShares": 5260500,
      "ownershipPct": 5.218800117048743,
      "effectiveDate": "2025-06-11"
    },
    {
      "code": "DPG",
      "shareholderType": "PERSON",
      "shareholderName": "Trần Anh Tuấn",
      "roleType": "Thành viên HĐQT",
      "enRoleType": "Board member",
      "numberOfShares": 3638733,
      "ownershipPct": 3.6098888330594288,
      "effectiveDate": "2021-07-14"
    },
    {
      "code": "DPG",
      "shareholderType": "PERSON",
      "shareholderName": "Lương Tuấn Minh",
      "roleType": "Anh của Chủ tịch HĐQT",
      "enRoleType": "Elder Brother of Chairman",
      "numberOfShares": 3137299,
      "ownershipPct": 3.1124296907930624,
      "groupPct": 8.570625956011165,
      "effectiveDate": "2025-06-11"
    },
    {
      "code": "DPG",
      "shareholderType": "PERSON",
      "shareholderName": "Trần Thị Thúy Hằng",
      "roleType": "Vợ của Chủ tịch HĐQT",
      "enRoleType": "Wife of Chairman",
      "numberOfShares": 2819600,
      "ownershipPct": 2.797249084693591,
      "groupPct": 8.570625956011165,
      "effectiveDate": "2021-07-14"
    },
    {
      "code": "DPG",
      "shareholderType": "COMPANY",
      "shareholderName": "TMAM VIETNAM EQUITY MOTHER FUND",
      "roleType": "Cổ đông lớn",
      "enRoleType": "Major Shareholder",
      "numberOfShares": 2792000,
      "ownershipPct": 2.7698678693660472,
      "effectiveDate": "2025-06-11"
    },
    {
      "code": "DPG",
      "shareholderType": "COMPANY",
      "shareholderName": "KIM Vietnam Growth Equity Fund",
      "roleType": "Cổ đông lớn",
      "enRoleType": "Major Shareholder",
      "numberOfShares": 1760000,
      "ownershipPct": 1.7460485136404882,
      "effectiveDate": "2025-06-11"
    },
    {
      "code": "DPG",
      "shareholderType": "PERSON",
      "shareholderName": "Võ Thị Phương Lâm",
      "roleType": "Vợ của Phó chủ tịch HĐQT",
      "enRoleType": "Wife of Vice-chairman",
      "numberOfShares": 1432390,
      "ownershipPct": 1.421035471848579,
      "groupPct": 2.2550117346364993,
      "effectiveDate": "2025-06-11"
    }
  ],
  "currentPage": 1,
  "size": 10,
  "totalElements": 11,
  "totalPages": 2
}