{
  "data": [
    {
      "code": "DPM",
      "shareholderType": "COMPANY",
      "shareholderName": "Tập đoàn Dầu khí Việt Nam",
      "roleType": "Cổ đông lớn",
      "enRoleType": "Major Shareholder",
      "numberOfShares": 405192389,
      "ownershipPct": 59.59368702214593,
      "effectiveDate": "2025-08-07"
    },
    {
      "code": "DPM",
      "shareholderType": "COMPANY",
      "shareholderName": "Tổng công ty cổ phần Vật tư Nông nghiệp Nghệ An",
      "roleType": "Cổ đông lớn",
      "enRoleType": "Major Shareholder",
      "numberOfShares": 40797577,
      "ownershipPct": 6.000305289544566,
      "effectiveDate": "2025-08-07"
    },
    {
      "code": "DPM",
      "shareholderType": "PERSON",
      "shareholderName": "Khưu Liêm Sỹ",
      "roleType": "Cổ đông lớn",
      "enRoleType": "Major Shareholder",
      "numberOfShares": 31614959,
      "ownershipPct": 4.649771375305807,
      "effectiveDate": "2025-08-07"
    },
    {
      "code": "DPM",
      "shareholderType": "COMPANY",
      "shareholderName": "Quỹ ETF VanEck Vietnam",
      "roleType": "Cổ đông lớn",
      "enRoleType": "Major Shareholder",
      "numberOfShares": 30634210,
      "ownershipPct": 4.5055276764112495,
      "effectiveDate": "2025-08-07"
    },
    {
      "code": "DPM",
      "shareholderType": "COMPANY",
      "shareholderName": "Deutsche Bank AG, London Branch",
      "roleType": "Cổ đông lớn",
      "enRoleType": "Major Shareholder",
      "numberOfShares": 30418429,
      "ownershipPct": 4.47379167709729,
      "effectiveDate": "2025-08-07"
    },
    {
      "code": "DPM",
      "shareholderType": "COMPANY",
      "shareholderName": "Deutsche Bank AG & Deutsche Asset Management (Asia) Ltd",
      "roleType": "Cổ đông lớn",
      "enRoleType": "Major Shareholder",
      "numberOfShares": 29923867,
      "ownershipPct": 4.4010539509179205,
      "effectiveDate": "2025-08-07"
    },
    {
      "code": "DPM",
      "shareholderType": "COMPANY",
      "shareholderName": "Công ty cổ phần Vật tư Nông nghiệp Nghệ An",
      "roleType": "Cổ đông lớn",
      "enRoleType": "Major Shareholder",
      "numberOfShares": 26750515,
      "ownershipPct": 3.934333076999677,
      "effectiveDate": "2025-08-07"
    },
    {
      "code": "DPM",
      "shareholderType": "COMPANY",
      "shareholderName": "Edgbaston Asian Equity Trust",
      "roleType": "Cổ đông lớn",
      "enRoleType": "Major Shareholder",
      "numberOfShares": 26700006,
      "ownershipPct": 3.9269044637791026,
      "effectiveDate": "2025-08-07"
    },
    {
      "code": "DPM",
      "shareholderType": "COMPANY",
      "shareholderName": "Deutsche Bank Aktiengesellschaf",
      "roleType": "Cổ đông lớn",
      "enRoleType": "Major Shareholder",
      "numberOfShares": 25767385,
      "ownershipPct": 3.7897391924336903,
      "effectiveDate": "2025-08-07"
    },
    {
      "code": "DPM",
      "shareholderType": "COMPANY",
      "shareholderName": "Ngân hàng BIDV",
      "roleType": "Cổ đông lớn",
      "enRoleType": "Major Shareholder",
      "numberOfShares": 24325000,
      "ownershipPct": 3.57760036014324,
      "effectiveDate": "2025-08-07"
    }
  ],
  "currentPage": 1,
  "size": 10,
  "totalElements": 15,
  "totalPages": 2
}