{
  "data": [
    {
      "code": "DSD",
      "shareholderType": "PERSON",
      "shareholderName": "Phạm Phương Long",
      "roleType": "Cổ đông lớn",
      "enRoleType": "Major Shareholder",
      "numberOfShares": 16166700,
      "ownershipPct": 34.32420382165605,
      "effectiveDate": "2024-09-05"
    },
    {
      "code": "DSD",
      "shareholderType": "COMPANY",
      "shareholderName": "CTCP Đầu tư DHC",
      "roleType": "Cổ đông lớn",
      "enRoleType": "Major Shareholder",
      "numberOfShares": 10480000,
      "ownershipPct": 22.25053078556263,
      "effectiveDate": "2022-04-26"
    },
    {
      "code": "DSD",
      "shareholderType": "PERSON",
      "shareholderName": "Trần Thị Hương",
      "roleType": "Chủ tịch HĐQT",
      "enRoleType": "Chairman",
      "numberOfShares": 8273200,
      "ownershipPct": 17.565180467091295,
      "effectiveDate": "2025-07-15"
    },
    {
      "code": "DSD",
      "shareholderType": "PERSON",
      "shareholderName": "Phạm Khắc Dương",
      "roleType": "Thành viên HĐQT",
      "enRoleType": "Board member",
      "numberOfShares": 3728200,
      "ownershipPct": 7.9154989384288745,
      "effectiveDate": "2022-10-05"
    },
    {
      "code": "DSD",
      "shareholderType": "PERSON",
      "shareholderName": "Lê Minh Đức",
      "roleType": "Thành viên HĐQT",
      "enRoleType": "Board member",
      "numberOfShares": 3689200,
      "ownershipPct": 7.832696390658174,
      "groupPct": 12.434182590233545,
      "effectiveDate": "2025-01-03"
    },
    {
      "code": "DSD",
      "shareholderType": "PERSON",
      "shareholderName": "Lê Thành Đạt",
      "roleType": "Con của Chủ tịch HĐQT",
      "enRoleType": "Child of Chairman",
      "numberOfShares": 2000000,
      "ownershipPct": 4.246284501061571,
      "groupPct": 12.434182590233545,
      "effectiveDate": "2025-07-15"
    },
    {
      "code": "DSD",
      "shareholderType": "PERSON",
      "shareholderName": "Lê Thành Đạt",
      "roleType": "Con của Thành viên HĐQT",
      "enRoleType": "Child of Board member",
      "numberOfShares": 2000000,
      "ownershipPct": 4.246284501061571,
      "groupPct": 6.369426751592357,
      "effectiveDate": "2025-07-15"
    },
    {
      "code": "DSD",
      "shareholderType": "PERSON",
      "shareholderName": "Trần Duy Long",
      "roleType": "Cổ đông lớn",
      "enRoleType": "Major Shareholder",
      "numberOfShares": 1555000,
      "ownershipPct": 3.3014861995753715,
      "effectiveDate": "2022-04-26"
    },
    {
      "code": "DSD",
      "shareholderType": "PERSON",
      "shareholderName": "Nguyễn Thị Thu Thủy",
      "roleType": "Chị/em dâu của Thành viên HĐQT",
      "enRoleType": "Sister in law of Board member",
      "numberOfShares": 1555000,
      "ownershipPct": 3.3014861995753715,
      "effectiveDate": "2022-04-26"
    },
    {
      "code": "DSD",
      "shareholderType": "PERSON",
      "shareholderName": "Vũ Văn Hường",
      "roleType": "Cổ đông lớn",
      "enRoleType": "Major Shareholder",
      "numberOfShares": 1554200,
      "ownershipPct": 3.299787685774947,
      "effectiveDate": "2022-06-09"
    }
  ],
  "currentPage": 1,
  "size": 10,
  "totalElements": 12,
  "totalPages": 2
}