{
  "data": [
    {
      "code": "DVP",
      "shareholderType": "COMPANY",
      "shareholderName": "Cảng Hải Phòng",
      "roleType": "Cổ đông lớn",
      "enRoleType": "Major Shareholder",
      "numberOfShares": 20400000,
      "ownershipPct": 51,
      "effectiveDate": "2020-06-30"
    },
    {
      "code": "DVP",
      "shareholderType": "COMPANY",
      "shareholderName": "Công ty cổ phần Vật tư Nông sản",
      "roleType": "Cổ đông lớn",
      "enRoleType": "Major Shareholder",
      "numberOfShares": 7480000,
      "ownershipPct": 18.7,
      "effectiveDate": "2020-06-30"
    },
    {
      "code": "DVP",
      "shareholderType": "COMPANY",
      "shareholderName": "America LLC",
      "roleType": "Cổ đông lớn",
      "enRoleType": "Major Shareholder",
      "numberOfShares": 3211610,
      "ownershipPct": 8.029025,
      "effectiveDate": "2024-09-30"
    },
    {
      "code": "DVP",
      "shareholderType": "COMPANY",
      "shareholderName": "Tổng Công ty Vật tư Nông nghiệp - Công ty cổ phần",
      "roleType": "Cổ đông lớn",
      "enRoleType": "Major Shareholder",
      "numberOfShares": 2000000,
      "ownershipPct": 5,
      "effectiveDate": "2020-06-30"
    },
    {
      "code": "DVP",
      "shareholderType": "COMPANY",
      "shareholderName": "Samarang Unicts - Samarang Asian Properity",
      "roleType": "Cổ đông lớn",
      "enRoleType": "Major Shareholder",
      "numberOfShares": 1962630,
      "ownershipPct": 4.906575,
      "effectiveDate": "2021-07-26"
    },
    {
      "code": "DVP",
      "shareholderType": "COMPANY",
      "shareholderName": "PYN ELITE FUND (NON - UCITS)",
      "roleType": "Cổ đông lớn",
      "enRoleType": "Major Shareholder",
      "numberOfShares": 1958000,
      "ownershipPct": 4.895,
      "effectiveDate": "2020-06-30"
    },
    {
      "code": "DVP",
      "shareholderType": "COMPANY",
      "shareholderName": "Frontaura Global Frontier Fund LLC.",
      "roleType": "Cổ đông lớn",
      "enRoleType": "Major Shareholder",
      "numberOfShares": 1956000,
      "ownershipPct": 4.89,
      "effectiveDate": "2020-06-30"
    },
    {
      "code": "DVP",
      "shareholderType": "COMPANY",
      "shareholderName": "Greystanes Limited",
      "roleType": "Cổ đông lớn",
      "enRoleType": "Major Shareholder",
      "numberOfShares": 620000,
      "ownershipPct": 1.55,
      "effectiveDate": "2020-06-30"
    },
    {
      "code": "DVP",
      "shareholderType": "PERSON",
      "shareholderName": "Nguyễn Thị Thanh",
      "roleType": "Cổ đông lớn",
      "enRoleType": "Major Shareholder",
      "numberOfShares": 557450,
      "ownershipPct": 1.393625,
      "effectiveDate": "2009-12-10"
    },
    {
      "code": "DVP",
      "shareholderType": "COMPANY",
      "shareholderName": "DV Cảng H.Phòng",
      "roleType": "Cổ đông lớn",
      "enRoleType": "Major Shareholder",
      "numberOfShares": 500000,
      "ownershipPct": 1.25,
      "effectiveDate": "2020-06-30"
    }
  ],
  "currentPage": 1,
  "size": 10,
  "totalElements": 11,
  "totalPages": 2
}