{
  "data": [
    {
      "code": "DXG",
      "shareholderType": "PERSON",
      "shareholderName": "Lương Trí Thìn",
      "roleType": "Thành viên HĐQT",
      "enRoleType": "Board member",
      "numberOfShares": 173004503,
      "ownershipPct": 16.97980053746815,
      "effectiveDate": "2025-06-04"
    },
    {
      "code": "DXG",
      "shareholderType": "COMPANY",
      "shareholderName": "Vietnam Enterprise Investments Limited",
      "roleType": "Cổ đông lớn",
      "enRoleType": "Major Shareholder",
      "numberOfShares": 50451523,
      "ownershipPct": 4.951644509226946,
      "effectiveDate": "2025-07-08"
    },
    {
      "code": "DXG",
      "shareholderType": "COMPANY",
      "shareholderName": "Norges Bank",
      "roleType": "Cổ đông lớn",
      "enRoleType": "Major Shareholder",
      "numberOfShares": 36238590,
      "ownershipPct": 3.5566937235101213,
      "effectiveDate": "2025-06-20"
    },
    {
      "code": "DXG",
      "shareholderType": "COMPANY",
      "shareholderName": "Công ty Cổ phần Đầu tư NAV",
      "roleType": "Cổ đông lớn",
      "enRoleType": "Major Shareholder",
      "numberOfShares": 26877939,
      "ownershipPct": 2.637977828116047,
      "effectiveDate": "2021-09-09"
    },
    {
      "code": "DXG",
      "shareholderType": "COMPANY",
      "shareholderName": "Amersham Industries Ltd",
      "roleType": "Cổ đông lớn",
      "enRoleType": "Major Shareholder",
      "numberOfShares": 25105590,
      "ownershipPct": 2.464027832705921,
      "effectiveDate": "2025-06-20"
    },
    {
      "code": "DXG",
      "shareholderType": "COMPANY",
      "shareholderName": "KIM Vietnam Growth Equity Fund",
      "roleType": "Cổ đông lớn",
      "enRoleType": "Major Shareholder",
      "numberOfShares": 23631206,
      "ownershipPct": 2.3193220834247334,
      "effectiveDate": "2021-09-09"
    },
    {
      "code": "DXG",
      "shareholderType": "COMPANY",
      "shareholderName": "CTCP Đầu tư BBC",
      "roleType": "Cổ đông lớn",
      "enRoleType": "Major Shareholder",
      "numberOfShares": 20717520,
      "ownershipPct": 2.0333537632312795,
      "effectiveDate": "2021-09-09"
    },
    {
      "code": "DXG",
      "shareholderType": "COMPANY",
      "shareholderName": "CTBC Vietnam Equity Fund",
      "roleType": "Cổ đông lớn",
      "enRoleType": "Major Shareholder",
      "numberOfShares": 12870000,
      "ownershipPct": 1.2631465027081699,
      "effectiveDate": "2025-06-04"
    },
    {
      "code": "DXG",
      "shareholderType": "COMPANY",
      "shareholderName": "Vietnam Holding LTD",
      "roleType": "Cổ đông lớn",
      "enRoleType": "Major Shareholder",
      "numberOfShares": 12642611,
      "ownershipPct": 1.240829049708612,
      "effectiveDate": "2021-09-09"
    },
    {
      "code": "DXG",
      "shareholderType": "COMPANY",
      "shareholderName": "Wareham Group Limited",
      "roleType": "Cổ đông lớn",
      "enRoleType": "Major Shareholder",
      "numberOfShares": 11263157,
      "ownershipPct": 1.1054403554003918,
      "effectiveDate": "2025-06-20"
    }
  ],
  "currentPage": 1,
  "size": 10,
  "totalElements": 11,
  "totalPages": 2
}