{"data":[{"code":"DXP","shareholderType":"PERSON","shareholderName":"Hoàng Văn Quang","roleType":"Chủ tịch HĐQT","enRoleType":"Chairman","numberOfShares":7805160,"ownershipPct":13.028113290951966,"effectiveDate":"2023-10-03"},{"code":"DXP","shareholderType":"PERSON","shareholderName":"Bùi Tuấn Minh","roleType":"Cổ đông lớn","enRoleType":"Major Shareholder","numberOfShares":5885000,"ownershipPct":9.823046128106576,"effectiveDate":"2023-10-03"},{"code":"DXP","shareholderType":"PERSON","shareholderName":"Nguyễn Văn Thức","roleType":"Phó TGĐ","enRoleType":"Deputy CEO","numberOfShares":5500000,"ownershipPct":9.180416942155679,"effectiveDate":"2023-10-03"},{"code":"DXP","shareholderType":"PERSON","shareholderName":"Trần Phương Thúy","roleType":"Cổ đông lớn","enRoleType":"Major Shareholder","numberOfShares":5498543,"ownershipPct":9.177984966249365,"effectiveDate":"2023-10-03"},{"code":"DXP","shareholderType":"PERSON","shareholderName":"Đỗ Thị Tiến Ninh","roleType":"Cổ đông lớn","enRoleType":"Major Shareholder","numberOfShares":5239722,"ownershipPct":8.74596956745197,"effectiveDate":"2023-10-03"},{"code":"DXP","shareholderType":"PERSON","shareholderName":"Vũ Đình Quân","roleType":"Cổ đông lớn","enRoleType":"Major Shareholder","numberOfShares":2860000,"ownershipPct":4.773816809920953,"effectiveDate":"2023-10-03"},{"code":"DXP","shareholderType":"COMPANY","shareholderName":"Báo Tuổi Trẻ","roleType":"Cổ đông lớn","enRoleType":"Major Shareholder","numberOfShares":2766943,"ownershipPct":4.618489162759829,"effectiveDate":"2023-10-03"},{"code":"DXP","shareholderType":"PERSON","shareholderName":"Nguyễn Thị Kim Anh","roleType":"Cổ đông lớn","enRoleType":"Major Shareholder","numberOfShares":2585000,"ownershipPct":4.314795962813169,"effectiveDate":"2023-10-03"},{"code":"DXP","shareholderType":"COMPANY","shareholderName":"Samarang Unicts - Samarang Asian Properity","roleType":"Cổ đông lớn","enRoleType":"Major Shareholder","numberOfShares":1538400,"ownershipPct":2.5678460770567813,"effectiveDate":"2023-10-03"},{"code":"DXP","shareholderType":"COMPANY","shareholderName":"AFC Vietnam Fund (AVF)","roleType":"Cổ đông lớn","enRoleType":"Major Shareholder","numberOfShares":1531807,"ownershipPct":2.5568412608932114,"effectiveDate":"2023-10-03"}],"currentPage":1,"size":10,"totalElements":12,"totalPages":2}