{"data":[{"code":"EBS","shareholderType":"COMPANY","shareholderName":"Nhà Xuất bản Giáo dục Việt Nam","roleType":"Cổ đông lớn","enRoleType":"Major Shareholder","numberOfShares":2591100,"ownershipPct":26.000483263198625,"effectiveDate":"2016-03-25"},{"code":"EBS","shareholderType":"PERSON","shareholderName":"Tô Thanh Bình","roleType":"Thành viên HĐQT","enRoleType":"Board member","numberOfShares":2590100,"ownershipPct":25.990448728343466,"effectiveDate":"2022-12-31"},{"code":"EBS","shareholderType":"PERSON","shareholderName":"Ngô Phương Anh","roleType":"Thành viên HĐQT","enRoleType":"Board member","numberOfShares":2410200,"ownershipPct":24.18523590790063,"effectiveDate":"2020-06-30"},{"code":"EBS","shareholderType":"COMPANY","shareholderName":"CTCP Đầu tư CMC","roleType":"Cổ đông lớn","enRoleType":"Major Shareholder","numberOfShares":974600,"ownershipPct":9.77965766983651,"effectiveDate":"2022-06-30"},{"code":"EBS","shareholderType":"COMPANY","shareholderName":"PYN ELITE FUND (NON - UCITS)","roleType":"Cổ đông lớn","enRoleType":"Major Shareholder","numberOfShares":765000,"ownershipPct":7.6764191641954955,"effectiveDate":"2014-12-04"},{"code":"EBS","shareholderType":"COMPANY","shareholderName":"Công ty cổ phần Đầu tư Tài chính Thiên Hóa","roleType":"Cổ đông lớn","enRoleType":"Major Shareholder","numberOfShares":500000,"ownershipPct":5.017267427578755,"effectiveDate":"2010-09-01"},{"code":"EBS","shareholderType":"PERSON","shareholderName":"Ngô Thị Thanh Huyền","roleType":"Thành viên HĐQT","enRoleType":"Board member","numberOfShares":432900,"ownershipPct":4.343950138797686,"effectiveDate":"2020-06-30"},{"code":"EBS","shareholderType":"COMPANY","shareholderName":"MeKong Portfolio Investments Limited","roleType":"Cổ đông lớn","enRoleType":"Major Shareholder","numberOfShares":412900,"ownershipPct":4.143259441694536,"effectiveDate":"2014-05-29"},{"code":"EBS","shareholderType":"PERSON","shareholderName":"Lê Thị Tuyết Nhung","roleType":"Vợ của Chủ tịch HĐQT","enRoleType":"Wife of Chairman","numberOfShares":382000,"ownershipPct":3.833192314670169,"effectiveDate":"2020-06-30"},{"code":"EBS","shareholderType":"PERSON","shareholderName":"Lê Thị Tuyết Nhung","roleType":"Cổ đông lớn","enRoleType":"Major Shareholder","numberOfShares":382000,"ownershipPct":3.833192314670169,"effectiveDate":"2020-06-30"}],"currentPage":1,"size":10,"totalElements":12,"totalPages":2}