{
  "data": [
    {
      "code": "ECI",
      "shareholderType": "COMPANY",
      "shareholderName": "Nhà Xuất bản Giáo dục Việt Nam",
      "roleType": "Cổ đông lớn",
      "enRoleType": "Major Shareholder",
      "numberOfShares": 390700,
      "ownershipPct": 22.198863636363637,
      "effectiveDate": "2010-11-23"
    },
    {
      "code": "ECI",
      "shareholderType": "PERSON",
      "shareholderName": "Đinh Thị Khánh Ly",
      "roleType": "Cổ đông lớn",
      "enRoleType": "Major Shareholder",
      "numberOfShares": 335000,
      "ownershipPct": 19.03409090909091,
      "effectiveDate": "2023-10-10"
    },
    {
      "code": "ECI",
      "shareholderType": "PERSON",
      "shareholderName": "Đỗ Thị Thu Trang",
      "roleType": "Cổ đông lớn",
      "enRoleType": "Major Shareholder",
      "numberOfShares": 316251,
      "ownershipPct": 17.968806818181818,
      "effectiveDate": "2025-03-03"
    },
    {
      "code": "ECI",
      "shareholderType": "PERSON",
      "shareholderName": "Sử Duy Bin",
      "roleType": "Cổ đông lớn",
      "enRoleType": "Major Shareholder",
      "numberOfShares": 180000,
      "ownershipPct": 10.227272727272727,
      "effectiveDate": "2023-06-29"
    },
    {
      "code": "ECI",
      "shareholderType": "COMPANY",
      "shareholderName": "Công ty Cổ phần Chứng khoán VINA ",
      "roleType": "Cổ đông lớn",
      "enRoleType": "Major Shareholder",
      "numberOfShares": 158500,
      "ownershipPct": 9.005681818181818,
      "effectiveDate": "2012-06-29"
    },
    {
      "code": "ECI",
      "shareholderType": "PERSON",
      "shareholderName": "Ngô Thị Thanh Huyền",
      "roleType": "Cổ đông lớn",
      "enRoleType": "Major Shareholder",
      "numberOfShares": 149300,
      "ownershipPct": 8.482954545454545,
      "effectiveDate": "2022-01-26"
    },
    {
      "code": "ECI",
      "shareholderType": "PERSON",
      "shareholderName": "Trương Phi Cường",
      "roleType": "Cổ đông lớn",
      "enRoleType": "Major Shareholder",
      "numberOfShares": 120000,
      "ownershipPct": 6.818181818181818,
      "effectiveDate": "2023-06-30"
    },
    {
      "code": "ECI",
      "shareholderType": "COMPANY",
      "shareholderName": "Tranh ảnh Giáo dục",
      "roleType": "Cổ phiếu quỹ",
      "enRoleType": "Treasury Stock",
      "numberOfShares": 100000,
      "ownershipPct": 5.681818181818182,
      "effectiveDate": "2011-12-21"
    },
    {
      "code": "ECI",
      "shareholderType": "COMPANY",
      "shareholderName": "Iwai Cosmo Securities Co.,Ltd",
      "roleType": "Cổ đông lớn",
      "enRoleType": "Major Shareholder",
      "numberOfShares": 86100,
      "ownershipPct": 4.892045454545454,
      "effectiveDate": "2022-01-19"
    },
    {
      "code": "ECI",
      "shareholderType": "PERSON",
      "shareholderName": "Ngô Anh Thư",
      "roleType": "Cổ đông lớn",
      "enRoleType": "Major Shareholder",
      "numberOfShares": 75900,
      "ownershipPct": 4.3125,
      "effectiveDate": "2022-01-21"
    }
  ],
  "currentPage": 1,
  "size": 10,
  "totalElements": 15,
  "totalPages": 2
}