{"data":[{"code":"EFI","shareholderType":"PERSON","shareholderName":"Nguyễn Đình Việt","roleType":"Cổ đông lớn","enRoleType":"Major Shareholder","numberOfShares":2026000,"ownershipPct":18.621323529411764,"effectiveDate":"2020-06-26"},{"code":"EFI","shareholderType":"PERSON","shareholderName":"Nguyễn Sơn Tùng","roleType":"Cổ đông lớn","enRoleType":"Major Shareholder","numberOfShares":1620200,"ownershipPct":14.891544117647058,"effectiveDate":"2022-12-31"},{"code":"EFI","shareholderType":"COMPANY","shareholderName":"Công ty cổ phần Tập đoàn Quốc tế ABC","roleType":"Cổ đông lớn","enRoleType":"Major Shareholder","numberOfShares":975000,"ownershipPct":8.961397058823529,"effectiveDate":"2013-06-18"},{"code":"EFI","shareholderType":"COMPANY","shareholderName":"Đầu tư PVR Hà Nội","roleType":"Cổ đông lớn","enRoleType":"Major Shareholder","numberOfShares":764800,"ownershipPct":7.029411764705882,"effectiveDate":"2015-04-08"},{"code":"EFI","shareholderType":"PERSON","shareholderName":"Bùi Thu Trinh","roleType":"Cổ đông lớn","enRoleType":"Major Shareholder","numberOfShares":571200,"ownershipPct":5.25,"effectiveDate":"2022-09-09"},{"code":"EFI","shareholderType":"COMPANY","shareholderName":"Quỹ đầu tư Chứng khoán Y tế Bản Việt","roleType":"Cổ đông lớn","enRoleType":"Major Shareholder","numberOfShares":520000,"ownershipPct":4.779411764705882,"effectiveDate":"2014-03-11"},{"code":"EFI","shareholderType":"COMPANY","shareholderName":"Chứng khoán SG HN","roleType":"Cổ đông lớn","enRoleType":"Major Shareholder","numberOfShares":508444,"ownershipPct":4.673198529411764,"effectiveDate":"2012-04-19"},{"code":"EFI","shareholderType":"COMPANY","shareholderName":"America LLC","roleType":"Cổ đông lớn","enRoleType":"Major Shareholder","numberOfShares":308500,"ownershipPct":2.8354779411764706,"effectiveDate":"2021-01-22"},{"code":"EFI","shareholderType":"PERSON","shareholderName":"Nguyễn Thị Hồng Điệp","roleType":"Cổ đông lớn","enRoleType":"Major Shareholder","numberOfShares":143100,"ownershipPct":1.3152573529411764,"effectiveDate":"2020-06-30"},{"code":"EFI","shareholderType":"PERSON","shareholderName":"Huỳnh Bá Vân","roleType":"Cổ đông lớn","enRoleType":"Major Shareholder","numberOfShares":119250,"ownershipPct":1.096047794117647,"effectiveDate":"2015-10-14"}],"currentPage":1,"size":10,"totalElements":11,"totalPages":2}