{
  "data": [
    {
      "code": "ELC",
      "shareholderType": "PERSON",
      "shareholderName": "Phan Chiến Thắng",
      "roleType": "Chủ tịch HĐQT",
      "enRoleType": "Chairman",
      "numberOfShares": 6586917,
      "ownershipPct": 5.98322149842628,
      "effectiveDate": "2023-12-06"
    },
    {
      "code": "ELC",
      "shareholderType": "PERSON",
      "shareholderName": "Trần Hùng Giang",
      "roleType": "Thành viên HĐQT",
      "enRoleType": "Board member",
      "numberOfShares": 6017984,
      "ownershipPct": 5.466431601610492,
      "effectiveDate": "2025-10-17"
    },
    {
      "code": "ELC",
      "shareholderType": "PERSON",
      "shareholderName": "Nguyễn Mạnh Hải",
      "roleType": "Thành viên HĐQT",
      "enRoleType": "Board member",
      "numberOfShares": 5867260,
      "ownershipPct": 5.3295215605201305,
      "effectiveDate": "2025-10-17"
    },
    {
      "code": "ELC",
      "shareholderType": "COMPANY",
      "shareholderName": "Vietnam Equity Holding",
      "roleType": "Cổ đông lớn",
      "enRoleType": "Major Shareholder",
      "numberOfShares": 4049152,
      "ownershipPct": 3.678044416954968,
      "effectiveDate": "2023-12-06"
    },
    {
      "code": "ELC",
      "shareholderType": "COMPANY",
      "shareholderName": "Chứng khoán SSI",
      "roleType": "Cổ đông lớn",
      "enRoleType": "Major Shareholder",
      "numberOfShares": 4044353,
      "ownershipPct": 3.673685248626151,
      "effectiveDate": "2023-12-06"
    },
    {
      "code": "ELC",
      "shareholderType": "COMPANY",
      "shareholderName": "Samarang Unicts - Samarang Asian Properity",
      "roleType": "Cổ đông lớn",
      "enRoleType": "Major Shareholder",
      "numberOfShares": 4028094,
      "ownershipPct": 3.6589163972283103,
      "effectiveDate": "2023-12-06"
    },
    {
      "code": "ELC",
      "shareholderType": "COMPANY",
      "shareholderName": "PYN ELITE FUND (NON - UCITS)",
      "roleType": "Cổ đông lớn",
      "enRoleType": "Major Shareholder",
      "numberOfShares": 4024286,
      "ownershipPct": 3.6554574030636644,
      "effectiveDate": "2023-12-06"
    },
    {
      "code": "ELC",
      "shareholderType": "PERSON",
      "shareholderName": "Ngô Ngọc Hà",
      "roleType": "Thành viên HĐQT",
      "enRoleType": "Board member",
      "numberOfShares": 3915727,
      "ownershipPct": 3.556847910542708,
      "effectiveDate": "2023-12-06"
    },
    {
      "code": "ELC",
      "shareholderType": "COMPANY",
      "shareholderName": "Quỹ tầm nhìn SSI",
      "roleType": "Cổ đông lớn",
      "enRoleType": "Major Shareholder",
      "numberOfShares": 3723344,
      "ownershipPct": 3.3820969456327594,
      "effectiveDate": "2023-12-06"
    },
    {
      "code": "ELC",
      "shareholderType": "COMPANY",
      "shareholderName": "Công ty TNHH Đầu tư DT&T",
      "roleType": "Cổ đông lớn",
      "enRoleType": "Major Shareholder",
      "numberOfShares": 2247719,
      "ownershipPct": 2.0417139980997514,
      "effectiveDate": "2023-12-06"
    }
  ],
  "currentPage": 1,
  "size": 10,
  "totalElements": 13,
  "totalPages": 2
}