{
  "data": [
    {
      "code": "EVE",
      "shareholderType": "PERSON",
      "shareholderName": "Lee Jae Eun",
      "roleType": "Thành viên HĐQT",
      "enRoleType": "Board member",
      "numberOfShares": 7567344,
      "ownershipPct": 18.415698894743258,
      "groupPct": 25.36383770877944,
      "effectiveDate": "2023-06-30"
    },
    {
      "code": "EVE",
      "shareholderType": "PERSON",
      "shareholderName": "Lee Jae Eun",
      "roleType": "Thành viên HĐQT",
      "enRoleType": "Board member",
      "numberOfShares": 7567344,
      "ownershipPct": 18.415698894743258,
      "effectiveDate": "2023-06-30"
    },
    {
      "code": "EVE",
      "shareholderType": "COMPANY",
      "shareholderName": "AFC VF Limited",
      "roleType": "Cổ đông lớn",
      "enRoleType": "Major Shareholder",
      "numberOfShares": 5100400,
      "ownershipPct": 12.412205741241381,
      "effectiveDate": "2025-05-19"
    },
    {
      "code": "EVE",
      "shareholderType": "COMPANY",
      "shareholderName": "NH Investment & Securities Co., Ltd",
      "roleType": "Cổ đông lớn",
      "enRoleType": "Major Shareholder",
      "numberOfShares": 2982510,
      "ownershipPct": 7.258161662871506,
      "effectiveDate": "2024-08-12"
    },
    {
      "code": "EVE",
      "shareholderType": "COMPANY",
      "shareholderName": "AFC Vietnam Fund (AVF)",
      "roleType": "Cổ đông lớn",
      "enRoleType": "Major Shareholder",
      "numberOfShares": 2671430,
      "ownershipPct": 6.501125163384139,
      "effectiveDate": "2021-09-28"
    },
    {
      "code": "EVE",
      "shareholderType": "COMPANY",
      "shareholderName": "Chứng khoán Agribank",
      "roleType": "Cổ đông lớn",
      "enRoleType": "Major Shareholder",
      "numberOfShares": 2484000,
      "ownershipPct": 6.045000208070659,
      "effectiveDate": "2020-06-30"
    },
    {
      "code": "EVE",
      "shareholderType": "COMPANY",
      "shareholderName": "Procimex Việt Nam",
      "roleType": "Cổ đông lớn",
      "enRoleType": "Major Shareholder",
      "numberOfShares": 2458679,
      "ownershipPct": 5.983379656432754,
      "effectiveDate": "2012-05-22"
    },
    {
      "code": "EVE",
      "shareholderType": "COMPANY",
      "shareholderName": "Korea Investment & Securities Co. Ltd",
      "roleType": "Cổ đông lớn",
      "enRoleType": "Major Shareholder",
      "numberOfShares": 2159865,
      "ownershipPct": 5.2561933874414395,
      "effectiveDate": "2023-12-31"
    },
    {
      "code": "EVE",
      "shareholderType": "PERSON",
      "shareholderName": "Nguyễn Mạnh Hải",
      "roleType": "Cổ đông lớn",
      "enRoleType": "Major Shareholder",
      "numberOfShares": 2141565,
      "ownershipPct": 5.211658965618696,
      "effectiveDate": "2016-09-16"
    },
    {
      "code": "EVE",
      "shareholderType": "COMPANY",
      "shareholderName": "America LLC",
      "roleType": "Cổ đông lớn",
      "enRoleType": "Major Shareholder",
      "numberOfShares": 2093100,
      "ownershipPct": 5.0937157550373175,
      "effectiveDate": "2023-01-30"
    }
  ],
  "currentPage": 1,
  "size": 10,
  "totalElements": 22,
  "totalPages": 3
}