{
  "data": [
    {
      "code": "EVS",
      "shareholderType": "PERSON",
      "shareholderName": "Vũ Mạnh Tiến",
      "roleType": "Thành viên HĐQT",
      "enRoleType": "Board member",
      "numberOfShares": 16000000,
      "ownershipPct": 9.708701456447208,
      "effectiveDate": "2023-07-31"
    },
    {
      "code": "EVS",
      "shareholderType": "PERSON",
      "shareholderName": "Nguyễn Hải Châu",
      "roleType": "Chủ tịch HĐQT",
      "enRoleType": "Chairman",
      "numberOfShares": 8651560,
      "ownershipPct": 5.249713323283776,
      "effectiveDate": "2025-05-27"
    },
    {
      "code": "EVS",
      "shareholderType": "PERSON",
      "shareholderName": "Nguyễn Hồng Tuấn",
      "roleType": "Cổ đông lớn",
      "enRoleType": "Major Shareholder",
      "numberOfShares": 8200000,
      "ownershipPct": 4.975709496429194,
      "effectiveDate": "2023-12-13"
    },
    {
      "code": "EVS",
      "shareholderType": "PERSON",
      "shareholderName": "Vũ Hải Anh",
      "roleType": "Thành viên HĐQT",
      "enRoleType": "Board member",
      "numberOfShares": 8010400,
      "ownershipPct": 4.860661384170295,
      "effectiveDate": "2023-07-31"
    },
    {
      "code": "EVS",
      "shareholderType": "COMPANY",
      "shareholderName": "Quỹ Đầu tư Khám phá Giá trị Việt Nam (VVDIF)",
      "roleType": "Cổ đông lớn",
      "enRoleType": "Major Shareholder",
      "numberOfShares": 7831521,
      "ownershipPct": 4.752118708681056,
      "effectiveDate": "2023-07-31"
    },
    {
      "code": "EVS",
      "shareholderType": "PERSON",
      "shareholderName": "Phạm Ninh Hải",
      "roleType": "Cổ đông lớn",
      "enRoleType": "Major Shareholder",
      "numberOfShares": 7200000,
      "ownershipPct": 4.368915655401244,
      "effectiveDate": "2023-07-31"
    },
    {
      "code": "EVS",
      "shareholderType": "COMPANY",
      "shareholderName": "MBV Bank",
      "roleType": "Cổ đông lớn",
      "enRoleType": "Major Shareholder",
      "numberOfShares": 5280000,
      "ownershipPct": 3.2038714806275785,
      "effectiveDate": "2023-07-31"
    },
    {
      "code": "EVS",
      "shareholderType": "COMPANY",
      "shareholderName": "Quỹ Đầu tư Giá trị Việt Nam (VVIF2020)",
      "roleType": "Cổ đông lớn",
      "enRoleType": "Major Shareholder",
      "numberOfShares": 5218017,
      "ownershipPct": 3.166260577979143,
      "effectiveDate": "2023-09-21"
    },
    {
      "code": "EVS",
      "shareholderType": "PERSON",
      "shareholderName": "Trần Đình Lợi",
      "roleType": "Cổ đông lớn",
      "enRoleType": "Major Shareholder",
      "numberOfShares": 4800000,
      "ownershipPct": 2.9126104369341625,
      "effectiveDate": "2023-07-31"
    },
    {
      "code": "EVS",
      "shareholderType": "PERSON",
      "shareholderName": "Bùi Việt Anh",
      "roleType": "Cổ đông lớn",
      "enRoleType": "Major Shareholder",
      "numberOfShares": 4493600,
      "ownershipPct": 2.7266888040431985,
      "effectiveDate": "2023-07-31"
    }
  ],
  "currentPage": 1,
  "size": 10,
  "totalElements": 11,
  "totalPages": 2
}