{
  "data": [
    {
      "code": "FDC",
      "shareholderType": "COMPANY",
      "shareholderName": "Công ty TNHH MTV Quản lý Quỹ Ngân hàng TMCP Công thương Việt Nam",
      "roleType": "Cổ đông lớn",
      "enRoleType": "Major Shareholder",
      "numberOfShares": 7000000,
      "ownershipPct": 18.12368680943575,
      "effectiveDate": "2024-11-20"
    },
    {
      "code": "FDC",
      "shareholderType": "COMPANY",
      "shareholderName": "Công ty CPĐT Hưng Phúc",
      "roleType": "Cổ đông lớn",
      "enRoleType": "Major Shareholder",
      "numberOfShares": 1998215,
      "ownershipPct": 5.173574691130951,
      "effectiveDate": "2020-06-30"
    },
    {
      "code": "FDC",
      "shareholderType": "PERSON",
      "shareholderName": "Bùi Thị Vân Nga",
      "roleType": "Cổ đông lớn",
      "enRoleType": "Major Shareholder",
      "numberOfShares": 1850000,
      "ownershipPct": 4.789831513922305,
      "effectiveDate": "2024-06-11"
    },
    {
      "code": "FDC",
      "shareholderType": "PERSON",
      "shareholderName": "Hồ Anh Tuấn",
      "roleType": "Thành viên HĐQT",
      "enRoleType": "Board member",
      "numberOfShares": 1850000,
      "ownershipPct": 4.789831513922305,
      "effectiveDate": "2024-06-07"
    },
    {
      "code": "FDC",
      "shareholderType": "PERSON",
      "shareholderName": "Lê Thu Hiền",
      "roleType": "Cổ đông lớn",
      "enRoleType": "Major Shareholder",
      "numberOfShares": 1685664,
      "ownershipPct": 4.3643494859915295,
      "effectiveDate": "2024-06-20"
    },
    {
      "code": "FDC",
      "shareholderType": "PERSON",
      "shareholderName": "Nguyễn Tuấn Anh",
      "roleType": "Cổ đông lớn",
      "enRoleType": "Major Shareholder",
      "numberOfShares": 1655964,
      "ownershipPct": 4.287453271957209,
      "effectiveDate": "2024-06-20"
    },
    {
      "code": "FDC",
      "shareholderType": "COMPANY",
      "shareholderName": "CTCP QLQ Pavo Capital",
      "roleType": "Cổ đông lớn",
      "enRoleType": "Major Shareholder",
      "numberOfShares": 1530000,
      "ownershipPct": 3.9613201169195285,
      "effectiveDate": "2020-06-30"
    },
    {
      "code": "FDC",
      "shareholderType": "COMPANY",
      "shareholderName": "Công ty Cổ phần Chứng khoán EuroCapital",
      "roleType": "Cổ đông lớn",
      "enRoleType": "Major Shareholder",
      "numberOfShares": 1512557,
      "ownershipPct": 3.91615847848853,
      "effectiveDate": "2020-06-30"
    },
    {
      "code": "FDC",
      "shareholderType": "PERSON",
      "shareholderName": "Lê Ngân Nhi",
      "roleType": "Cổ đông lớn",
      "enRoleType": "Major Shareholder",
      "numberOfShares": 1350000,
      "ownershipPct": 3.4952824561054663,
      "effectiveDate": "2024-07-24"
    },
    {
      "code": "FDC",
      "shareholderType": "PERSON",
      "shareholderName": "Lê Thị Mỹ Linh",
      "roleType": "Cổ đông lớn",
      "enRoleType": "Major Shareholder",
      "numberOfShares": 1230000,
      "ownershipPct": 3.1845906822294245,
      "effectiveDate": "2023-02-27"
    }
  ],
  "currentPage": 1,
  "size": 10,
  "totalElements": 14,
  "totalPages": 2
}