{
  "data": [
    {
      "code": "FID",
      "shareholderType": "PERSON",
      "shareholderName": "Nguyễn Thị Lộc",
      "roleType": "Cổ đông lớn",
      "enRoleType": "Major Shareholder",
      "numberOfShares": 1170600,
      "ownershipPct": 4.736211317400685,
      "effectiveDate": "2021-11-30"
    },
    {
      "code": "FID",
      "shareholderType": "PERSON",
      "shareholderName": "Nguyễn Thị Thu",
      "roleType": "Cổ đông lớn",
      "enRoleType": "Major Shareholder",
      "numberOfShares": 1076100,
      "ownershipPct": 4.353867246416263,
      "effectiveDate": "2025-03-14"
    },
    {
      "code": "FID",
      "shareholderType": "COMPANY",
      "shareholderName": "Công ty cổ phần Finway",
      "roleType": "Cổ đông lớn",
      "enRoleType": "Major Shareholder",
      "numberOfShares": 1070000,
      "ownershipPct": 4.329186835484993,
      "effectiveDate": "2020-06-30"
    },
    {
      "code": "FID",
      "shareholderType": "PERSON",
      "shareholderName": "Lê Thị Nhung",
      "roleType": "Cổ đông lớn",
      "enRoleType": "Major Shareholder",
      "numberOfShares": 1011000,
      "ownershipPct": 4.090474664182549,
      "effectiveDate": "2016-05-24"
    },
    {
      "code": "FID",
      "shareholderType": "PERSON",
      "shareholderName": "Hoàng Ngọc Chiến",
      "roleType": "Cổ đông lớn",
      "enRoleType": "Major Shareholder",
      "numberOfShares": 1000000,
      "ownershipPct": 4.045969005126162,
      "effectiveDate": "2016-06-22"
    },
    {
      "code": "FID",
      "shareholderType": "PERSON",
      "shareholderName": "Lê Đức Tự",
      "roleType": "Cổ đông lớn",
      "enRoleType": "Major Shareholder",
      "numberOfShares": 1000000,
      "ownershipPct": 4.045969005126162,
      "effectiveDate": "2016-06-20"
    },
    {
      "code": "FID",
      "shareholderType": "PERSON",
      "shareholderName": "Nguyễn Đức Quang",
      "roleType": "Cổ đông lớn",
      "enRoleType": "Major Shareholder",
      "numberOfShares": 1000000,
      "ownershipPct": 4.045969005126162,
      "effectiveDate": "2016-07-01"
    },
    {
      "code": "FID",
      "shareholderType": "PERSON",
      "shareholderName": "Bùi Đình Như",
      "roleType": "Cổ đông lớn",
      "enRoleType": "Major Shareholder",
      "numberOfShares": 1000000,
      "ownershipPct": 4.045969005126162,
      "effectiveDate": "2016-06-24"
    },
    {
      "code": "FID",
      "shareholderType": "PERSON",
      "shareholderName": "Nguyễn Ngọc Hà",
      "roleType": "Cổ đông lớn",
      "enRoleType": "Major Shareholder",
      "numberOfShares": 990200,
      "ownershipPct": 4.006318508875926,
      "effectiveDate": "2020-09-07"
    },
    {
      "code": "FID",
      "shareholderType": "PERSON",
      "shareholderName": "Trần Quốc Bình",
      "roleType": "Cổ đông lớn",
      "enRoleType": "Major Shareholder",
      "numberOfShares": 671900,
      "ownershipPct": 2.718486574544268,
      "effectiveDate": "2018-09-28"
    }
  ],
  "currentPage": 1,
  "size": 10,
  "totalElements": 13,
  "totalPages": 2
}