{"data":[{"code":"FPT","shareholderType":"PERSON","shareholderName":"Trương Gia Bình","roleType":"Chủ tịch HĐQT","enRoleType":"Chairman","numberOfShares":88731923,"ownershipPct":6.07566438449445,"effectiveDate":"2023-07-05"},{"code":"FPT","shareholderType":"COMPANY","shareholderName":"SCIC","roleType":"Cổ đông lớn","enRoleType":"Major Shareholder","numberOfShares":73032619,"ownershipPct":5.000699490809556,"effectiveDate":"2023-07-05"},{"code":"FPT","shareholderType":"COMPANY","shareholderName":"Macquarie Bank Limited","roleType":"Cổ đông lớn","enRoleType":"Major Shareholder","numberOfShares":58838048,"ownershipPct":4.028766881190831,"effectiveDate":"2023-07-05"},{"code":"FPT","shareholderType":"COMPANY","shareholderName":"Red River Holding","roleType":"Cổ đông lớn","enRoleType":"Major Shareholder","numberOfShares":55866327,"ownershipPct":3.825286793868095,"effectiveDate":"2023-07-05"},{"code":"FPT","shareholderType":"COMPANY","shareholderName":"Deutsche Bank AG, London Branch","roleType":"Cổ đông lớn","enRoleType":"Major Shareholder","numberOfShares":52693619,"ownershipPct":3.6080446971539213,"effectiveDate":"2023-07-05"},{"code":"FPT","shareholderType":"COMPANY","shareholderName":"Japan Asia Securities Co.,LTD","roleType":"Cổ đông lớn","enRoleType":"Major Shareholder","numberOfShares":28967343,"ownershipPct":1.9834558773006037,"effectiveDate":"2023-07-05"},{"code":"FPT","shareholderType":"COMPANY","shareholderName":"Orchid Fund Private Limited","roleType":"Cổ đông lớn","enRoleType":"Major Shareholder","numberOfShares":27455985,"ownershipPct":1.8799699653270656,"effectiveDate":"2023-07-05"},{"code":"FPT","shareholderType":"PERSON","shareholderName":"Bùi Quang Ngọc","roleType":"Phó chủ tịch HĐQT","enRoleType":"Vice-chairman","numberOfShares":23961493,"ownershipPct":1.6406946304929408,"effectiveDate":"2024-06-12"},{"code":"FPT","shareholderType":"COMPANY","shareholderName":"Vietnam Equity Holding","roleType":"Cổ đông lớn","enRoleType":"Major Shareholder","numberOfShares":19950931,"ownershipPct":1.3660828799372042,"effectiveDate":"2023-07-05"},{"code":"FPT","shareholderType":"PERSON","shareholderName":"Trương Thị Thanh Thanh","roleType":"Chị của Chủ tịch HĐQT","enRoleType":"Elder Sister of Chairman","numberOfShares":18976058,"ownershipPct":1.2993312423613426,"groupPct":1.3241164441379047,"effectiveDate":"2023-07-05"}],"currentPage":1,"size":10,"totalElements":11,"totalPages":2}