{"data":[{"code":"FTM","shareholderType":"PERSON","shareholderName":"Lê Thùy Anh","roleType":"Con của Chủ tịch HĐQT","enRoleType":"Child of Chairman","numberOfShares":10766500,"ownershipPct":21.533,"groupPct":21.793,"effectiveDate":"2020-06-30"},{"code":"FTM","shareholderType":"PERSON","shareholderName":"Lê Quốc Quân","roleType":"Cổ đông lớn","enRoleType":"Major Shareholder","numberOfShares":5781990,"ownershipPct":11.56398,"effectiveDate":"2019-09-27"},{"code":"FTM","shareholderType":"PERSON","shareholderName":"Lê Mạnh Thường","roleType":"Chủ tịch HĐQT","enRoleType":"Chairman","numberOfShares":5100000,"ownershipPct":10.2,"effectiveDate":"2018-09-13"},{"code":"FTM","shareholderType":"PERSON","shareholderName":"Lâm Văn Đỉnh","roleType":"Cổ đông lớn","enRoleType":"Major Shareholder","numberOfShares":3879650,"ownershipPct":7.7593,"effectiveDate":"2019-09-27"},{"code":"FTM","shareholderType":"PERSON","shareholderName":"Phạm Thị Phương","roleType":"Cổ đông lớn","enRoleType":"Major Shareholder","numberOfShares":3673100,"ownershipPct":7.3462,"effectiveDate":"2018-09-26"},{"code":"FTM","shareholderType":"PERSON","shareholderName":"Nguyễn Thanh Hà","roleType":"Cổ đông lớn","enRoleType":"Major Shareholder","numberOfShares":2535850,"ownershipPct":5.0717,"effectiveDate":"2019-04-08"},{"code":"FTM","shareholderType":"PERSON","shareholderName":"Nguyễn Thị Ngọc Huyền","roleType":"Cổ đông lớn","enRoleType":"Major Shareholder","numberOfShares":2499640,"ownershipPct":4.99928,"effectiveDate":"2018-12-04"},{"code":"FTM","shareholderType":"PERSON","shareholderName":"Nguyễn Thị Hà Thu","roleType":"Cổ đông lớn","enRoleType":"Major Shareholder","numberOfShares":2329020,"ownershipPct":4.65804,"effectiveDate":"2018-10-01"},{"code":"FTM","shareholderType":"PERSON","shareholderName":"Phạm Đình Giá","roleType":"Cổ đông lớn","enRoleType":"Major Shareholder","numberOfShares":2003790,"ownershipPct":4.00758,"effectiveDate":"2019-10-09"},{"code":"FTM","shareholderType":"PERSON","shareholderName":"Nguyễn Chí Cường","roleType":"Cổ đông lớn","enRoleType":"Major Shareholder","numberOfShares":1842140,"ownershipPct":3.68428,"effectiveDate":"2019-10-09"}],"currentPage":1,"size":10,"totalElements":13,"totalPages":2}