{
  "data": [
    {
      "code": "FTS",
      "shareholderType": "COMPANY",
      "shareholderName": "SBI Financial Services",
      "roleType": "Cổ đông lớn",
      "enRoleType": "Major Shareholder",
      "numberOfShares": 57675624,
      "ownershipPct": 16.645297376008877,
      "effectiveDate": "2025-05-14"
    },
    {
      "code": "FTS",
      "shareholderType": "COMPANY",
      "shareholderName": "Công ty TNHH Dịch vụ Tài chính SBI",
      "roleType": "Cổ đông lớn",
      "enRoleType": "Major Shareholder",
      "numberOfShares": 52432386,
      "ownershipPct": 15.132088681063676,
      "effectiveDate": "2023-05-11"
    },
    {
      "code": "FTS",
      "shareholderType": "COMPANY",
      "shareholderName": "CTCP FPT",
      "roleType": "Cổ đông lớn",
      "enRoleType": "Major Shareholder",
      "numberOfShares": 38413103,
      "ownershipPct": 11.086096312893964,
      "effectiveDate": "2023-05-11"
    },
    {
      "code": "FTS",
      "shareholderType": "COMPANY",
      "shareholderName": "Vietnam Enterprise Investments Limited",
      "roleType": "Cổ đông lớn",
      "enRoleType": "Major Shareholder",
      "numberOfShares": 11708001,
      "ownershipPct": 3.378951883097256,
      "effectiveDate": "2023-05-11"
    },
    {
      "code": "FTS",
      "shareholderType": "COMPANY",
      "shareholderName": "CTBC Vietnam Equity Fund",
      "roleType": "Cổ đông lớn",
      "enRoleType": "Major Shareholder",
      "numberOfShares": 10455865,
      "ownershipPct": 3.017582995693346,
      "effectiveDate": "2023-05-11"
    },
    {
      "code": "FTS",
      "shareholderType": "PERSON",
      "shareholderName": "Phạm Thanh Hào",
      "roleType": "Nhóm cổ đông lớn",
      "enRoleType": "Major Shareholder Group",
      "numberOfShares": 9487368,
      "ownershipPct": 2.738072875910811,
      "groupPct": 4.676205513203973,
      "effectiveDate": "2023-05-11"
    },
    {
      "code": "FTS",
      "shareholderType": "PERSON",
      "shareholderName": "Nguyễn Thị Minh",
      "roleType": "Cổ đông lớn",
      "enRoleType": "Major Shareholder",
      "numberOfShares": 6825590,
      "ownershipPct": 1.969878562852002,
      "effectiveDate": "2025-05-14"
    },
    {
      "code": "FTS",
      "shareholderType": "COMPANY",
      "shareholderName": "DC Developing Markets Strategies Public Limited Company",
      "roleType": "Cổ đông lớn",
      "enRoleType": "Major Shareholder",
      "numberOfShares": 6782050,
      "ownershipPct": 1.9573128340832688,
      "effectiveDate": "2023-05-11"
    },
    {
      "code": "FTS",
      "shareholderType": "COMPANY",
      "shareholderName": "Wareham Group Limited",
      "roleType": "Cổ đông lớn",
      "enRoleType": "Major Shareholder",
      "numberOfShares": 6777206,
      "ownershipPct": 1.9559148462524065,
      "effectiveDate": "2023-05-11"
    },
    {
      "code": "FTS",
      "shareholderType": "COMPANY",
      "shareholderName": "Hanoi Investments Holdings Limited",
      "roleType": "Cổ đông lớn",
      "enRoleType": "Major Shareholder",
      "numberOfShares": 6477461,
      "ownershipPct": 1.869407855673999,
      "effectiveDate": "2023-05-11"
    }
  ],
  "currentPage": 1,
  "size": 10,
  "totalElements": 14,
  "totalPages": 2
}