{"data":[{"code":"GEX","shareholderType":"PERSON","shareholderName":"Nguyễn Văn Tuấn","roleType":"Thành viên HĐQT","enRoleType":"Board member","numberOfShares":202275993,"ownershipPct":23.75537197751017,"effectiveDate":"2022-05-24"},{"code":"GEX","shareholderType":"COMPANY","shareholderName":"CHỨNG KHOÁN VIX","roleType":"Cổ đông lớn","enRoleType":"Major Shareholder","numberOfShares":30000000,"ownershipPct":3.5232117699963785,"effectiveDate":"2023-01-17"},{"code":"GEX","shareholderType":"COMPANY","shareholderName":"CTCP đầu tư nước sạch và môi trường ECO & MORE","roleType":"Cổ đông lớn","enRoleType":"Major Shareholder","numberOfShares":26358979,"ownershipPct":3.0956088352629125,"effectiveDate":"2021-11-29"},{"code":"GEX","shareholderType":"PERSON","shareholderName":"Đào Thị Lơ","roleType":"Mẹ của Thành viên HĐQT","enRoleType":"Mother of Board member","numberOfShares":26159999,"ownershipPct":3.0722405459964497,"effectiveDate":"2022-06-30"},{"code":"GEX","shareholderType":"COMPANY","shareholderName":"CTCP MHC","roleType":"Cổ đông lớn","enRoleType":"Major Shareholder","numberOfShares":24632458,"ownershipPct":2.892845531651382,"effectiveDate":"2021-11-29"},{"code":"GEX","shareholderType":"COMPANY","shareholderName":"Công ty TNHH MTV Quản lý Quỹ Ngân hàng TMCP Công thương Việt Nam","roleType":"Cổ đông lớn","enRoleType":"Major Shareholder","numberOfShares":19591077,"ownershipPct":2.3007837691101782,"effectiveDate":"2021-11-29"},{"code":"GEX","shareholderType":"COMPANY","shareholderName":"Vietnam Enterprise Investments Limited","roleType":"Cổ đông lớn","enRoleType":"Major Shareholder","numberOfShares":19582385,"ownershipPct":2.2997629772200177,"effectiveDate":"2024-02-02"},{"code":"GEX","shareholderType":"COMPANY","shareholderName":"KIM Vietnam Growth Equity Fund","roleType":"Cổ đông lớn","enRoleType":"Major Shareholder","numberOfShares":19153638,"ownershipPct":2.24941076132833,"effectiveDate":"2021-11-29"},{"code":"GEX","shareholderType":"COMPANY","shareholderName":"Công ty Cổ phần Quản lý Quỹ Đầu tư MB","roleType":"Cổ đông lớn","enRoleType":"Major Shareholder","numberOfShares":13611456,"ownershipPct":1.598534732866261,"effectiveDate":"2019-12-09"},{"code":"GEX","shareholderType":"COMPANY","shareholderName":"Amersham Industries Ltd","roleType":"Cổ đông lớn","enRoleType":"Major Shareholder","numberOfShares":12531883,"ownershipPct":1.4717492561939176,"effectiveDate":"2024-02-16"}],"currentPage":1,"size":10,"totalElements":13,"totalPages":2}