{"data":[{"code":"GLT","shareholderType":"COMPANY","shareholderName":"C.nghệ Tiên Phong","roleType":"Cổ đông lớn","enRoleType":"Major Shareholder","numberOfShares":4510118,"ownershipPct":48.23169687075377,"effectiveDate":"2023-03-22"},{"code":"GLT","shareholderType":"COMPANY","shareholderName":"KT điện Toàn cầu","roleType":"Cổ phiếu quỹ","enRoleType":"Treasury Stock","numberOfShares":1105150,"ownershipPct":11.818595388571547,"effectiveDate":"2016-02-05"},{"code":"GLT","shareholderType":"COMPANY","shareholderName":"Công ty CP Đầu tư Tánh Linh","roleType":"Cổ đông lớn","enRoleType":"Major Shareholder","numberOfShares":993410,"ownershipPct":10.623635565272462,"effectiveDate":"2023-06-30"},{"code":"GLT","shareholderType":"PERSON","shareholderName":"Võ Hùng Vĩ","roleType":"Cổ đông lớn","enRoleType":"Major Shareholder","numberOfShares":495105,"ownershipPct":5.2947072070386065,"effectiveDate":"2023-03-22"},{"code":"GLT","shareholderType":"COMPANY","shareholderName":"RichLuck International Limited","roleType":"Cổ đông lớn","enRoleType":"Major Shareholder","numberOfShares":392955,"ownershipPct":4.202303896227781,"effectiveDate":"2023-03-22"},{"code":"GLT","shareholderType":"COMPANY","shareholderName":"Vietnam Infrastructure Investment Ltd","roleType":"Cổ đông lớn","enRoleType":"Major Shareholder","numberOfShares":364100,"ownershipPct":3.893725359434376,"effectiveDate":"2023-03-22"},{"code":"GLT","shareholderType":"COMPANY","shareholderName":"America LLC","roleType":"Cổ đông lớn","enRoleType":"Major Shareholder","numberOfShares":281908,"ownershipPct":3.0147550909844165,"effectiveDate":"2023-03-22"},{"code":"GLT","shareholderType":"PERSON","shareholderName":"Nguyễn Hương Giang","roleType":"Phó TGĐ","enRoleType":"Deputy CEO","numberOfShares":201701,"ownershipPct":2.1570126303852595,"effectiveDate":"2023-07-10"},{"code":"GLT","shareholderType":"PERSON","shareholderName":"Tạ Huy Phong","roleType":"Phó TGĐ","enRoleType":"Deputy CEO","numberOfShares":131863,"ownershipPct":1.4101573937684566,"effectiveDate":"2023-03-22"},{"code":"GLT","shareholderType":"PERSON","shareholderName":"Nguyễn Ngọc Duy","roleType":"GĐ Kinh doanh","enRoleType":"CMO","numberOfShares":110290,"ownershipPct":1.1794533641637388,"effectiveDate":"2023-07-10"}],"currentPage":1,"size":10,"totalElements":12,"totalPages":2}