{
  "data": [
    {
      "code": "GMC",
      "shareholderType": "COMPANY",
      "shareholderName": "Công ty TNHH Đầu tư và Thương mại Thiên Hải",
      "roleType": "Cổ đông lớn",
      "enRoleType": "Major Shareholder",
      "numberOfShares": 5224705,
      "ownershipPct": 15.832315134253946,
      "effectiveDate": "2021-08-31"
    },
    {
      "code": "GMC",
      "shareholderType": "COMPANY",
      "shareholderName": "CTCP Đầu tư T.T.A",
      "roleType": "Cổ đông lớn",
      "enRoleType": "Major Shareholder",
      "numberOfShares": 5006286,
      "ownershipPct": 15.170444571359273,
      "effectiveDate": "2022-12-31"
    },
    {
      "code": "GMC",
      "shareholderType": "COMPANY",
      "shareholderName": "CTCP Xuất nhập khẩu và đầu tư Thừa Thiên Huế",
      "roleType": "Cổ đông lớn",
      "enRoleType": "Major Shareholder",
      "numberOfShares": 4360227,
      "ownershipPct": 13.21270539119102,
      "effectiveDate": "2022-12-31"
    },
    {
      "code": "GMC",
      "shareholderType": "COMPANY",
      "shareholderName": "Công ty Dệt may Gia Định",
      "roleType": "Cổ đông lớn",
      "enRoleType": "Major Shareholder",
      "numberOfShares": 3324629,
      "ownershipPct": 10.074554263346842,
      "effectiveDate": "2021-08-31"
    },
    {
      "code": "GMC",
      "shareholderType": "PERSON",
      "shareholderName": "Lâm Tử Thanh",
      "roleType": "Cổ đông lớn",
      "enRoleType": "Major Shareholder",
      "numberOfShares": 2357090,
      "ownershipPct": 7.142640910788003,
      "effectiveDate": "2022-12-31"
    },
    {
      "code": "GMC",
      "shareholderType": "COMPANY",
      "shareholderName": "XNK Bình Thạnh",
      "roleType": "Cổ đông lớn",
      "enRoleType": "Major Shareholder",
      "numberOfShares": 2337622,
      "ownershipPct": 7.08364743440347,
      "effectiveDate": "2021-08-31"
    },
    {
      "code": "GMC",
      "shareholderType": "PERSON",
      "shareholderName": "Vũ Thị Ánh Tuyết",
      "roleType": "Cổ đông lớn",
      "enRoleType": "Major Shareholder",
      "numberOfShares": 1097700,
      "ownershipPct": 3.326337529653934,
      "effectiveDate": "2018-09-10"
    },
    {
      "code": "GMC",
      "shareholderType": "COMPANY",
      "shareholderName": "Công ty TNHH Tân Á",
      "roleType": "Cổ đông lớn",
      "enRoleType": "Major Shareholder",
      "numberOfShares": 618872,
      "ownershipPct": 1.8753549782745644,
      "effectiveDate": "2021-08-31"
    },
    {
      "code": "GMC",
      "shareholderType": "COMPANY",
      "shareholderName": "Công ty TNHH Thương mại Á Châu",
      "roleType": "Cổ đông lớn",
      "enRoleType": "Major Shareholder",
      "numberOfShares": 618871,
      "ownershipPct": 1.8753519479953173,
      "effectiveDate": "2022-06-30"
    },
    {
      "code": "GMC",
      "shareholderType": "COMPANY",
      "shareholderName": "Công ty TNHH Nhựa Nam Á",
      "roleType": "Cổ đông lớn",
      "enRoleType": "Major Shareholder",
      "numberOfShares": 618871,
      "ownershipPct": 1.8753519479953173,
      "effectiveDate": "2021-08-31"
    }
  ],
  "currentPage": 1,
  "size": 10,
  "totalElements": 12,
  "totalPages": 2
}