{
  "data": [
    {
      "code": "GMH",
      "shareholderType": "PERSON",
      "shareholderName": "Lê Đình Sung",
      "roleType": "Chủ tịch HĐQT",
      "enRoleType": "Chairman",
      "numberOfShares": 2501185,
      "ownershipPct": 15.158696969696969,
      "groupPct": 39.38032727272727,
      "effectiveDate": "2022-11-07"
    },
    {
      "code": "GMH",
      "shareholderType": "PERSON",
      "shareholderName": "Lê Đình Sung",
      "roleType": "Chủ tịch HĐQT",
      "enRoleType": "Chairman",
      "numberOfShares": 2501185,
      "ownershipPct": 15.158696969696969,
      "groupPct": 30.242557575757576,
      "effectiveDate": "2022-11-07"
    },
    {
      "code": "GMH",
      "shareholderType": "COMPANY",
      "shareholderName": "Công ty TNHH MTV Quản lý Quỹ Ngân hàng Thương mại cổ phần Công thương Việt Nam",
      "roleType": "Cổ đông lớn",
      "enRoleType": "Major Shareholder",
      "numberOfShares": 2400000,
      "ownershipPct": 14.545454545454545,
      "effectiveDate": "2021-12-31"
    },
    {
      "code": "GMH",
      "shareholderType": "PERSON",
      "shareholderName": "Phạm Thị Mỹ Liên",
      "roleType": "Thành viên HĐQT",
      "enRoleType": "Board member",
      "numberOfShares": 2225000,
      "ownershipPct": 13.484848484848484,
      "groupPct": 39.38032727272727,
      "effectiveDate": "2021-12-31"
    },
    {
      "code": "GMH",
      "shareholderType": "PERSON",
      "shareholderName": "Phạm Thị Mỹ Liên",
      "roleType": "Thành viên HĐQT",
      "enRoleType": "Board member",
      "numberOfShares": 2225000,
      "ownershipPct": 13.484848484848484,
      "groupPct": 28.56252121212121,
      "effectiveDate": "2021-12-31"
    },
    {
      "code": "GMH",
      "shareholderType": "PERSON",
      "shareholderName": "Trần Thiên Như An",
      "roleType": "Cổ đông lớn",
      "enRoleType": "Major Shareholder",
      "numberOfShares": 911900,
      "ownershipPct": 5.526666666666666,
      "effectiveDate": "2022-03-21"
    },
    {
      "code": "GMH",
      "shareholderType": "PERSON",
      "shareholderName": "Lê Thị Thảo Duyên",
      "roleType": "Con dâu/rể của Chủ tịch HĐQT",
      "enRoleType": "Child in law of Chairman",
      "numberOfShares": 714065,
      "ownershipPct": 4.3276666666666666,
      "groupPct": 28.56252121212121,
      "effectiveDate": "2021-11-28"
    },
    {
      "code": "GMH",
      "shareholderType": "PERSON",
      "shareholderName": "Lê Thị Thảo Duyên",
      "roleType": "Vợ của Thành viên HĐQT",
      "enRoleType": "Wife of Board member",
      "numberOfShares": 714065,
      "ownershipPct": 4.3276666666666666,
      "groupPct": 39.38032727272727,
      "effectiveDate": "2021-11-28"
    },
    {
      "code": "GMH",
      "shareholderType": "PERSON",
      "shareholderName": "Lê Thị Thảo Duyên",
      "roleType": "Con dâu/rể của Thành viên HĐQT",
      "enRoleType": "Child in law of Board member",
      "numberOfShares": 714065,
      "ownershipPct": 4.3276666666666666,
      "groupPct": 30.242557575757576,
      "effectiveDate": "2021-11-28"
    },
    {
      "code": "GMH",
      "shareholderType": "PERSON",
      "shareholderName": "Lê Đình Minh",
      "roleType": "Thành viên HĐQT",
      "enRoleType": "Board member",
      "numberOfShares": 711768,
      "ownershipPct": 4.3137454545454545,
      "groupPct": 30.242557575757576,
      "effectiveDate": "2023-06-30"
    }
  ],
  "currentPage": 1,
  "size": 10,
  "totalElements": 19,
  "totalPages": 2
}