{
  "data": [
    {
      "code": "GND",
      "shareholderType": "PERSON",
      "shareholderName": "Nguyễn Đức Hoàng",
      "roleType": "Chủ tịch HĐQT",
      "enRoleType": "Chairman",
      "numberOfShares": 1492600,
      "ownershipPct": 16.584444444444443,
      "effectiveDate": "2020-06-30"
    },
    {
      "code": "GND",
      "shareholderType": "PERSON",
      "shareholderName": "Nguyễn Đức Dũng",
      "roleType": "Tổng Giám đốc",
      "enRoleType": "CEO",
      "numberOfShares": 1204600,
      "ownershipPct": 13.384444444444444,
      "effectiveDate": "2021-03-01"
    },
    {
      "code": "GND",
      "shareholderType": "PERSON",
      "shareholderName": "Nguyễn Thị Kim Liên",
      "roleType": "Cổ đông lớn",
      "enRoleType": "Major Shareholder",
      "numberOfShares": 943250,
      "ownershipPct": 10.480555555555556,
      "effectiveDate": "2023-08-09"
    },
    {
      "code": "GND",
      "shareholderType": "PERSON",
      "shareholderName": "Nguyễn Hoàng Hải",
      "roleType": "Thành viên HĐQT",
      "enRoleType": "Board member",
      "numberOfShares": 675000,
      "ownershipPct": 7.5,
      "effectiveDate": "2020-06-30"
    },
    {
      "code": "GND",
      "shareholderType": "PERSON",
      "shareholderName": "Nguyễn Anh Tú",
      "roleType": "Cổ đông lớn",
      "enRoleType": "Major Shareholder",
      "numberOfShares": 541900,
      "ownershipPct": 6.021111111111111,
      "effectiveDate": "2024-08-19"
    },
    {
      "code": "GND",
      "shareholderType": "PERSON",
      "shareholderName": "Nguyễn Hoàng Linh",
      "roleType": "Phó chủ tịch HĐQT",
      "enRoleType": "Vice-chairman",
      "numberOfShares": 502300,
      "ownershipPct": 5.581111111111111,
      "effectiveDate": "2020-06-30"
    },
    {
      "code": "GND",
      "shareholderType": "PERSON",
      "shareholderName": "Bùi Xuân Đức",
      "roleType": "Phó TGĐ",
      "enRoleType": "Deputy CEO",
      "numberOfShares": 500000,
      "ownershipPct": 5.555555555555555,
      "effectiveDate": "2023-12-31"
    },
    {
      "code": "GND",
      "shareholderType": "PERSON",
      "shareholderName": "Nguyễn Anh Tú",
      "roleType": "Thành viên BKS",
      "enRoleType": "Control member",
      "numberOfShares": 461800,
      "ownershipPct": 5.131111111111111,
      "effectiveDate": "2023-10-11"
    },
    {
      "code": "GND",
      "shareholderType": "PERSON",
      "shareholderName": "Bùi Thị Chiêm",
      "roleType": "Thành viên HĐQT",
      "enRoleType": "Board member",
      "numberOfShares": 411350,
      "ownershipPct": 4.570555555555556,
      "effectiveDate": "2021-07-06"
    },
    {
      "code": "GND",
      "shareholderType": "COMPANY",
      "shareholderName": "Công ty TNHH Xây dựng An Cư",
      "roleType": "Cổ đông lớn",
      "enRoleType": "Major Shareholder",
      "numberOfShares": 400000,
      "ownershipPct": 4.444444444444445,
      "effectiveDate": "2020-06-30"
    }
  ],
  "currentPage": 1,
  "size": 10,
  "totalElements": 11,
  "totalPages": 2
}