{"data":[{"code":"HAH","shareholderType":"COMPANY","shareholderName":"CTCP Đầu tư và Vận tải Hải Hà","roleType":"Cổ đông lớn","enRoleType":"Major Shareholder","numberOfShares":16432700,"ownershipPct":13.542344986085775,"effectiveDate":"2024-06-25"},{"code":"HAH","shareholderType":"COMPANY","shareholderName":"CTCP Đầu tư Sao Á D.C","roleType":"Cổ đông lớn","enRoleType":"Major Shareholder","numberOfShares":5354285,"ownershipPct":4.412517396643539,"effectiveDate":"2024-06-21"},{"code":"HAH","shareholderType":"COMPANY","shareholderName":"America LLC","roleType":"Cổ đông lớn","enRoleType":"Major Shareholder","numberOfShares":4924458,"ownershipPct":4.0582928615194085,"effectiveDate":"2023-08-07"},{"code":"HAH","shareholderType":"PERSON","shareholderName":"Đỗ Đức Tuấn","roleType":"Cổ đông lớn","enRoleType":"Major Shareholder","numberOfShares":4840650,"ownershipPct":3.9892258884356258,"effectiveDate":"2023-08-07"},{"code":"HAH","shareholderType":"COMPANY","shareholderName":"Công ty TNHH Quỹ TM Holding","roleType":"Cổ đông lớn","enRoleType":"Major Shareholder","numberOfShares":4650000,"ownershipPct":3.832109402916067,"effectiveDate":"2023-08-07"},{"code":"HAH","shareholderType":"COMPANY","shareholderName":"Samarang Unicts - Samarang Asian Properity","roleType":"Cổ đông lớn","enRoleType":"Major Shareholder","numberOfShares":4286376,"ownershipPct":3.532443392265325,"effectiveDate":"2023-08-07"},{"code":"HAH","shareholderType":"COMPANY","shareholderName":"Công ty Cổ phần Hàng Hải MACS","roleType":"Cổ đông lớn","enRoleType":"Major Shareholder","numberOfShares":3248437,"ownershipPct":2.677067951071067,"effectiveDate":"2023-08-07"},{"code":"HAH","shareholderType":"COMPANY","shareholderName":"CTBC Vietnam Equity Fund","roleType":"Cổ đông lớn","enRoleType":"Major Shareholder","numberOfShares":3150000,"ownershipPct":2.595945079394755,"effectiveDate":"2023-08-07"},{"code":"HAH","shareholderType":"COMPANY","shareholderName":"Container Việt Nam","roleType":"Cổ đông lớn","enRoleType":"Major Shareholder","numberOfShares":3065210,"ownershipPct":2.5260688307338404,"effectiveDate":"2024-06-21"},{"code":"HAH","shareholderType":"COMPANY","shareholderName":"Công ty CP Hàng Hải Nam Dương","roleType":"Cổ đông lớn","enRoleType":"Major Shareholder","numberOfShares":2730672,"ownershipPct":2.2503728704257253,"effectiveDate":"2023-08-07"}],"currentPage":1,"size":10,"totalElements":21,"totalPages":3}