{"data":[{"code":"HBD","shareholderType":"PERSON","shareholderName":"Mai Văn Bình","roleType":"Chủ tịch HĐQT","enRoleType":"Chairman","numberOfShares":381136,"ownershipPct":20.013442554085277,"effectiveDate":"2024-06-30"},{"code":"HBD","shareholderType":"PERSON","shareholderName":"Lê Kim Phượng","roleType":"Cổ đông lớn","enRoleType":"Major Shareholder","numberOfShares":329900,"ownershipPct":17.323041377861795,"effectiveDate":"2024-05-31"},{"code":"HBD","shareholderType":"PERSON","shareholderName":"Trần Thị Thanh Hương","roleType":"Thành viên HĐQT","enRoleType":"Board member","numberOfShares":313056,"ownershipPct":16.438563327032135,"effectiveDate":"2022-12-31"},{"code":"HBD","shareholderType":"PERSON","shareholderName":"Thái Trí Hùng","roleType":"Cổ đông lớn","enRoleType":"Major Shareholder","numberOfShares":281720,"ownershipPct":14.793110691031297,"effectiveDate":"2011-09-30"},{"code":"HBD","shareholderType":"PERSON","shareholderName":"Nguyễn Thúy Hiền","roleType":"Thành viên HĐQT","enRoleType":"Board member","numberOfShares":146695,"ownershipPct":7.702951060701533,"effectiveDate":"2024-06-30"},{"code":"HBD","shareholderType":"PERSON","shareholderName":"Mai Hương","roleType":"Thành viên HĐQT","enRoleType":"Board member","numberOfShares":135595,"ownershipPct":7.12009031716026,"groupPct":11.047101449275363,"effectiveDate":"2022-12-31"},{"code":"HBD","shareholderType":"PERSON","shareholderName":"Mai Hương","roleType":"Thành viên HĐQT","enRoleType":"Board member","numberOfShares":135595,"ownershipPct":7.12009031716026,"groupPct":17.50582860743541,"effectiveDate":"2022-12-31"},{"code":"HBD","shareholderType":"PERSON","shareholderName":"Mai Thị Thanh Hà","roleType":"Thành viên HĐQT","enRoleType":"Board member","numberOfShares":123000,"ownershipPct":6.45872715816005,"groupPct":17.50582860743541,"effectiveDate":"2020-12-31"},{"code":"HBD","shareholderType":"COMPANY","shareholderName":"Bao bì Bình Dương","roleType":"Cổ phiếu quỹ","enRoleType":"Treasury Stock","numberOfShares":106700,"ownershipPct":5.602814534761604,"effectiveDate":"2010-03-15"},{"code":"HBD","shareholderType":"PERSON","shareholderName":"Phạm Thị Thưởng","roleType":"Vợ của Chủ tịch HĐQT","enRoleType":"Wife of Chairman","numberOfShares":71746,"ownershipPct":3.767380802352447,"groupPct":17.50582860743541,"effectiveDate":"2020-12-31"}],"currentPage":1,"size":10,"totalElements":15,"totalPages":2}