{
  "data": [
    {
      "code": "HC3",
      "shareholderType": "PERSON",
      "shareholderName": "Phạm Kỳ Hưng",
      "roleType": "Chủ tịch HĐQT",
      "enRoleType": "Chairman",
      "numberOfShares": 6140499,
      "ownershipPct": 29.684728839710996,
      "effectiveDate": "2021-06-03"
    },
    {
      "code": "HC3",
      "shareholderType": "PERSON",
      "shareholderName": "Phạm Đức Duy",
      "roleType": "Phó chủ tịch HĐQT",
      "enRoleType": "Vice-chairman",
      "numberOfShares": 2145634,
      "ownershipPct": 10.372538694211084,
      "groupPct": 19.060195012819715,
      "effectiveDate": "2021-06-03"
    },
    {
      "code": "HC3",
      "shareholderType": "PERSON",
      "shareholderName": "Nguyễn Thị Thúy",
      "roleType": "Thành viên HĐQT",
      "enRoleType": "Board member",
      "numberOfShares": 1696466,
      "ownershipPct": 8.20114671393793,
      "effectiveDate": "2025-01-24"
    },
    {
      "code": "HC3",
      "shareholderType": "PERSON",
      "shareholderName": "Phạm Thị Kim Thoa",
      "roleType": "Vợ của Chủ tịch HĐQT",
      "enRoleType": "Wife of Chairman",
      "numberOfShares": 1561487,
      "ownershipPct": 7.548624009503755,
      "groupPct": 19.060195012819715,
      "effectiveDate": "2021-06-03"
    },
    {
      "code": "HC3",
      "shareholderType": "PERSON",
      "shareholderName": "Đào Viết Trúc",
      "roleType": "Cổ đông lớn",
      "enRoleType": "Major Shareholder",
      "numberOfShares": 1335056,
      "ownershipPct": 6.45399915313547,
      "effectiveDate": "2021-06-03"
    },
    {
      "code": "HC3",
      "shareholderType": "PERSON",
      "shareholderName": "Bùi Ngọc Phương",
      "roleType": "Phó TGĐ",
      "enRoleType": "Deputy CEO",
      "numberOfShares": 796171,
      "ownershipPct": 3.8488924507668747,
      "groupPct": 6.0243065299597784,
      "effectiveDate": "2021-06-03"
    },
    {
      "code": "HC3",
      "shareholderType": "PERSON",
      "shareholderName": "Bùi Thị Ngọc Anh",
      "roleType": "Thành viên HĐQT",
      "enRoleType": "Board member",
      "numberOfShares": 450000,
      "ownershipPct": 2.175414079192904,
      "effectiveDate": "2022-12-30"
    },
    {
      "code": "HC3",
      "shareholderType": "PERSON",
      "shareholderName": "Bùi Thị Ngọc Anh",
      "roleType": "Thành viên HĐQT",
      "enRoleType": "Board member",
      "numberOfShares": 450000,
      "ownershipPct": 2.175414079192904,
      "groupPct": 6.0243065299597784,
      "effectiveDate": "2022-12-30"
    },
    {
      "code": "HC3",
      "shareholderType": "PERSON",
      "shareholderName": "Đào Viết Liễu",
      "roleType": "Nhóm cổ đông lớn",
      "enRoleType": "Major Shareholder Group",
      "numberOfShares": 315178,
      "ownershipPct": 1.5236503525596914,
      "groupPct": 2.42188849436546,
      "effectiveDate": "2021-06-03"
    },
    {
      "code": "HC3",
      "shareholderType": "PERSON",
      "shareholderName": "Bùi Ngọc Khôi",
      "roleType": "Con của Phó TGĐ",
      "enRoleType": "Child of Deputy CEO",
      "numberOfShares": 313549,
      "ownershipPct": 1.515775353593013,
      "groupPct": 2.0037787425980933,
      "effectiveDate": "2023-04-28"
    }
  ],
  "currentPage": 1,
  "size": 10,
  "totalElements": 11,
  "totalPages": 2
}