{"data":[{"code":"HCB","shareholderType":"PERSON","shareholderName":"Nguyễn Xuân Anh","roleType":"Bố của Thành viên HĐQT","enRoleType":"Father of Board member","numberOfShares":1068916,"ownershipPct":20.55894726840709,"effectiveDate":"2023-06-13"},{"code":"HCB","shareholderType":"PERSON","shareholderName":"Nguyễn Xuân Anh","roleType":"Chồng của Thành viên HĐQT","enRoleType":"Husband of Board member","numberOfShares":1068916,"ownershipPct":20.55894726840709,"groupPct":28.324454529613174,"effectiveDate":"2023-06-13"},{"code":"HCB","shareholderType":"PERSON","shareholderName":"Phạm Thị Xuân Nguyệt","roleType":"Thành viên HĐQT","enRoleType":"Board member","numberOfShares":552500,"ownershipPct":10.6264836205978,"effectiveDate":"2020-06-30"},{"code":"HCB","shareholderType":"PERSON","shareholderName":"Huỳnh Văn Chính","roleType":"Chủ tịch HĐQT","enRoleType":"Chairman","numberOfShares":504629,"ownershipPct":9.705758919418365,"effectiveDate":"2021-07-09"},{"code":"HCB","shareholderType":"PERSON","shareholderName":"Lâm Trọng Lương","roleType":"Thành viên HĐQT","enRoleType":"Board member","numberOfShares":499231,"ownershipPct":9.601936731936036,"effectiveDate":"2020-06-30"},{"code":"HCB","shareholderType":"PERSON","shareholderName":"Nguyễn Xuân Tùng","roleType":"Thành viên HĐQT","enRoleType":"Board member","numberOfShares":378750,"ownershipPct":7.284670898283107,"groupPct":28.324454529613174,"effectiveDate":"2020-06-30"},{"code":"HCB","shareholderType":"PERSON","shareholderName":"Nguyễn Đình Trường","roleType":"Phó chủ tịch HĐQT","enRoleType":"Vice-chairman","numberOfShares":308000,"ownershipPct":5.9239039912110805,"effectiveDate":"2020-06-30"},{"code":"HCB","shareholderType":"PERSON","shareholderName":"Huỳnh Văn Thắng","roleType":"Con của Chủ tịch HĐQT","enRoleType":"Child of Chairman","numberOfShares":240212,"ownershipPct":4.620106576418169,"groupPct":7.804204971694125,"effectiveDate":"2020-06-30"},{"code":"HCB","shareholderType":"PERSON","shareholderName":"Đặng Văn Trường","roleType":"Đại diện CBTT","enRoleType":"Spokeman","numberOfShares":220000,"ownershipPct":4.231359993722201,"effectiveDate":"2020-06-30"},{"code":"HCB","shareholderType":"PERSON","shareholderName":"Phạm Phú Kiệt","roleType":"Cổ đông lớn","enRoleType":"Major Shareholder","numberOfShares":211470,"ownershipPct":4.067298626692881,"effectiveDate":"2023-04-20"}],"currentPage":1,"size":10,"totalElements":13,"totalPages":2}