{
  "data": [
    {
      "code": "HDC",
      "shareholderType": "PERSON",
      "shareholderName": "Phạm Tiến Dũng",
      "roleType": "Cổ đông lớn",
      "enRoleType": "Major Shareholder",
      "numberOfShares": 19750093,
      "ownershipPct": 11.073475240381027,
      "effectiveDate": "2023-06-16"
    },
    {
      "code": "HDC",
      "shareholderType": "PERSON",
      "shareholderName": "Đoàn Hữu Thuận",
      "roleType": "Chủ tịch HĐQT",
      "enRoleType": "Chairman",
      "numberOfShares": 17559887,
      "ownershipPct": 9.845471305800366,
      "effectiveDate": "2024-12-31"
    },
    {
      "code": "HDC",
      "shareholderType": "PERSON",
      "shareholderName": "Lê Viết Liên",
      "roleType": "Thành viên HĐQT",
      "enRoleType": "Board member",
      "numberOfShares": 6569288,
      "ownershipPct": 3.6832660998068314,
      "effectiveDate": "2024-09-16"
    },
    {
      "code": "HDC",
      "shareholderType": "COMPANY",
      "shareholderName": "Balestrand Limited",
      "roleType": "Cổ đông lớn",
      "enRoleType": "Major Shareholder",
      "numberOfShares": 6125137,
      "ownershipPct": 3.4342396723621365,
      "effectiveDate": "2023-06-16"
    },
    {
      "code": "HDC",
      "shareholderType": "PERSON",
      "shareholderName": "Nguyễn Thị Thanh Hà",
      "roleType": "Vợ của Chủ tịch HĐQT",
      "enRoleType": "Wife of Chairman",
      "numberOfShares": 6016430,
      "ownershipPct": 3.373289869596342,
      "groupPct": 8.03648551058567,
      "effectiveDate": "2024-09-16"
    },
    {
      "code": "HDC",
      "shareholderType": "COMPANY",
      "shareholderName": "CK Vietinbank",
      "roleType": "Cổ đông lớn",
      "enRoleType": "Major Shareholder",
      "numberOfShares": 4913806,
      "ownershipPct": 2.7550710306546775,
      "effectiveDate": "2023-06-16"
    },
    {
      "code": "HDC",
      "shareholderType": "COMPANY",
      "shareholderName": "LUCERNE ENTERPRISE LTD",
      "roleType": "Cổ đông lớn",
      "enRoleType": "Major Shareholder",
      "numberOfShares": 4816625,
      "ownershipPct": 2.7005836215404284,
      "effectiveDate": "2023-06-16"
    },
    {
      "code": "HDC",
      "shareholderType": "PERSON",
      "shareholderName": "Đoàn Hữu Hà Vinh",
      "roleType": "Thành viên HĐQT",
      "enRoleType": "Board member",
      "numberOfShares": 3891100,
      "ownershipPct": 2.1816605880208573,
      "groupPct": 8.03648551058567,
      "effectiveDate": "2024-09-16"
    },
    {
      "code": "HDC",
      "shareholderType": "COMPANY",
      "shareholderName": "Vietnam Investment Limited",
      "roleType": "Cổ đông lớn",
      "enRoleType": "Major Shareholder",
      "numberOfShares": 3780845,
      "ownershipPct": 2.1198428531561047,
      "effectiveDate": "2023-06-16"
    },
    {
      "code": "HDC",
      "shareholderType": "PERSON",
      "shareholderName": "Trần Minh Chính",
      "roleType": "Cổ đông lớn",
      "enRoleType": "Major Shareholder",
      "numberOfShares": 3090047,
      "ownershipPct": 1.7325264719570521,
      "effectiveDate": "2023-06-16"
    }
  ],
  "currentPage": 1,
  "size": 10,
  "totalElements": 15,
  "totalPages": 2
}