{
  "data": [
    {
      "code": "HDG",
      "shareholderType": "PERSON",
      "shareholderName": "Nguyễn Trọng Thông",
      "roleType": "Bố của Phó chủ tịch HĐQT",
      "enRoleType": "Father of Vice-chairman",
      "numberOfShares": 117760292,
      "ownershipPct": 31.830285963569306,
      "groupPct": 31.83787212687343,
      "effectiveDate": "2025-06-24"
    },
    {
      "code": "HDG",
      "shareholderType": "PERSON",
      "shareholderName": "Nguyễn Văn Tô",
      "roleType": "Cổ đông lớn",
      "enRoleType": "Major Shareholder",
      "numberOfShares": 29795270,
      "ownershipPct": 8.053580271877703,
      "effectiveDate": "2025-07-23"
    },
    {
      "code": "HDG",
      "shareholderType": "PERSON",
      "shareholderName": "Nguyễn Văn Tô",
      "roleType": "Cổ đông lớn",
      "enRoleType": "Major Shareholder",
      "numberOfShares": 24830802,
      "ownershipPct": 6.711698102487455,
      "effectiveDate": "2023-07-04"
    },
    {
      "code": "HDG",
      "shareholderType": "COMPANY",
      "shareholderName": "PYN ELITE FUND",
      "roleType": "Cổ đông lớn",
      "enRoleType": "Major Shareholder",
      "numberOfShares": 19470880,
      "ownershipPct": 5.262925794735142,
      "effectiveDate": "2025-06-13"
    },
    {
      "code": "HDG",
      "shareholderType": "COMPANY",
      "shareholderName": "CTBC Vietnam Equity Fund",
      "roleType": "Cổ đông lớn",
      "enRoleType": "Major Shareholder",
      "numberOfShares": 16335000,
      "ownershipPct": 4.415305977798566,
      "effectiveDate": "2024-06-24"
    },
    {
      "code": "HDG",
      "shareholderType": "PERSON",
      "shareholderName": "Nguyễn Phương Đông",
      "roleType": "Cổ đông lớn",
      "enRoleType": "Major Shareholder",
      "numberOfShares": 16043500,
      "ownershipPct": 4.336514322302497,
      "effectiveDate": "2024-06-24"
    },
    {
      "code": "HDG",
      "shareholderType": "COMPANY",
      "shareholderName": "Chứng khoán Vietcap",
      "roleType": "Cổ đông lớn",
      "enRoleType": "Major Shareholder",
      "numberOfShares": 14829205,
      "ownershipPct": 4.008293693449671,
      "effectiveDate": "2023-07-04"
    },
    {
      "code": "HDG",
      "shareholderType": "COMPANY",
      "shareholderName": "Norges Bank",
      "roleType": "Cổ đông lớn",
      "enRoleType": "Major Shareholder",
      "numberOfShares": 12481700,
      "ownershipPct": 3.3737694902410995,
      "effectiveDate": "2024-06-24"
    },
    {
      "code": "HDG",
      "shareholderType": "PERSON",
      "shareholderName": "Hoàng Thị Phương Điều",
      "roleType": "Nhóm cổ đông lớn",
      "enRoleType": "Major Shareholder Group",
      "numberOfShares": 8254336,
      "ownershipPct": 2.231124523021604,
      "groupPct": 2.3797880239575826,
      "effectiveDate": "2023-07-04"
    },
    {
      "code": "HDG",
      "shareholderType": "COMPANY",
      "shareholderName": "LUCERNE ENTERPRISE LTD",
      "roleType": "Cổ đông lớn",
      "enRoleType": "Major Shareholder",
      "numberOfShares": 7391036,
      "ownershipPct": 1.9977768860070033,
      "effectiveDate": "2023-07-04"
    }
  ],
  "currentPage": 1,
  "size": 10,
  "totalElements": 13,
  "totalPages": 2
}