{
  "data": [
    {
      "code": "HDO",
      "shareholderType": "PERSON",
      "shareholderName": "Trần Văn Hùng",
      "roleType": "Chủ tịch HĐQT",
      "enRoleType": "Chairman",
      "numberOfShares": 2431608,
      "ownershipPct": 14.456750848207648,
      "effectiveDate": "2020-06-30"
    },
    {
      "code": "HDO",
      "shareholderType": "PERSON",
      "shareholderName": "Nguyễn Văn Công",
      "roleType": "Cổ đông lớn",
      "enRoleType": "Major Shareholder",
      "numberOfShares": 1400000,
      "ownershipPct": 8.323484372271643,
      "effectiveDate": "2020-06-30"
    },
    {
      "code": "HDO",
      "shareholderType": "PERSON",
      "shareholderName": "Nguyễn Thị Tới",
      "roleType": "Cổ đông lớn",
      "enRoleType": "Major Shareholder",
      "numberOfShares": 1302121,
      "ownershipPct": 7.741559853076232,
      "effectiveDate": "2012-08-01"
    },
    {
      "code": "HDO",
      "shareholderType": "PERSON",
      "shareholderName": "Dương Thị Hằng",
      "roleType": "Thành viên HĐQT",
      "enRoleType": "Board member",
      "numberOfShares": 1153400,
      "ownershipPct": 6.8573620535557955,
      "groupPct": 7.095175892763557,
      "effectiveDate": "2020-06-30"
    },
    {
      "code": "HDO",
      "shareholderType": "COMPANY",
      "shareholderName": "Công ty cổ phần Quản lý Quỹ Bông Sen",
      "roleType": "Cổ đông lớn",
      "enRoleType": "Major Shareholder",
      "numberOfShares": 830000,
      "ownershipPct": 4.934637163561046,
      "effectiveDate": "2011-05-17"
    },
    {
      "code": "HDO",
      "shareholderType": "COMPANY",
      "shareholderName": "UB FUNDS SPC LTD",
      "roleType": "Cổ đông lớn",
      "enRoleType": "Major Shareholder",
      "numberOfShares": 573900,
      "ownershipPct": 3.4120340580333544,
      "effectiveDate": "2015-11-17"
    },
    {
      "code": "HDO",
      "shareholderType": "PERSON",
      "shareholderName": "Lương Thị Thanh",
      "roleType": "Cổ đông lớn",
      "enRoleType": "Major Shareholder",
      "numberOfShares": 528000,
      "ownershipPct": 3.1391426775424485,
      "effectiveDate": "2012-08-15"
    },
    {
      "code": "HDO",
      "shareholderType": "PERSON",
      "shareholderName": "Phan Thị Yến Nhi",
      "roleType": "Cổ đông lớn",
      "enRoleType": "Major Shareholder",
      "numberOfShares": 465100,
      "ownershipPct": 2.7651804153882438,
      "effectiveDate": "2013-04-23"
    },
    {
      "code": "HDO",
      "shareholderType": "PERSON",
      "shareholderName": "Nguyễn Thị Ánh Như",
      "roleType": "Cổ đông lớn",
      "enRoleType": "Major Shareholder",
      "numberOfShares": 453500,
      "ownershipPct": 2.696214402017993,
      "effectiveDate": "2013-04-09"
    },
    {
      "code": "HDO",
      "shareholderType": "PERSON",
      "shareholderName": "Lê Anh Tú",
      "roleType": "Cổ đông lớn",
      "enRoleType": "Major Shareholder",
      "numberOfShares": 440000,
      "ownershipPct": 2.6159522312853736,
      "effectiveDate": "2012-07-13"
    }
  ],
  "currentPage": 1,
  "size": 10,
  "totalElements": 12,
  "totalPages": 2
}