{
  "data": [
    {
      "code": "HDP",
      "shareholderType": "PERSON",
      "shareholderName": "Lê Quốc Khánh",
      "roleType": "Thành viên HĐQT",
      "enRoleType": "Board member",
      "numberOfShares": 1570194,
      "ownershipPct": 15.805596261401524,
      "groupPct": 27.531466866000606,
      "effectiveDate": "2024-07-18"
    },
    {
      "code": "HDP",
      "shareholderType": "PERSON",
      "shareholderName": "Lê Hồng Phúc",
      "roleType": "Chủ tịch HĐQT",
      "enRoleType": "Chairman",
      "numberOfShares": 1222466,
      "ownershipPct": 12.305361018632395,
      "effectiveDate": "2024-07-09"
    },
    {
      "code": "HDP",
      "shareholderType": "PERSON",
      "shareholderName": "Nguyễn Đăng Phát",
      "roleType": "Phó TGĐ",
      "enRoleType": "Deputy CEO",
      "numberOfShares": 744763,
      "ownershipPct": 7.496795484144114,
      "effectiveDate": "2022-12-31"
    },
    {
      "code": "HDP",
      "shareholderType": "PERSON",
      "shareholderName": "Võ Đức Nhân",
      "roleType": "Thành viên HĐQT",
      "enRoleType": "Board member",
      "numberOfShares": 645560,
      "ownershipPct": 6.498216604133226,
      "effectiveDate": "2022-12-31"
    },
    {
      "code": "HDP",
      "shareholderType": "PERSON",
      "shareholderName": "Nguyễn Thị Hậu",
      "roleType": "Vợ của Chủ tịch HĐQT",
      "enRoleType": "Wife of Chairman",
      "numberOfShares": 438304,
      "ownershipPct": 4.411974611899761,
      "groupPct": 27.531466866000606,
      "effectiveDate": "2021-01-07"
    },
    {
      "code": "HDP",
      "shareholderType": "PERSON",
      "shareholderName": "Lê Đăng Khoa",
      "roleType": "Con của Chủ tịch HĐQT",
      "enRoleType": "Child of Chairman",
      "numberOfShares": 380533,
      "ownershipPct": 3.8304508628487346,
      "groupPct": 27.531466866000606,
      "effectiveDate": "2020-06-30"
    },
    {
      "code": "HDP",
      "shareholderType": "PERSON",
      "shareholderName": "Lê Thị Thanh Vân",
      "roleType": "Con của Chủ tịch HĐQT",
      "enRoleType": "Child of Chairman",
      "numberOfShares": 346060,
      "ownershipPct": 3.483445129850586,
      "groupPct": 27.531466866000606,
      "effectiveDate": "2020-06-30"
    },
    {
      "code": "HDP",
      "shareholderType": "PERSON",
      "shareholderName": "Dương Thị Hiền",
      "roleType": "Vợ của Phó TGĐ",
      "enRoleType": "Wife of Deputy CEO",
      "numberOfShares": 331755,
      "ownershipPct": 3.339450786145701,
      "effectiveDate": "2022-05-17"
    },
    {
      "code": "HDP",
      "shareholderType": "PERSON",
      "shareholderName": "Đinh Văn Dũng",
      "roleType": "Thành viên HĐQT",
      "enRoleType": "Board member",
      "numberOfShares": 255751,
      "ownershipPct": 2.574393386708713,
      "effectiveDate": "2022-12-31"
    },
    {
      "code": "HDP",
      "shareholderType": "PERSON",
      "shareholderName": "Lê Quốc Thìn",
      "roleType": "Em trai của Thành viên HĐQT",
      "enRoleType": "Young Brother of Board member",
      "numberOfShares": 133100,
      "ownershipPct": 1.3397865884040716,
      "effectiveDate": "2020-06-30"
    }
  ],
  "currentPage": 1,
  "size": 10,
  "totalElements": 11,
  "totalPages": 2
}