{
  "data": [
    {
      "code": "HEV",
      "shareholderType": "COMPANY",
      "shareholderName": "Nhà Xuất bản Giáo dục Việt Nam",
      "roleType": "Cổ đông lớn",
      "enRoleType": "Major Shareholder",
      "numberOfShares": 217300,
      "ownershipPct": 21.73,
      "effectiveDate": "2020-06-30"
    },
    {
      "code": "HEV",
      "shareholderType": "PERSON",
      "shareholderName": "Trần Thị Thu Hằng",
      "roleType": "Cổ đông lớn",
      "enRoleType": "Major Shareholder",
      "numberOfShares": 153000,
      "ownershipPct": 15.3,
      "effectiveDate": "2021-12-15"
    },
    {
      "code": "HEV",
      "shareholderType": "PERSON",
      "shareholderName": "Phạm Thủy Mai Ly",
      "roleType": "Cổ đông lớn",
      "enRoleType": "Major Shareholder",
      "numberOfShares": 137500,
      "ownershipPct": 13.75,
      "effectiveDate": "2021-05-11"
    },
    {
      "code": "HEV",
      "shareholderType": "COMPANY",
      "shareholderName": "Công ty Cổ phần Chứng khoán VINA ",
      "roleType": "Cổ đông lớn",
      "enRoleType": "Major Shareholder",
      "numberOfShares": 120800,
      "ownershipPct": 12.08,
      "effectiveDate": "2012-07-03"
    },
    {
      "code": "HEV",
      "shareholderType": "PERSON",
      "shareholderName": "Đặng Trần Bảo Tín",
      "roleType": "Chủ tịch HĐQT",
      "enRoleType": "Chairman",
      "numberOfShares": 103020,
      "ownershipPct": 10.302,
      "effectiveDate": "2021-12-15"
    },
    {
      "code": "HEV",
      "shareholderType": "PERSON",
      "shareholderName": "Phạm Lê Tú Uyên",
      "roleType": "Cổ đông lớn",
      "enRoleType": "Major Shareholder",
      "numberOfShares": 102000,
      "ownershipPct": 10.2,
      "effectiveDate": "2021-12-15"
    },
    {
      "code": "HEV",
      "shareholderType": "PERSON",
      "shareholderName": "Doãn Hữu Đoàn",
      "roleType": "Cổ đông lớn",
      "enRoleType": "Major Shareholder",
      "numberOfShares": 84075,
      "ownershipPct": 8.4075,
      "effectiveDate": "2023-12-12"
    },
    {
      "code": "HEV",
      "shareholderType": "PERSON",
      "shareholderName": "Hoàng Minh Sơn",
      "roleType": "Cổ đông lớn",
      "enRoleType": "Major Shareholder",
      "numberOfShares": 81800,
      "ownershipPct": 8.18,
      "effectiveDate": "2021-05-11"
    },
    {
      "code": "HEV",
      "shareholderType": "PERSON",
      "shareholderName": "Đặng Hồng Thi",
      "roleType": "Chị của Chủ tịch HĐQT",
      "enRoleType": "Elder Sister of Chairman",
      "numberOfShares": 49980,
      "ownershipPct": 4.998,
      "effectiveDate": "2022-12-31"
    },
    {
      "code": "HEV",
      "shareholderType": "PERSON",
      "shareholderName": "Nguyễn Lệ Thủy",
      "roleType": "Cổ đông lớn",
      "enRoleType": "Major Shareholder",
      "numberOfShares": 20300,
      "ownershipPct": 2.03,
      "effectiveDate": "2013-10-31"
    }
  ],
  "currentPage": 1,
  "size": 10,
  "totalElements": 12,
  "totalPages": 2
}