{"data":[{"code":"HID","shareholderType":"PERSON","shareholderName":"Nguyễn Quang Huân","roleType":"Chủ tịch HĐQT","enRoleType":"Chairman","numberOfShares":20464872,"ownershipPct":26.662132490690897,"effectiveDate":"2020-04-08"},{"code":"HID","shareholderType":"PERSON","shareholderName":"Nguyễn Thị Hồng Lan","roleType":"Cổ đông lớn","enRoleType":"Major Shareholder","numberOfShares":4934874,"ownershipPct":6.429273753232649,"effectiveDate":"2020-06-30"},{"code":"HID","shareholderType":"PERSON","shareholderName":"Vũ Thị Bích Liên","roleType":"Cổ đông lớn","enRoleType":"Major Shareholder","numberOfShares":4000000,"ownershipPct":5.211297190755143,"effectiveDate":"2022-07-18"},{"code":"HID","shareholderType":"PERSON","shareholderName":"Trần Bắc Mỹ","roleType":"Thành viên BKS","enRoleType":"Control member","numberOfShares":4000000,"ownershipPct":5.211297190755143,"effectiveDate":"2022-07-18"},{"code":"HID","shareholderType":"PERSON","shareholderName":"Bùi Thị Xuyến","roleType":"Cổ đông lớn","enRoleType":"Major Shareholder","numberOfShares":4000000,"ownershipPct":5.211297190755143,"effectiveDate":"2022-07-18"},{"code":"HID","shareholderType":"PERSON","shareholderName":"Đỗ Tiến Dũng","roleType":"Cổ đông lớn","enRoleType":"Major Shareholder","numberOfShares":2288000,"ownershipPct":2.980861993111942,"effectiveDate":"2018-10-23"},{"code":"HID","shareholderType":"PERSON","shareholderName":"Nguyễn Thị Siu","roleType":"Cổ đông lớn","enRoleType":"Major Shareholder","numberOfShares":1650000,"ownershipPct":2.1496600911864965,"effectiveDate":"2018-10-11"},{"code":"HID","shareholderType":"PERSON","shareholderName":"Vũ Mạnh Tuấn","roleType":"Cổ đông lớn","enRoleType":"Major Shareholder","numberOfShares":1553474,"ownershipPct":2.023903673027789,"effectiveDate":"2018-10-11"},{"code":"HID","shareholderType":"PERSON","shareholderName":"Nguyễn Thị Thúy","roleType":"Cổ đông lớn","enRoleType":"Major Shareholder","numberOfShares":1300000,"ownershipPct":1.6936715869954215,"effectiveDate":"2018-10-11"},{"code":"HID","shareholderType":"PERSON","shareholderName":"Nguyễn Đức Quyết","roleType":"Chồng của Thành viên BKS","enRoleType":"Husband of Control member","numberOfShares":1030464,"ownershipPct":1.342513537093577,"effectiveDate":"2020-06-30"}],"currentPage":1,"size":10,"totalElements":11,"totalPages":2}