{
  "data": [
    {
      "code": "HKT",
      "shareholderType": "PERSON",
      "shareholderName": "Vi Thị Dung",
      "roleType": "Cổ đông lớn",
      "enRoleType": "Major Shareholder",
      "numberOfShares": 20100000,
      "ownershipPct": 327.62681317398824,
      "effectiveDate": "2025-09-08"
    },
    {
      "code": "HKT",
      "shareholderType": "PERSON",
      "shareholderName": "Nguyễn Thị Thùy Ngân",
      "roleType": "Thành viên HĐQT",
      "enRoleType": "Board member",
      "numberOfShares": 1400636,
      "ownershipPct": 22.830144731182198,
      "effectiveDate": "2024-08-29"
    },
    {
      "code": "HKT",
      "shareholderType": "PERSON",
      "shareholderName": "Dương Văn Hiểu",
      "roleType": "Cổ đông lớn",
      "enRoleType": "Major Shareholder",
      "numberOfShares": 1395636,
      "ownershipPct": 22.74864552392499,
      "effectiveDate": "2024-08-20"
    },
    {
      "code": "HKT",
      "shareholderType": "PERSON",
      "shareholderName": "Hồ Văn Tuấn",
      "roleType": "Cổ đông lớn",
      "enRoleType": "Major Shareholder",
      "numberOfShares": 1200000,
      "ownershipPct": 19.559809741730643,
      "effectiveDate": "2024-08-27"
    },
    {
      "code": "HKT",
      "shareholderType": "PERSON",
      "shareholderName": "Nguyễn Thị Hằng",
      "roleType": "Cổ đông lớn",
      "enRoleType": "Major Shareholder",
      "numberOfShares": 605000,
      "ownershipPct": 9.861404078122533,
      "effectiveDate": "2025-02-17"
    },
    {
      "code": "HKT",
      "shareholderType": "PERSON",
      "shareholderName": "Lê Quang Phúc",
      "roleType": "Cổ đông lớn",
      "enRoleType": "Major Shareholder",
      "numberOfShares": 501529,
      "ownershipPct": 8.174843183300355,
      "effectiveDate": "2025-06-20"
    },
    {
      "code": "HKT",
      "shareholderType": "PERSON",
      "shareholderName": "Hoàng Quang Hưng",
      "roleType": "Cổ đông lớn",
      "enRoleType": "Major Shareholder",
      "numberOfShares": 301000,
      "ownershipPct": 4.906252276884103,
      "effectiveDate": "2020-06-30"
    },
    {
      "code": "HKT",
      "shareholderType": "PERSON",
      "shareholderName": "Đinh Tuấn Anh",
      "roleType": "Cổ đông lớn",
      "enRoleType": "Major Shareholder",
      "numberOfShares": 290300,
      "ownershipPct": 4.731843973353671,
      "effectiveDate": "2020-12-31"
    },
    {
      "code": "HKT",
      "shareholderType": "PERSON",
      "shareholderName": "Đỗ Văn Mạnh",
      "roleType": "Cổ đông lớn",
      "enRoleType": "Major Shareholder",
      "numberOfShares": 279164,
      "ownershipPct": 4.550328938950411,
      "effectiveDate": "2024-08-20"
    },
    {
      "code": "HKT",
      "shareholderType": "PERSON",
      "shareholderName": "Nguyễn Kim Anh",
      "roleType": "Cổ đông lớn",
      "enRoleType": "Major Shareholder",
      "numberOfShares": 249100,
      "ownershipPct": 4.060290505554253,
      "effectiveDate": "2017-03-06"
    }
  ],
  "currentPage": 1,
  "size": 10,
  "totalElements": 11,
  "totalPages": 2
}