{
  "data": [
    {
      "code": "HLA",
      "shareholderType": "COMPANY",
      "shareholderName": "Công ty TNHH Đầu tư Xảo Cơ Lang Phương",
      "roleType": "Cổ đông lớn",
      "enRoleType": "Major Shareholder",
      "numberOfShares": 4893500,
      "ownershipPct": 14.207534171028632,
      "effectiveDate": "2012-07-02"
    },
    {
      "code": "HLA",
      "shareholderType": "COMPANY",
      "shareholderName": "CK Bảo Việt",
      "roleType": "Cổ đông lớn",
      "enRoleType": "Major Shareholder",
      "numberOfShares": 3638880,
      "ownershipPct": 10.564935515331086,
      "effectiveDate": "2020-06-30"
    },
    {
      "code": "HLA",
      "shareholderType": "PERSON",
      "shareholderName": "Trần Xảo Cơ",
      "roleType": "Chủ tịch HĐQT",
      "enRoleType": "Chairman",
      "numberOfShares": 3484000,
      "ownershipPct": 10.115264953890621,
      "effectiveDate": "2020-06-30"
    },
    {
      "code": "HLA",
      "shareholderType": "PERSON",
      "shareholderName": "Hồ Minh Quang",
      "roleType": "Cổ đông lớn",
      "enRoleType": "Major Shareholder",
      "numberOfShares": 3484000,
      "ownershipPct": 10.115264953890621,
      "effectiveDate": "2012-06-11"
    },
    {
      "code": "HLA",
      "shareholderType": "COMPANY",
      "shareholderName": "Sacombank",
      "roleType": "Cổ đông lớn",
      "enRoleType": "Major Shareholder",
      "numberOfShares": 2400000,
      "ownershipPct": 6.9680355595113355,
      "effectiveDate": "2020-06-30"
    },
    {
      "code": "HLA",
      "shareholderType": "COMPANY",
      "shareholderName": "CK Sacombank",
      "roleType": "Cổ đông lớn",
      "enRoleType": "Major Shareholder",
      "numberOfShares": 2005944,
      "ownershipPct": 5.823953800995169,
      "effectiveDate": "2020-06-30"
    },
    {
      "code": "HLA",
      "shareholderType": "PERSON",
      "shareholderName": "Trần Tuấn Nghiệp",
      "roleType": "Phó chủ tịch HĐQT",
      "enRoleType": "Vice-chairman",
      "numberOfShares": 1776840,
      "ownershipPct": 5.158785126484217,
      "effectiveDate": "2012-09-06"
    },
    {
      "code": "HLA",
      "shareholderType": "PERSON",
      "shareholderName": "Trần Tuấn Nghiệp",
      "roleType": "Phó chủ tịch HĐQT",
      "enRoleType": "Vice-chairman",
      "numberOfShares": 1776840,
      "ownershipPct": 5.158785126484217,
      "groupPct": 10.369336950479303,
      "effectiveDate": "2012-09-06"
    },
    {
      "code": "HLA",
      "shareholderType": "COMPANY",
      "shareholderName": "Công ty cổ phần Đầu tư tài chính BIDV (BFI)",
      "roleType": "Cổ đông lớn",
      "enRoleType": "Major Shareholder",
      "numberOfShares": 1180380,
      "ownershipPct": 3.4270540890566625,
      "effectiveDate": "2011-01-21"
    },
    {
      "code": "HLA",
      "shareholderType": "PERSON",
      "shareholderName": "Trần Tuấn Minh",
      "roleType": "Con của Chủ tịch HĐQT",
      "enRoleType": "Child of Chairman",
      "numberOfShares": 1064670,
      "ownershipPct": 3.0911076746437223,
      "groupPct": 10.369336950479303,
      "effectiveDate": "2012-10-26"
    }
  ],
  "currentPage": 1,
  "size": 10,
  "totalElements": 11,
  "totalPages": 2
}