{
  "data": [
    {
      "code": "HLS",
      "shareholderType": "PERSON",
      "shareholderName": "Vũ Ngọc Hiếu",
      "roleType": "Con của Thành viên HĐQT",
      "enRoleType": "Child of Board member",
      "numberOfShares": 2439577,
      "ownershipPct": 21.842149676004162,
      "groupPct": 31.81296654840912,
      "effectiveDate": "2023-10-25"
    },
    {
      "code": "HLS",
      "shareholderType": "PERSON",
      "shareholderName": "Vũ Ngọc Cường",
      "roleType": "Thành viên HĐQT",
      "enRoleType": "Board member",
      "numberOfShares": 1191611,
      "ownershipPct": 10.66879455642228,
      "effectiveDate": "2023-06-08"
    },
    {
      "code": "HLS",
      "shareholderType": "PERSON",
      "shareholderName": "Nguyễn Tĩnh Chinh",
      "roleType": "Bố của Thành viên BKS",
      "enRoleType": "Father of Control member",
      "numberOfShares": 1000000,
      "ownershipPct": 8.953252828668315,
      "groupPct": 11.14150839927031,
      "effectiveDate": "2025-07-14"
    },
    {
      "code": "HLS",
      "shareholderType": "PERSON",
      "shareholderName": "Nguyễn Tĩnh Chinh",
      "roleType": "Bố chồng/vợ của Chủ tịch HĐQT",
      "enRoleType": "Father in law of Chairman",
      "numberOfShares": 1000000,
      "ownershipPct": 8.953252828668315,
      "groupPct": 9.585173413315726,
      "effectiveDate": "2025-07-14"
    },
    {
      "code": "HLS",
      "shareholderType": "PERSON",
      "shareholderName": "Nguyễn Thị Kim Hoa",
      "roleType": "Thành viên HĐQT",
      "enRoleType": "Board member",
      "numberOfShares": 843915,
      "ownershipPct": 7.555784360905622,
      "groupPct": 18.058173760254274,
      "effectiveDate": "2024-06-24"
    },
    {
      "code": "HLS",
      "shareholderType": "PERSON",
      "shareholderName": "Nguyễn Khắc Sơn",
      "roleType": "Chủ tịch HĐQT",
      "enRoleType": "Chairman",
      "numberOfShares": 722726,
      "ownershipPct": 6.470748603852137,
      "effectiveDate": "2023-06-08"
    },
    {
      "code": "HLS",
      "shareholderType": "PERSON",
      "shareholderName": "Trần Anh Thi",
      "roleType": "Vợ của Thành viên HĐQT",
      "enRoleType": "Wife of Board member",
      "numberOfShares": 557583,
      "ownershipPct": 4.9921815719673654,
      "groupPct": 7.933432565218851,
      "effectiveDate": "2023-06-08"
    },
    {
      "code": "HLS",
      "shareholderType": "PERSON",
      "shareholderName": "Nguyễn Thị Thanh Tân",
      "roleType": "Em gái của Thành viên HĐQT",
      "enRoleType": "Young Sister of Board member",
      "numberOfShares": 413924,
      "ownershipPct": 3.7059662238537037,
      "groupPct": 18.058173760254274,
      "effectiveDate": "2024-06-24"
    },
    {
      "code": "HLS",
      "shareholderType": "PERSON",
      "shareholderName": "Nguyễn Thị Thanh Tân",
      "roleType": "Em gái của Thành viên HĐQT",
      "enRoleType": "Young Sister of Board member",
      "numberOfShares": 413924,
      "ownershipPct": 3.7059662238537037,
      "groupPct": 31.81296654840912,
      "effectiveDate": "2024-06-24"
    },
    {
      "code": "HLS",
      "shareholderType": "PERSON",
      "shareholderName": "Hoàng Tiến Thuận",
      "roleType": "Con của Thành viên BKS",
      "enRoleType": "Child of Control member",
      "numberOfShares": 330000,
      "ownershipPct": 2.9545734334605442,
      "groupPct": 5.866923326581088,
      "effectiveDate": "2024-07-12"
    }
  ],
  "currentPage": 1,
  "size": 10,
  "totalElements": 20,
  "totalPages": 2
}