{
  "data": [
    {
      "code": "HLY",
      "shareholderType": "COMPANY",
      "shareholderName": "SCIC",
      "roleType": "Cổ đông lớn",
      "enRoleType": "Major Shareholder",
      "numberOfShares": 260000,
      "ownershipPct": 26.002470234672295,
      "effectiveDate": "2020-06-30"
    },
    {
      "code": "HLY",
      "shareholderType": "PERSON",
      "shareholderName": "Nguyễn Minh Tuấn",
      "roleType": "Chủ tịch HĐQT",
      "enRoleType": "Chairman",
      "numberOfShares": 103400,
      "ownershipPct": 10.340982393327366,
      "effectiveDate": "2020-06-30"
    },
    {
      "code": "HLY",
      "shareholderType": "PERSON",
      "shareholderName": "Lê Thị Nhàn",
      "roleType": "Cổ đông lớn",
      "enRoleType": "Major Shareholder",
      "numberOfShares": 97700,
      "ownershipPct": 9.770928238182627,
      "effectiveDate": "2024-01-05"
    },
    {
      "code": "HLY",
      "shareholderType": "PERSON",
      "shareholderName": "Nguyễn Đức Bằng",
      "roleType": "Thành viên HĐQT",
      "enRoleType": "Board member",
      "numberOfShares": 77600,
      "ownershipPct": 7.760737270040654,
      "effectiveDate": "2022-06-30"
    },
    {
      "code": "HLY",
      "shareholderType": "PERSON",
      "shareholderName": "Nguyễn Hợi",
      "roleType": "Thành viên HĐQT",
      "enRoleType": "Board member",
      "numberOfShares": 53480,
      "ownershipPct": 5.348508108270286,
      "effectiveDate": "2020-06-30"
    },
    {
      "code": "HLY",
      "shareholderType": "PERSON",
      "shareholderName": "Shih Kuan Tung",
      "roleType": "Cổ đông lớn",
      "enRoleType": "Major Shareholder",
      "numberOfShares": 49900,
      "ownershipPct": 4.990474095039029,
      "effectiveDate": "2017-04-10"
    },
    {
      "code": "HLY",
      "shareholderType": "PERSON",
      "shareholderName": "Phạm Thị Trà My",
      "roleType": "Cổ đông lớn",
      "enRoleType": "Major Shareholder",
      "numberOfShares": 49804,
      "ownershipPct": 4.98087318295238,
      "effectiveDate": "2023-11-17"
    },
    {
      "code": "HLY",
      "shareholderType": "PERSON",
      "shareholderName": "Lưu Thị Thoa",
      "roleType": "Thành viên HĐQT",
      "enRoleType": "Board member",
      "numberOfShares": 44180,
      "ownershipPct": 4.4184197498762385,
      "effectiveDate": "2020-06-30"
    },
    {
      "code": "HLY",
      "shareholderType": "PERSON",
      "shareholderName": "Ngô Hải Nguyên",
      "roleType": "Cổ đông lớn",
      "enRoleType": "Major Shareholder",
      "numberOfShares": 26080,
      "ownershipPct": 2.6082477835394364,
      "effectiveDate": "2021-12-31"
    },
    {
      "code": "HLY",
      "shareholderType": "PERSON",
      "shareholderName": "Nguyễn Chí Thanh",
      "roleType": "Thành viên HĐQT",
      "enRoleType": "Board member",
      "numberOfShares": 26080,
      "ownershipPct": 2.6082477835394364,
      "effectiveDate": "2022-06-30"
    }
  ],
  "currentPage": 1,
  "size": 10,
  "totalElements": 11,
  "totalPages": 2
}