{"data":[{"code":"HPB","shareholderType":"PERSON","shareholderName":"Mai Văn Bình","roleType":"Chủ tịch HĐQT","enRoleType":"Chairman","numberOfShares":895420,"ownershipPct":24.483758066280213,"effectiveDate":"2020-04-21"},{"code":"HPB","shareholderType":"PERSON","shareholderName":"Trần Thị Thanh Hương","roleType":"Vợ của Thành viên HĐQT","enRoleType":"Wife of Board member","numberOfShares":484720,"ownershipPct":13.253855408509242,"groupPct":25.233238543147763,"effectiveDate":"2024-05-28"},{"code":"HPB","shareholderType":"PERSON","shareholderName":"Trần Thị Thanh Hương","roleType":"Con dâu/rể của Chủ tịch HĐQT","enRoleType":"Child in law of Chairman","numberOfShares":484720,"ownershipPct":13.253855408509242,"groupPct":35.51651536694739,"effectiveDate":"2024-05-28"},{"code":"HPB","shareholderType":"PERSON","shareholderName":"Mai Thúc Định","roleType":"Thành viên HĐQT","enRoleType":"Board member","numberOfShares":376080,"ownershipPct":10.283276823799628,"groupPct":35.51651536694739,"effectiveDate":"2023-06-02"},{"code":"HPB","shareholderType":"PERSON","shareholderName":"Mai Thúc Định","roleType":"Thành viên HĐQT","enRoleType":"Board member","numberOfShares":376080,"ownershipPct":10.283276823799628,"effectiveDate":"2023-06-02"},{"code":"HPB","shareholderType":"PERSON","shareholderName":"Mai Hương","roleType":"Thành viên HĐQT","enRoleType":"Board member","numberOfShares":365440,"ownershipPct":9.992343869627037,"groupPct":35.51651536694739,"effectiveDate":"2023-06-23"},{"code":"HPB","shareholderType":"PERSON","shareholderName":"Mai Hương","roleType":"Thành viên HĐQT","enRoleType":"Board member","numberOfShares":365440,"ownershipPct":9.992343869627037,"groupPct":25.233238543147763,"effectiveDate":"2023-06-23"},{"code":"HPB","shareholderType":"PERSON","shareholderName":"Phạm Duy Dần","roleType":"Cổ đông lớn","enRoleType":"Major Shareholder","numberOfShares":279920,"ownershipPct":7.653942907142076,"effectiveDate":"2020-06-30"},{"code":"HPB","shareholderType":"PERSON","shareholderName":"Bùi Tố Hùng","roleType":"Trưởng BKS","enRoleType":"Head of Control","numberOfShares":273900,"ownershipPct":7.489336104123373,"effectiveDate":"2019-09-24"},{"code":"HPB","shareholderType":"COMPANY","shareholderName":"CTCP Bao bì PP","roleType":"Cổ phiếu quỹ","enRoleType":"Treasury Stock","numberOfShares":222800,"ownershipPct":6.09209231105764,"effectiveDate":"2012-03-05"}],"currentPage":1,"size":10,"totalElements":23,"totalPages":3}