{
  "data": [
    {
      "code": "HPT",
      "shareholderType": "PERSON",
      "shareholderName": "Ngô Vi Đồng",
      "roleType": "Chủ tịch HĐQT",
      "enRoleType": "Chairman",
      "numberOfShares": 1493894,
      "ownershipPct": 13.119686819461267,
      "groupPct": 14.249579266402902,
      "effectiveDate": "2025-09-25"
    },
    {
      "code": "HPT",
      "shareholderType": "COMPANY",
      "shareholderName": "Công ty cổ phần Đầu tư phân phối Satico",
      "roleType": "Cổ đông lớn",
      "enRoleType": "Major Shareholder",
      "numberOfShares": 1262765,
      "ownershipPct": 11.089864024205871,
      "effectiveDate": "2025-09-25"
    },
    {
      "code": "HPT",
      "shareholderType": "PERSON",
      "shareholderName": "Hàn Nguyệt Thu Hương",
      "roleType": "Thành viên HĐQT",
      "enRoleType": "Board member",
      "numberOfShares": 1009636,
      "ownershipPct": 8.866832667949396,
      "effectiveDate": "2025-09-25"
    },
    {
      "code": "HPT",
      "shareholderType": "PERSON",
      "shareholderName": "Đinh Hà Duy Linh",
      "roleType": "Phó chủ tịch HĐQT",
      "enRoleType": "Vice-chairman",
      "numberOfShares": 786544,
      "ownershipPct": 6.907592472910623,
      "effectiveDate": "2025-09-25"
    },
    {
      "code": "HPT",
      "shareholderType": "PERSON",
      "shareholderName": "Đinh Hà Duy Trinh",
      "roleType": "Phó chủ tịch HĐQT",
      "enRoleType": "Vice-chairman",
      "numberOfShares": 632428,
      "ownershipPct": 5.554113809854146,
      "effectiveDate": "2025-09-25"
    },
    {
      "code": "HPT",
      "shareholderType": "PERSON",
      "shareholderName": "Nguyễn Đức Tiến",
      "roleType": "Thành viên HĐQT",
      "enRoleType": "Board member",
      "numberOfShares": 629562,
      "ownershipPct": 5.528944003680096,
      "effectiveDate": "2023-09-26"
    },
    {
      "code": "HPT",
      "shareholderType": "PERSON",
      "shareholderName": "Trương Thị Thanh Thanh",
      "roleType": "Vợ của Thành viên HĐQT",
      "enRoleType": "Wife of Board member",
      "numberOfShares": 282247,
      "ownershipPct": 2.4787516689487235,
      "effectiveDate": "2023-09-26"
    },
    {
      "code": "HPT",
      "shareholderType": "PERSON",
      "shareholderName": "Nguyễn Quyền",
      "roleType": "Thành viên HĐQT",
      "enRoleType": "Board member",
      "numberOfShares": 234221,
      "ownershipPct": 2.056977380283365,
      "effectiveDate": "2023-09-26"
    },
    {
      "code": "HPT",
      "shareholderType": "PERSON",
      "shareholderName": "Ngô Thị Ngọc Hoa",
      "roleType": "Em gái của Chủ tịch HĐQT",
      "enRoleType": "Young Sister of Chairman",
      "numberOfShares": 226961,
      "ownershipPct": 1.9932185551530084,
      "effectiveDate": "2023-09-26"
    },
    {
      "code": "HPT",
      "shareholderType": "COMPANY",
      "shareholderName": "Công nghệ HPT",
      "roleType": "Cổ phiếu quỹ",
      "enRoleType": "Treasury Stock",
      "numberOfShares": 155660,
      "ownershipPct": 1.3670383911558255,
      "effectiveDate": "2010-12-20"
    }
  ],
  "currentPage": 1,
  "size": 10,
  "totalElements": 11,
  "totalPages": 2
}