{"data":[{"code":"HSG","shareholderType":"PERSON","shareholderName":"Lê Phước Vũ","roleType":"Chủ tịch HĐQT","enRoleType":"Chairman","numberOfShares":104845945,"ownershipPct":17.02093444375202,"effectiveDate":"2023-06-26"},{"code":"HSG","shareholderType":"COMPANY","shareholderName":"Deutsche Bank Aktiengesellschaf & Deutsche Investment Management Americas Inc","roleType":"Cổ đông lớn","enRoleType":"Major Shareholder","numberOfShares":28424758,"ownershipPct":4.614541291964279,"effectiveDate":"2023-06-26"},{"code":"HSG","shareholderType":"COMPANY","shareholderName":"Amersham Industries Ltd","roleType":"Cổ đông lớn","enRoleType":"Major Shareholder","numberOfShares":22109500,"ownershipPct":3.5893076273396676,"effectiveDate":"2024-01-30"},{"code":"HSG","shareholderType":"COMPANY","shareholderName":"Epsom Limited","roleType":"Cổ đông lớn","enRoleType":"Major Shareholder","numberOfShares":18935875,"ownershipPct":3.0740939672019056,"effectiveDate":"2023-06-26"},{"code":"HSG","shareholderType":"COMPANY","shareholderName":"Vietnam Enterprise Investments Limited","roleType":"Cổ đông lớn","enRoleType":"Major Shareholder","numberOfShares":17406000,"ownershipPct":2.825730503244047,"effectiveDate":"2024-03-15"},{"code":"HSG","shareholderType":"COMPANY","shareholderName":"Tundra Vietnam Fund","roleType":"Cổ đông lớn","enRoleType":"Major Shareholder","numberOfShares":17107898,"ownershipPct":2.777335931574619,"effectiveDate":"2023-06-26"},{"code":"HSG","shareholderType":"PERSON","shareholderName":"Lê Phụng Hào","roleType":"Cổ đông lớn","enRoleType":"Major Shareholder","numberOfShares":16394666,"ownershipPct":2.6615481906640275,"effectiveDate":"2023-06-26"},{"code":"HSG","shareholderType":"COMPANY","shareholderName":"Deutsche Bank AG, London Branch","roleType":"Cổ đông lớn","enRoleType":"Major Shareholder","numberOfShares":12198382,"ownershipPct":1.9803136911193338,"effectiveDate":"2023-06-26"},{"code":"HSG","shareholderType":"COMPANY","shareholderName":"Hanoi Investments Holdings Limited","roleType":"Cổ đông lớn","enRoleType":"Major Shareholder","numberOfShares":11500000,"ownershipPct":1.8669367337301241,"effectiveDate":"2024-03-15"},{"code":"HSG","shareholderType":"COMPANY","shareholderName":"Norges Bank","roleType":"Cổ đông lớn","enRoleType":"Major Shareholder","numberOfShares":11260000,"ownershipPct":1.8279745758087997,"effectiveDate":"2024-03-15"}],"currentPage":1,"size":10,"totalElements":14,"totalPages":2}