{
  "data": [
    {
      "code": "HTL",
      "shareholderType": "PERSON",
      "shareholderName": "Lã Văn Trường Sơn",
      "roleType": "Thành viên HĐQT",
      "enRoleType": "Board member",
      "numberOfShares": 3705657,
      "ownershipPct": 30.880475,
      "groupPct": 33.248533333333334,
      "effectiveDate": "2024-01-25"
    },
    {
      "code": "HTL",
      "shareholderType": "PERSON",
      "shareholderName": "Nguyễn Thị Kiều Diễm",
      "roleType": "Chủ tịch HĐQT",
      "enRoleType": "Chairman",
      "numberOfShares": 3038146,
      "ownershipPct": 25.317883333333334,
      "effectiveDate": "2020-06-30"
    },
    {
      "code": "HTL",
      "shareholderType": "COMPANY",
      "shareholderName": "CHAIRATCHAKARN (BANGKOK) CO., LTD",
      "roleType": "Cổ đông lớn",
      "enRoleType": "Major Shareholder",
      "numberOfShares": 2946664,
      "ownershipPct": 24.555533333333333,
      "effectiveDate": "2020-06-30"
    },
    {
      "code": "HTL",
      "shareholderType": "PERSON",
      "shareholderName": "Sumit Petcharapyrat",
      "roleType": "Thành viên HĐQT",
      "enRoleType": "Board member",
      "numberOfShares": 2946664,
      "ownershipPct": 24.555533333333333,
      "effectiveDate": "2023-06-30"
    },
    {
      "code": "HTL",
      "shareholderType": "COMPANY",
      "shareholderName": "KITMC Worldwide Vietnam Fund 1",
      "roleType": "Cổ đông lớn",
      "enRoleType": "Major Shareholder",
      "numberOfShares": 1680000,
      "ownershipPct": 14,
      "effectiveDate": "2023-02-01"
    },
    {
      "code": "HTL",
      "shareholderType": "PERSON",
      "shareholderName": "Hiroshi Kubo",
      "roleType": "Cổ đông lớn",
      "enRoleType": "Major Shareholder",
      "numberOfShares": 840000,
      "ownershipPct": 7,
      "effectiveDate": "2023-06-30"
    },
    {
      "code": "HTL",
      "shareholderType": "COMPANY",
      "shareholderName": "Aichi Hino Motor Co., LTD",
      "roleType": "Cổ đông lớn",
      "enRoleType": "Major Shareholder",
      "numberOfShares": 600000,
      "ownershipPct": 5,
      "effectiveDate": "2016-10-06"
    },
    {
      "code": "HTL",
      "shareholderType": "PERSON",
      "shareholderName": "Lã Ngọc Đan Chinh",
      "roleType": "Con của Thành viên HĐQT",
      "enRoleType": "Child of Board member",
      "numberOfShares": 434167,
      "ownershipPct": 3.6180583333333334,
      "groupPct": 7.956575,
      "effectiveDate": "2024-12-26"
    },
    {
      "code": "HTL",
      "shareholderType": "PERSON",
      "shareholderName": "Lã Ngọc Đan Thanh",
      "roleType": "Con của Thành viên HĐQT",
      "enRoleType": "Child of Board member",
      "numberOfShares": 284167,
      "ownershipPct": 2.3680583333333334,
      "groupPct": 7.956575,
      "effectiveDate": "2024-12-18"
    },
    {
      "code": "HTL",
      "shareholderType": "PERSON",
      "shareholderName": "Lã Ngọc Đan Thanh",
      "roleType": "Con của Chủ tịch HĐQT",
      "enRoleType": "Child of Chairman",
      "numberOfShares": 284167,
      "ownershipPct": 2.3680583333333334,
      "groupPct": 33.248533333333334,
      "effectiveDate": "2024-12-18"
    }
  ],
  "currentPage": 1,
  "size": 10,
  "totalElements": 11,
  "totalPages": 2
}