{
  "data": [
    {
      "code": "HUT",
      "shareholderType": "PERSON",
      "shareholderName": "Nguyễn Hữu Quang",
      "roleType": "Cổ đông lớn",
      "enRoleType": "Major Shareholder",
      "numberOfShares": 45000000,
      "ownershipPct": 4.201624344610327,
      "effectiveDate": "2023-09-05"
    },
    {
      "code": "HUT",
      "shareholderType": "PERSON",
      "shareholderName": "Đinh Thị Nhung",
      "roleType": "Cổ đông lớn",
      "enRoleType": "Major Shareholder",
      "numberOfShares": 45000000,
      "ownershipPct": 4.201624344610327,
      "effectiveDate": "2023-09-05"
    },
    {
      "code": "HUT",
      "shareholderType": "PERSON",
      "shareholderName": "Nguyễn Hồng Quân",
      "roleType": "Cổ đông lớn",
      "enRoleType": "Major Shareholder",
      "numberOfShares": 45000000,
      "ownershipPct": 4.201624344610327,
      "effectiveDate": "2023-09-05"
    },
    {
      "code": "HUT",
      "shareholderType": "PERSON",
      "shareholderName": "Nguyễn Văn Dũng",
      "roleType": "Cổ đông lớn",
      "enRoleType": "Major Shareholder",
      "numberOfShares": 44985000,
      "ownershipPct": 4.200223803162124,
      "effectiveDate": "2024-07-02"
    },
    {
      "code": "HUT",
      "shareholderType": "PERSON",
      "shareholderName": "Lý Minh Quang",
      "roleType": "Cổ đông lớn",
      "enRoleType": "Major Shareholder",
      "numberOfShares": 43564000,
      "ownershipPct": 4.067545843302318,
      "effectiveDate": "2023-09-05"
    },
    {
      "code": "HUT",
      "shareholderType": "PERSON",
      "shareholderName": "Đỗ Quốc Tuyển",
      "roleType": "Cổ đông lớn",
      "enRoleType": "Major Shareholder",
      "numberOfShares": 43000000,
      "ownershipPct": 4.014885484849868,
      "effectiveDate": "2023-09-05"
    },
    {
      "code": "HUT",
      "shareholderType": "PERSON",
      "shareholderName": "Đỗ Thị Thúy Hường",
      "roleType": "Cổ đông lớn",
      "enRoleType": "Major Shareholder",
      "numberOfShares": 43000000,
      "ownershipPct": 4.014885484849868,
      "effectiveDate": "2023-09-05"
    },
    {
      "code": "HUT",
      "shareholderType": "PERSON",
      "shareholderName": "Đinh Tân Trang",
      "roleType": "Cổ đông lớn",
      "enRoleType": "Major Shareholder",
      "numberOfShares": 43000000,
      "ownershipPct": 4.014885484849868,
      "effectiveDate": "2023-09-05"
    },
    {
      "code": "HUT",
      "shareholderType": "PERSON",
      "shareholderName": "Đào Minh Tuấn",
      "roleType": "Cổ đông lớn",
      "enRoleType": "Major Shareholder",
      "numberOfShares": 43000000,
      "ownershipPct": 4.014885484849868,
      "effectiveDate": "2023-09-05"
    },
    {
      "code": "HUT",
      "shareholderType": "PERSON",
      "shareholderName": "Lê Văn Tới",
      "roleType": "Cổ đông lớn",
      "enRoleType": "Major Shareholder",
      "numberOfShares": 42000000,
      "ownershipPct": 3.9215160549696386,
      "effectiveDate": "2023-09-05"
    }
  ],
  "currentPage": 1,
  "size": 10,
  "totalElements": 17,
  "totalPages": 2
}