{
  "data": [
    {
      "code": "HVA",
      "shareholderType": "COMPANY",
      "shareholderName": "JADE LABS PTE.LTD",
      "roleType": "Cổ đông lớn",
      "enRoleType": "Major Shareholder",
      "numberOfShares": 3315000,
      "ownershipPct": 24.285714285714285,
      "effectiveDate": "2024-01-23"
    },
    {
      "code": "HVA",
      "shareholderType": "PERSON",
      "shareholderName": "Vương Lê Vĩnh Nhân",
      "roleType": "Chủ tịch HĐQT",
      "enRoleType": "Chairman",
      "numberOfShares": 2145340,
      "ownershipPct": 15.716776556776557,
      "effectiveDate": "2022-06-30"
    },
    {
      "code": "HVA",
      "shareholderType": "COMPANY",
      "shareholderName": "Công ty TNHH Công nghệ y tế Metacare",
      "roleType": "Cổ đông lớn",
      "enRoleType": "Major Shareholder",
      "numberOfShares": 2108600,
      "ownershipPct": 15.447619047619048,
      "effectiveDate": "2024-10-29"
    },
    {
      "code": "HVA",
      "shareholderType": "COMPANY",
      "shareholderName": "CTCP LIVETRADE",
      "roleType": "Cổ đông lớn",
      "enRoleType": "Major Shareholder",
      "numberOfShares": 1747600,
      "ownershipPct": 12.802930402930404,
      "effectiveDate": "2024-10-24"
    },
    {
      "code": "HVA",
      "shareholderType": "PERSON",
      "shareholderName": "Trần Quang Chiến",
      "roleType": "Cổ đông lớn",
      "enRoleType": "Major Shareholder",
      "numberOfShares": 1001100,
      "ownershipPct": 7.334065934065934,
      "effectiveDate": "2025-08-20"
    },
    {
      "code": "HVA",
      "shareholderType": "PERSON",
      "shareholderName": "Nguyễn Văn Hùng",
      "roleType": "Cổ đông lớn",
      "enRoleType": "Major Shareholder",
      "numberOfShares": 676000,
      "ownershipPct": 4.9523809523809526,
      "effectiveDate": "2023-10-04"
    },
    {
      "code": "HVA",
      "shareholderType": "PERSON",
      "shareholderName": "Phạm Tấn Hùng",
      "roleType": "Cổ đông lớn",
      "enRoleType": "Major Shareholder",
      "numberOfShares": 621500,
      "ownershipPct": 4.553113553113553,
      "effectiveDate": "2024-01-24"
    },
    {
      "code": "HVA",
      "shareholderType": "PERSON",
      "shareholderName": "Đỗ Văn Tuấn",
      "roleType": "Cổ đông lớn",
      "enRoleType": "Major Shareholder",
      "numberOfShares": 544600,
      "ownershipPct": 3.98974358974359,
      "effectiveDate": "2024-04-16"
    },
    {
      "code": "HVA",
      "shareholderType": "PERSON",
      "shareholderName": "Lê Hoài Nam",
      "roleType": "Cổ đông lớn",
      "enRoleType": "Major Shareholder",
      "numberOfShares": 439000,
      "ownershipPct": 3.2161172161172162,
      "effectiveDate": "2021-06-30"
    },
    {
      "code": "HVA",
      "shareholderType": "PERSON",
      "shareholderName": "Nguyễn Minh Duy",
      "roleType": "Phó TGĐ",
      "enRoleType": "Deputy CEO",
      "numberOfShares": 426521,
      "ownershipPct": 3.1246959706959707,
      "effectiveDate": "2023-10-18"
    }
  ],
  "currentPage": 1,
  "size": 10,
  "totalElements": 19,
  "totalPages": 2
}