{
  "data": [
    {
      "code": "IBD",
      "shareholderType": "PERSON",
      "shareholderName": "Hách Thanh Toàn",
      "roleType": "Chủ tịch HĐQT",
      "enRoleType": "Chairman",
      "numberOfShares": 3462910,
      "ownershipPct": 38.47677777777778,
      "groupPct": 53.79965555555555,
      "effectiveDate": "2024-10-14"
    },
    {
      "code": "IBD",
      "shareholderType": "PERSON",
      "shareholderName": "Vũ Thế Anh",
      "roleType": "Thành viên HĐQT",
      "enRoleType": "Board member",
      "numberOfShares": 2610000,
      "ownershipPct": 29,
      "effectiveDate": "2023-12-31"
    },
    {
      "code": "IBD",
      "shareholderType": "COMPANY",
      "shareholderName": "Công ty TNHH MTV XSKT Bình Dương",
      "roleType": "Cổ đông lớn",
      "enRoleType": "Major Shareholder",
      "numberOfShares": 2610000,
      "ownershipPct": 29,
      "effectiveDate": "2020-09-18"
    },
    {
      "code": "IBD",
      "shareholderType": "PERSON",
      "shareholderName": "Nguyễn Tuấn Anh",
      "roleType": "Cổ đông lớn",
      "enRoleType": "Major Shareholder",
      "numberOfShares": 1665000,
      "ownershipPct": 18.5,
      "effectiveDate": "2022-12-31"
    },
    {
      "code": "IBD",
      "shareholderType": "PERSON",
      "shareholderName": "Nguyễn Thị Như Hoa",
      "roleType": "Nhóm cổ đông lớn",
      "enRoleType": "Major Shareholder Group",
      "numberOfShares": 1379059,
      "ownershipPct": 15.322877777777778,
      "groupPct": 53.79965555555555,
      "effectiveDate": "2022-12-31"
    },
    {
      "code": "IBD",
      "shareholderType": "PERSON",
      "shareholderName": "Nguyễn Thị Như Hoa",
      "roleType": "Chị/em dâu của Chủ tịch HĐQT",
      "enRoleType": "Sister in law of Chairman",
      "numberOfShares": 1379059,
      "ownershipPct": 15.322877777777778,
      "effectiveDate": "2022-12-31"
    },
    {
      "code": "IBD",
      "shareholderType": "PERSON",
      "shareholderName": "Trần Thị Hương Xuân",
      "roleType": "Cổ đông lớn",
      "enRoleType": "Major Shareholder",
      "numberOfShares": 282080,
      "ownershipPct": 3.1342222222222222,
      "effectiveDate": "2022-08-09"
    },
    {
      "code": "IBD",
      "shareholderType": "PERSON",
      "shareholderName": "Trần Thị Xuân Hương",
      "roleType": "Cổ đông lớn",
      "enRoleType": "Major Shareholder",
      "numberOfShares": 282080,
      "ownershipPct": 3.1342222222222222,
      "effectiveDate": "2020-12-31"
    },
    {
      "code": "IBD",
      "shareholderType": "PERSON",
      "shareholderName": "Nguyễn Công Luận",
      "roleType": "Đại diện CBTT",
      "enRoleType": "Spokeman",
      "numberOfShares": 179021,
      "ownershipPct": 1.9891222222222222,
      "effectiveDate": "2020-12-31"
    },
    {
      "code": "IBD",
      "shareholderType": "PERSON",
      "shareholderName": "Nguyễn Thị Thùy Dương",
      "roleType": "Cổ đông lớn",
      "enRoleType": "Major Shareholder",
      "numberOfShares": 132870,
      "ownershipPct": 1.4763333333333333,
      "effectiveDate": "2022-12-31"
    }
  ],
  "currentPage": 1,
  "size": 10,
  "totalElements": 12,
  "totalPages": 2
}