{
  "data": [
    {
      "code": "ICG",
      "shareholderType": "PERSON",
      "shareholderName": "Phạm Hùng",
      "roleType": "Chủ tịch HĐQT",
      "enRoleType": "Chairman",
      "numberOfShares": 3401499,
      "ownershipPct": 19.35749487821534,
      "effectiveDate": "2023-06-30"
    },
    {
      "code": "ICG",
      "shareholderType": "COMPANY",
      "shareholderName": "Công ty TNHH MTV Đầu tư Thanh Long",
      "roleType": "Cổ đông lớn",
      "enRoleType": "Major Shareholder",
      "numberOfShares": 3355100,
      "ownershipPct": 19.093444115638516,
      "effectiveDate": "2019-10-10"
    },
    {
      "code": "ICG",
      "shareholderType": "COMPANY",
      "shareholderName": "Xây dựng sông Hồng",
      "roleType": "Cổ phiếu quỹ",
      "enRoleType": "Treasury Stock",
      "numberOfShares": 2428000,
      "ownershipPct": 13.817436831322558,
      "effectiveDate": "2019-03-22"
    },
    {
      "code": "ICG",
      "shareholderType": "PERSON",
      "shareholderName": "Võ Ngọc Hùng",
      "roleType": "Cổ đông lớn",
      "enRoleType": "Major Shareholder",
      "numberOfShares": 1990000,
      "ownershipPct": 11.324834964716594,
      "effectiveDate": "2021-12-31"
    },
    {
      "code": "ICG",
      "shareholderType": "COMPANY",
      "shareholderName": "Hanshin Engineering and Construction CO.,Ltd",
      "roleType": "Cổ đông lớn",
      "enRoleType": "Major Shareholder",
      "numberOfShares": 1197000,
      "ownershipPct": 6.811973594354655,
      "effectiveDate": "2020-06-30"
    },
    {
      "code": "ICG",
      "shareholderType": "PERSON",
      "shareholderName": "Trử Hoài Nam",
      "roleType": "Thành viên HĐQT",
      "enRoleType": "Board member",
      "numberOfShares": 999000,
      "ownershipPct": 5.685180969724562,
      "effectiveDate": "2020-12-31"
    },
    {
      "code": "ICG",
      "shareholderType": "COMPANY",
      "shareholderName": "ASEAN Deep Value Fund",
      "roleType": "Cổ đông lớn",
      "enRoleType": "Major Shareholder",
      "numberOfShares": 990900,
      "ownershipPct": 5.639084907807876,
      "effectiveDate": "2017-05-04"
    },
    {
      "code": "ICG",
      "shareholderType": "COMPANY",
      "shareholderName": "Asean Small Cap Fund",
      "roleType": "Cổ đông lớn",
      "enRoleType": "Major Shareholder",
      "numberOfShares": 990900,
      "ownershipPct": 5.639084907807876,
      "effectiveDate": "2020-06-30"
    },
    {
      "code": "ICG",
      "shareholderType": "PERSON",
      "shareholderName": "Phạm Đỗ Nhật Hưng",
      "roleType": "Cổ đông lớn",
      "enRoleType": "Major Shareholder",
      "numberOfShares": 990000,
      "ownershipPct": 5.633963123150466,
      "effectiveDate": "2014-10-02"
    },
    {
      "code": "ICG",
      "shareholderType": "COMPANY",
      "shareholderName": "Tập đoàn F.I.T",
      "roleType": "Cổ đông lớn",
      "enRoleType": "Major Shareholder",
      "numberOfShares": 950000,
      "ownershipPct": 5.406328249487822,
      "effectiveDate": "2010-10-04"
    }
  ],
  "currentPage": 1,
  "size": 10,
  "totalElements": 16,
  "totalPages": 2
}