{
  "data": [
    {
      "code": "IDC",
      "shareholderType": "COMPANY",
      "shareholderName": "Công ty Cổ phần Tập đoàn SSG",
      "roleType": "Cổ đông lớn",
      "enRoleType": "Major Shareholder",
      "numberOfShares": 74250000,
      "ownershipPct": 22.501300370604145,
      "effectiveDate": "2022-06-27"
    },
    {
      "code": "IDC",
      "shareholderType": "PERSON",
      "shareholderName": "Đặng Thế Đô",
      "roleType": "Cổ đông lớn",
      "enRoleType": "Major Shareholder",
      "numberOfShares": 39361300,
      "ownershipPct": 11.92835601720486,
      "effectiveDate": "2022-06-27"
    },
    {
      "code": "IDC",
      "shareholderType": "COMPANY",
      "shareholderName": "Công ty TNHH Sản xuất và Thương Mại Bách Việt",
      "roleType": "Cổ đông lớn",
      "enRoleType": "Major Shareholder",
      "numberOfShares": 39361300,
      "ownershipPct": 11.92835601720486,
      "effectiveDate": "2022-06-27"
    },
    {
      "code": "IDC",
      "shareholderType": "COMPANY",
      "shareholderName": "Công ty TNHH Kinh doanh và cho thuê nhà Tân Bách Việt",
      "roleType": "Cổ đông lớn",
      "enRoleType": "Major Shareholder",
      "numberOfShares": 9593000,
      "ownershipPct": 2.9071377031004118,
      "effectiveDate": "2023-11-09"
    },
    {
      "code": "IDC",
      "shareholderType": "PERSON",
      "shareholderName": "Đặng Việt Dũng",
      "roleType": "Cổ đông lớn",
      "enRoleType": "Major Shareholder",
      "numberOfShares": 8360000,
      "ownershipPct": 2.533479745430985,
      "effectiveDate": "2022-06-27"
    },
    {
      "code": "IDC",
      "shareholderType": "PERSON",
      "shareholderName": "Đặng Thị Thu",
      "roleType": "Cổ đông lớn",
      "enRoleType": "Major Shareholder",
      "numberOfShares": 7600000,
      "ownershipPct": 2.3031634049372594,
      "effectiveDate": "2021-05-14"
    },
    {
      "code": "IDC",
      "shareholderType": "COMPANY",
      "shareholderName": "Norges Bank",
      "roleType": "Cổ đông lớn",
      "enRoleType": "Major Shareholder",
      "numberOfShares": 6819500,
      "ownershipPct": 2.0666345842065317,
      "effectiveDate": "2025-02-26"
    },
    {
      "code": "IDC",
      "shareholderType": "COMPANY",
      "shareholderName": "Hanoi Investments Holdings Limited",
      "roleType": "Cổ đông lớn",
      "enRoleType": "Major Shareholder",
      "numberOfShares": 5712700,
      "ownershipPct": 1.7312212609717212,
      "effectiveDate": "2025-02-26"
    },
    {
      "code": "IDC",
      "shareholderType": "COMPANY",
      "shareholderName": "Vietnam Enterprise Investments Limited",
      "roleType": "Cổ đông lớn",
      "enRoleType": "Major Shareholder",
      "numberOfShares": 3716000,
      "ownershipPct": 1.1261256858877442,
      "effectiveDate": "2025-02-12"
    },
    {
      "code": "IDC",
      "shareholderType": "COMPANY",
      "shareholderName": "Amersham Industries Ltd",
      "roleType": "Cổ đông lớn",
      "enRoleType": "Major Shareholder",
      "numberOfShares": 3566300,
      "ownershipPct": 1.0807594277668089,
      "effectiveDate": "2025-02-26"
    }
  ],
  "currentPage": 1,
  "size": 10,
  "totalElements": 11,
  "totalPages": 2
}