{
  "data": [
    {
      "code": "IDV",
      "shareholderType": "COMPANY",
      "shareholderName": "American LLC",
      "roleType": "Cổ đông lớn",
      "enRoleType": "Major Shareholder",
      "numberOfShares": 6242407,
      "ownershipPct": 15.137960466696997,
      "effectiveDate": "2024-03-04"
    },
    {
      "code": "IDV",
      "shareholderType": "COMPANY",
      "shareholderName": "America LLC",
      "roleType": "Cổ đông lớn",
      "enRoleType": "Major Shareholder",
      "numberOfShares": 5073848,
      "ownershipPct": 12.30418177443887,
      "effectiveDate": "2024-03-04"
    },
    {
      "code": "IDV",
      "shareholderType": "PERSON",
      "shareholderName": "Hoàng Đình Thắng",
      "roleType": "Chủ tịch HĐQT",
      "enRoleType": "Chairman",
      "numberOfShares": 4533814,
      "ownershipPct": 10.994588641105487,
      "effectiveDate": "2024-03-04"
    },
    {
      "code": "IDV",
      "shareholderType": "PERSON",
      "shareholderName": "Nguyễn Thị Kiến",
      "roleType": "Vợ của Chủ tịch HĐQT",
      "enRoleType": "Wife of Chairman",
      "numberOfShares": 2855770,
      "ownershipPct": 6.925298744855835,
      "effectiveDate": "2025-03-10"
    },
    {
      "code": "IDV",
      "shareholderType": "PERSON",
      "shareholderName": "Trịnh Việt Dũng",
      "roleType": "Phó chủ tịch HĐQT",
      "enRoleType": "Vice-chairman",
      "numberOfShares": 2853145,
      "ownershipPct": 6.918933067926235,
      "effectiveDate": "2024-03-04"
    },
    {
      "code": "IDV",
      "shareholderType": "PERSON",
      "shareholderName": "Trịnh Việt Dũng",
      "roleType": "Phó chủ tịch HĐQT",
      "enRoleType": "Vice-chairman",
      "numberOfShares": 2853145,
      "ownershipPct": 6.918933067926235,
      "effectiveDate": "2024-03-04"
    },
    {
      "code": "IDV",
      "shareholderType": "PERSON",
      "shareholderName": "Văn Phụng Hà",
      "roleType": "Cổ đông lớn",
      "enRoleType": "Major Shareholder",
      "numberOfShares": 1955584,
      "ownershipPct": 4.742329886741634,
      "effectiveDate": "2025-03-10"
    },
    {
      "code": "IDV",
      "shareholderType": "COMPANY",
      "shareholderName": "Công ty TNHH một thành viên VPID Hà Nội",
      "roleType": "Cổ đông lớn",
      "enRoleType": "Major Shareholder",
      "numberOfShares": 1650766,
      "ownershipPct": 4.0031402066170205,
      "effectiveDate": "2024-03-04"
    },
    {
      "code": "IDV",
      "shareholderType": "PERSON",
      "shareholderName": "Tạ Phạm Bích Thủy",
      "roleType": "Vợ của Phó chủ tịch HĐQT",
      "enRoleType": "Wife of Vice-chairman",
      "numberOfShares": 1563474,
      "ownershipPct": 3.7914553797451243,
      "groupPct": 5.491144470383803,
      "effectiveDate": "2024-03-04"
    },
    {
      "code": "IDV",
      "shareholderType": "PERSON",
      "shareholderName": "Lê Tùng Sơn",
      "roleType": "Thành viên HĐQT",
      "enRoleType": "Board member",
      "numberOfShares": 1209640,
      "ownershipPct": 2.9334009299514365,
      "effectiveDate": "2024-03-04"
    }
  ],
  "currentPage": 1,
  "size": 10,
  "totalElements": 20,
  "totalPages": 2
}