{
  "data": [
    {
      "code": "IHK",
      "shareholderType": "PERSON",
      "shareholderName": "Phạm Quang Thiệp",
      "roleType": "Chủ tịch HĐQT",
      "enRoleType": "Chairman",
      "numberOfShares": 284338,
      "ownershipPct": 13.274862647110453,
      "effectiveDate": "2016-05-16"
    },
    {
      "code": "IHK",
      "shareholderType": "PERSON",
      "shareholderName": "Lý Thị Phương",
      "roleType": "Vợ của Chủ tịch HĐQT",
      "enRoleType": "Wife of Chairman",
      "numberOfShares": 242400,
      "ownershipPct": 11.316907010879918,
      "effectiveDate": "2017-03-13"
    },
    {
      "code": "IHK",
      "shareholderType": "PERSON",
      "shareholderName": "Lê Xuân Thành",
      "roleType": "Thành viên HĐQT",
      "enRoleType": "Board member",
      "numberOfShares": 135965,
      "ownershipPct": 6.34778573322726,
      "effectiveDate": "2023-06-30"
    },
    {
      "code": "IHK",
      "shareholderType": "PERSON",
      "shareholderName": "Ngô Xuân Giảng",
      "roleType": "Kế toán trưởng",
      "enRoleType": "Chief Accountant",
      "numberOfShares": 109603,
      "ownershipPct": 5.117025408883959,
      "effectiveDate": "2016-05-16"
    },
    {
      "code": "IHK",
      "shareholderType": "PERSON",
      "shareholderName": "Nguyễn Văn Chỉnh",
      "roleType": "Thành viên HĐQT",
      "enRoleType": "Board member",
      "numberOfShares": 109101,
      "ownershipPct": 5.093588580008292,
      "effectiveDate": "2023-12-20"
    },
    {
      "code": "IHK",
      "shareholderType": "PERSON",
      "shareholderName": "Trần Văn Xê",
      "roleType": "Thành viên BKS",
      "enRoleType": "Control member",
      "numberOfShares": 102652,
      "ownershipPct": 4.7925046967031575,
      "effectiveDate": "2020-06-30"
    },
    {
      "code": "IHK",
      "shareholderType": "PERSON",
      "shareholderName": "Phạm Phương Nga",
      "roleType": "Vợ của Thành viên HĐQT",
      "enRoleType": "Wife of Board member",
      "numberOfShares": 100000,
      "ownershipPct": 4.6686910110890745,
      "effectiveDate": "2015-12-04"
    },
    {
      "code": "IHK",
      "shareholderType": "PERSON",
      "shareholderName": "Nguyễn Thái Linh",
      "roleType": "Thành viên HĐQT",
      "enRoleType": "Board member",
      "numberOfShares": 81345,
      "ownershipPct": 3.797746702970408,
      "effectiveDate": "2020-06-30"
    },
    {
      "code": "IHK",
      "shareholderType": "COMPANY",
      "shareholderName": "Công ty Cổ Phần Thương mại và In Trưởng Đạt",
      "roleType": "Cổ đông lớn",
      "enRoleType": "Major Shareholder",
      "numberOfShares": 73827,
      "ownershipPct": 3.446754512756731,
      "effectiveDate": "2020-06-30"
    },
    {
      "code": "IHK",
      "shareholderType": "PERSON",
      "shareholderName": "Lý Đức Tâm",
      "roleType": "Thành viên HĐQT",
      "enRoleType": "Board member",
      "numberOfShares": 62339,
      "ownershipPct": 2.9104152894028186,
      "effectiveDate": "2017-08-23"
    }
  ],
  "currentPage": 1,
  "size": 10,
  "totalElements": 11,
  "totalPages": 2
}