{
  "data": [
    {
      "code": "INN",
      "shareholderType": "PERSON",
      "shareholderName": "Nguyễn Thành Nam",
      "roleType": "Chủ tịch HĐQT",
      "enRoleType": "Chairman",
      "numberOfShares": 5769708,
      "ownershipPct": 21.36928888888889,
      "effectiveDate": "2025-09-25"
    },
    {
      "code": "INN",
      "shareholderType": "PERSON",
      "shareholderName": "Lê Xuân Lương",
      "roleType": "Cổ đông lớn",
      "enRoleType": "Major Shareholder",
      "numberOfShares": 1357350,
      "ownershipPct": 5.027222222222222,
      "effectiveDate": "2025-09-25"
    },
    {
      "code": "INN",
      "shareholderType": "PERSON",
      "shareholderName": "Bùi Thành Đạt",
      "roleType": "Cổ đông lớn",
      "enRoleType": "Major Shareholder",
      "numberOfShares": 1349250,
      "ownershipPct": 4.997222222222222,
      "effectiveDate": "2025-09-25"
    },
    {
      "code": "INN",
      "shareholderType": "COMPANY",
      "shareholderName": "Finansia Syrus Securities Public Company Limited",
      "roleType": "Cổ đông lớn",
      "enRoleType": "Major Shareholder",
      "numberOfShares": 1052610,
      "ownershipPct": 3.8985555555555558,
      "effectiveDate": "2025-09-25"
    },
    {
      "code": "INN",
      "shareholderType": "COMPANY",
      "shareholderName": "Công ty TNHH Chứng khoán Ngân hàng Thương mại Cổ phần Ngoại thương Việt Nam ",
      "roleType": "Cổ đông lớn",
      "enRoleType": "Major Shareholder",
      "numberOfShares": 1042567,
      "ownershipPct": 3.861359259259259,
      "effectiveDate": "2025-09-25"
    },
    {
      "code": "INN",
      "shareholderType": "PERSON",
      "shareholderName": "Nguyễn Thành Thái",
      "roleType": "Phó chủ tịch HĐQT",
      "enRoleType": "Vice-chairman",
      "numberOfShares": 942000,
      "ownershipPct": 3.488888888888889,
      "effectiveDate": "2025-09-25"
    },
    {
      "code": "INN",
      "shareholderType": "PERSON",
      "shareholderName": "Vũ Hồng Tuyến",
      "roleType": "Cổ đông lớn",
      "enRoleType": "Major Shareholder",
      "numberOfShares": 738652,
      "ownershipPct": 2.735748148148148,
      "effectiveDate": "2025-09-25"
    },
    {
      "code": "INN",
      "shareholderType": "PERSON",
      "shareholderName": "Nguyễn Như Song",
      "roleType": "Cổ đông lớn",
      "enRoleType": "Major Shareholder",
      "numberOfShares": 724200,
      "ownershipPct": 2.6822222222222223,
      "effectiveDate": "2025-09-25"
    },
    {
      "code": "INN",
      "shareholderType": "COMPANY",
      "shareholderName": "Công đoàn CTCP Bao bì và In Nông nghiệp",
      "roleType": "Cổ đông lớn",
      "enRoleType": "Major Shareholder",
      "numberOfShares": 592876,
      "ownershipPct": 2.195837037037037,
      "effectiveDate": "2025-09-25"
    },
    {
      "code": "INN",
      "shareholderType": "PERSON",
      "shareholderName": "Nguyễn Linh Chi",
      "roleType": "Con của Kế toán trưởng",
      "enRoleType": "Child of Chief Accountant",
      "numberOfShares": 537300,
      "ownershipPct": 1.99,
      "groupPct": 2.1766666666666667,
      "effectiveDate": "2025-09-25"
    }
  ],
  "currentPage": 1,
  "size": 10,
  "totalElements": 13,
  "totalPages": 2
}