{
  "data": [
    {
      "code": "ITD",
      "shareholderType": "PERSON",
      "shareholderName": "Phạm Sơn Hà",
      "roleType": "Cổ đông lớn",
      "enRoleType": "Major Shareholder",
      "numberOfShares": 2198055,
      "ownershipPct": 8.39823943988889,
      "effectiveDate": "2023-02-13"
    },
    {
      "code": "ITD",
      "shareholderType": "PERSON",
      "shareholderName": "Mai Hoài An",
      "roleType": "Chủ tịch HĐQT",
      "enRoleType": "Chairman",
      "numberOfShares": 2171682,
      "ownershipPct": 8.297474550589854,
      "effectiveDate": "2025-08-07"
    },
    {
      "code": "ITD",
      "shareholderType": "PERSON",
      "shareholderName": "Nguyễn Ngọc Trung",
      "roleType": "Tổng Giám đốc",
      "enRoleType": "CEO",
      "numberOfShares": 1569768,
      "ownershipPct": 5.997705939603651,
      "effectiveDate": "2025-08-07"
    },
    {
      "code": "ITD",
      "shareholderType": "PERSON",
      "shareholderName": "Doãn Thị Bích Ngọc",
      "roleType": "Cổ đông lớn",
      "enRoleType": "Major Shareholder",
      "numberOfShares": 1439081,
      "ownershipPct": 5.498382347755057,
      "effectiveDate": "2025-08-07"
    },
    {
      "code": "ITD",
      "shareholderType": "COMPANY",
      "shareholderName": "America LLC",
      "roleType": "Cổ đông lớn",
      "enRoleType": "Major Shareholder",
      "numberOfShares": 1152752,
      "ownershipPct": 4.404388111676367,
      "effectiveDate": "2023-02-13"
    },
    {
      "code": "ITD",
      "shareholderType": "PERSON",
      "shareholderName": "Nguyễn Đức Thắng",
      "roleType": "Cổ đông lớn",
      "enRoleType": "Major Shareholder",
      "numberOfShares": 1150864,
      "ownershipPct": 4.3971745178115595,
      "effectiveDate": "2023-02-13"
    },
    {
      "code": "ITD",
      "shareholderType": "COMPANY",
      "shareholderName": "Kingsmead Vietnam and Indochina Growth Master Fund",
      "roleType": "Cổ đông lớn",
      "enRoleType": "Major Shareholder",
      "numberOfShares": 1107518,
      "ownershipPct": 4.231559878159038,
      "effectiveDate": "2023-02-13"
    },
    {
      "code": "ITD",
      "shareholderType": "PERSON",
      "shareholderName": "Lê Thị Hồng Trang",
      "roleType": "Vợ của Tổng Giám đốc",
      "enRoleType": "Wife of CEO",
      "numberOfShares": 1106488,
      "ownershipPct": 4.227624495912877,
      "effectiveDate": "2025-08-07"
    },
    {
      "code": "ITD",
      "shareholderType": "COMPANY",
      "shareholderName": "Vietnam Investment Limited",
      "roleType": "Cổ đông lớn",
      "enRoleType": "Major Shareholder",
      "numberOfShares": 1063757,
      "ownershipPct": 4.064359623329664,
      "effectiveDate": "2023-02-13"
    },
    {
      "code": "ITD",
      "shareholderType": "COMPANY",
      "shareholderName": "Chứng khoán MB",
      "roleType": "Cổ đông lớn",
      "enRoleType": "Major Shareholder",
      "numberOfShares": 882983,
      "ownershipPct": 3.373665652293237,
      "effectiveDate": "2023-02-13"
    }
  ],
  "currentPage": 1,
  "size": 10,
  "totalElements": 22,
  "totalPages": 3
}