{
  "data": [
    {
      "code": "KDH",
      "shareholderType": "COMPANY",
      "shareholderName": "CTCP Đầu tư Tiến Lộc",
      "roleType": "Cổ đông lớn",
      "enRoleType": "Major Shareholder",
      "numberOfShares": 114607795,
      "ownershipPct": 10.304076615772896,
      "effectiveDate": "2025-07-17"
    },
    {
      "code": "KDH",
      "shareholderType": "COMPANY",
      "shareholderName": "Công ty TNHH đầu tư Tiên Lộc",
      "roleType": "Cổ đông lớn",
      "enRoleType": "Major Shareholder",
      "numberOfShares": 86578908,
      "ownershipPct": 7.7840752572017715,
      "effectiveDate": "2023-10-03"
    },
    {
      "code": "KDH",
      "shareholderType": "COMPANY",
      "shareholderName": "Công ty TNHH Đầu tư Gam Ma",
      "roleType": "Cổ đông lớn",
      "enRoleType": "Major Shareholder",
      "numberOfShares": 69025669,
      "ownershipPct": 6.205911053702588,
      "effectiveDate": "2023-10-03"
    },
    {
      "code": "KDH",
      "shareholderType": "COMPANY",
      "shareholderName": "Công ty TNHH Đầu tư Thương mại Á Âu",
      "roleType": "Cổ đông lớn",
      "enRoleType": "Major Shareholder",
      "numberOfShares": 67118799,
      "ownershipPct": 6.0344695337229135,
      "effectiveDate": "2023-10-03"
    },
    {
      "code": "KDH",
      "shareholderType": "COMPANY",
      "shareholderName": "Vietnam Enterprise Limited",
      "roleType": "Cổ đông lớn",
      "enRoleType": "Major Shareholder",
      "numberOfShares": 55937072,
      "ownershipPct": 5.029150727051374,
      "effectiveDate": "2023-10-03"
    },
    {
      "code": "KDH",
      "shareholderType": "COMPANY",
      "shareholderName": "PYN ELITE FUND (NON - UCITS)",
      "roleType": "Cổ đông lớn",
      "enRoleType": "Major Shareholder",
      "numberOfShares": 37541396,
      "ownershipPct": 3.375245293281056,
      "effectiveDate": "2023-10-03"
    },
    {
      "code": "KDH",
      "shareholderType": "COMPANY",
      "shareholderName": "CTBC Vietnam Equity Fund",
      "roleType": "Cổ đông lớn",
      "enRoleType": "Major Shareholder",
      "numberOfShares": 31240000,
      "ownershipPct": 2.8087038362158987,
      "effectiveDate": "2025-07-17"
    },
    {
      "code": "KDH",
      "shareholderType": "COMPANY",
      "shareholderName": "Norges Bank",
      "roleType": "Cổ đông lớn",
      "enRoleType": "Major Shareholder",
      "numberOfShares": 29344335,
      "ownershipPct": 2.6382697274553286,
      "effectiveDate": "2025-07-17"
    },
    {
      "code": "KDH",
      "shareholderType": "PERSON",
      "shareholderName": "Mai Trần Thanh Trang",
      "roleType": "Chủ tịch HĐQT",
      "enRoleType": "Chairman",
      "numberOfShares": 28656862,
      "ownershipPct": 2.5764608909510116,
      "effectiveDate": "2025-07-18"
    },
    {
      "code": "KDH",
      "shareholderType": "COMPANY",
      "shareholderName": "Vietnam Enterprise Investments Limited",
      "roleType": "Cổ đông lớn",
      "enRoleType": "Major Shareholder",
      "numberOfShares": 17297288,
      "ownershipPct": 1.5551523419248152,
      "effectiveDate": "2025-07-17"
    }
  ],
  "currentPage": 1,
  "size": 10,
  "totalElements": 15,
  "totalPages": 2
}