{
  "data": [
    {
      "code": "KHL",
      "shareholderType": "PERSON",
      "shareholderName": "Nguyễn Thành Đạt",
      "roleType": "Cổ đông lớn",
      "enRoleType": "Major Shareholder",
      "numberOfShares": 740200,
      "ownershipPct": 6.168333333333333,
      "effectiveDate": "2022-12-31"
    },
    {
      "code": "KHL",
      "shareholderType": "PERSON",
      "shareholderName": "Nguyễn Đình Trường",
      "roleType": "Cổ đông lớn",
      "enRoleType": "Major Shareholder",
      "numberOfShares": 599000,
      "ownershipPct": 4.991666666666666,
      "effectiveDate": "2015-07-08"
    },
    {
      "code": "KHL",
      "shareholderType": "PERSON",
      "shareholderName": "Trần Anh Tú",
      "roleType": "Tổng Giám đốc",
      "enRoleType": "CEO",
      "numberOfShares": 562000,
      "ownershipPct": 4.683333333333334,
      "effectiveDate": "2024-12-31"
    },
    {
      "code": "KHL",
      "shareholderType": "PERSON",
      "shareholderName": "Lê Văn An",
      "roleType": "Đại diện CBTT",
      "enRoleType": "Spokeman",
      "numberOfShares": 485000,
      "ownershipPct": 4.041666666666667,
      "effectiveDate": "2025-06-20"
    },
    {
      "code": "KHL",
      "shareholderType": "PERSON",
      "shareholderName": "Lê Văn An",
      "roleType": "Chủ tịch HĐQT",
      "enRoleType": "Chairman",
      "numberOfShares": 439900,
      "ownershipPct": 3.6658333333333335,
      "effectiveDate": "2023-12-31"
    },
    {
      "code": "KHL",
      "shareholderType": "PERSON",
      "shareholderName": "Đỗ Văn Tuấn",
      "roleType": "Cổ đông lớn",
      "enRoleType": "Major Shareholder",
      "numberOfShares": 426300,
      "ownershipPct": 3.5525,
      "effectiveDate": "2021-06-11"
    },
    {
      "code": "KHL",
      "shareholderType": "PERSON",
      "shareholderName": "Chen Jin Cai",
      "roleType": "Cổ đông lớn",
      "enRoleType": "Major Shareholder",
      "numberOfShares": 272300,
      "ownershipPct": 2.2691666666666666,
      "effectiveDate": "2013-09-24"
    },
    {
      "code": "KHL",
      "shareholderType": "PERSON",
      "shareholderName": "Trần Mạnh Thắng",
      "roleType": "Cổ đông lớn",
      "enRoleType": "Major Shareholder",
      "numberOfShares": 272000,
      "ownershipPct": 2.2666666666666666,
      "effectiveDate": "2012-04-09"
    },
    {
      "code": "KHL",
      "shareholderType": "PERSON",
      "shareholderName": "Zhang Hua",
      "roleType": "Cổ đông lớn",
      "enRoleType": "Major Shareholder",
      "numberOfShares": 262500,
      "ownershipPct": 2.1875,
      "effectiveDate": "2014-04-02"
    },
    {
      "code": "KHL",
      "shareholderType": "PERSON",
      "shareholderName": "Zheng Lan Ying",
      "roleType": "Cổ đông lớn",
      "enRoleType": "Major Shareholder",
      "numberOfShares": 259000,
      "ownershipPct": 2.158333333333333,
      "effectiveDate": "2014-03-27"
    }
  ],
  "currentPage": 1,
  "size": 10,
  "totalElements": 12,
  "totalPages": 2
}