{"data":[{"code":"KHS","shareholderType":"PERSON","shareholderName":"Trần Quốc Dũng","roleType":"Thành viên HĐQT","enRoleType":"Board member","numberOfShares":3012082,"ownershipPct":24.911832955654752,"effectiveDate":"2020-06-30"},{"code":"KHS","shareholderType":"PERSON","shareholderName":"Lâm Thị Hương Mai","roleType":"Thành viên HĐQT","enRoleType":"Board member","numberOfShares":1623558,"ownershipPct":13.427856774754778,"groupPct":19.645282359089663,"effectiveDate":"2020-06-30"},{"code":"KHS","shareholderType":"COMPANY","shareholderName":"CK Vietinbank","roleType":"Cổ đông lớn","enRoleType":"Major Shareholder","numberOfShares":1320523,"ownershipPct":10.921564681871239,"effectiveDate":"2022-06-30"},{"code":"KHS","shareholderType":"PERSON","shareholderName":"Võ Ngọc Diệp","roleType":"Cổ đông lớn","enRoleType":"Major Shareholder","numberOfShares":850056,"ownershipPct":7.030503510512681,"effectiveDate":"2023-07-19"},{"code":"KHS","shareholderType":"PERSON","shareholderName":"Trịnh Quang Tiến","roleType":"Cổ đông lớn","enRoleType":"Major Shareholder","numberOfShares":850056,"ownershipPct":7.030503510512681,"effectiveDate":"2022-06-30"},{"code":"KHS","shareholderType":"PERSON","shareholderName":"Trần Quốc Hùng","roleType":"Chủ tịch HĐQT","enRoleType":"Chairman","numberOfShares":719471,"ownershipPct":5.950482546105279,"groupPct":19.645282359089663,"effectiveDate":"2020-06-30"},{"code":"KHS","shareholderType":"PERSON","shareholderName":"Nguyễn Thị Huyền Trang","roleType":"Vợ của Chủ tịch HĐQT","enRoleType":"Wife of Chairman","numberOfShares":401263,"ownershipPct":3.3187000975686893,"effectiveDate":"2020-06-30"},{"code":"KHS","shareholderType":"PERSON","shareholderName":"Lâm Tường Minh","roleType":"Em trai của Thành viên HĐQT","enRoleType":"Young Brother of Board member","numberOfShares":395500,"ownershipPct":3.2710364239623804,"groupPct":8.96208566906424,"effectiveDate":"2022-06-30"},{"code":"KHS","shareholderType":"PERSON","shareholderName":"Đỗ Thị Cẩm Hương","roleType":"Mẹ của Thành viên HĐQT","enRoleType":"Mother of Board member","numberOfShares":395500,"ownershipPct":3.2710364239623804,"groupPct":8.96208566906424,"effectiveDate":"2022-06-30"},{"code":"KHS","shareholderType":"PERSON","shareholderName":"Dương Công Trịnh","roleType":"Cổ đông lớn","enRoleType":"Major Shareholder","numberOfShares":395500,"ownershipPct":3.2710364239623804,"effectiveDate":"2020-06-30"}],"currentPage":1,"size":10,"totalElements":11,"totalPages":2}