{"data":[{"code":"KPF","shareholderType":"COMPANY","shareholderName":"CTCP PAC Quốc tế","roleType":"Cổ đông lớn","enRoleType":"Major Shareholder","numberOfShares":13551550,"ownershipPct":22.26406035981934,"effectiveDate":"2024-03-20"},{"code":"KPF","shareholderType":"COMPANY","shareholderName":"Pin miền Nam","roleType":"Cổ đông lớn","enRoleType":"Major Shareholder","numberOfShares":13272840,"ownershipPct":21.806163199502972,"effectiveDate":"2024-04-02"},{"code":"KPF","shareholderType":"PERSON","shareholderName":"Nguyễn Như Khánh","roleType":"Cổ đông lớn","enRoleType":"Major Shareholder","numberOfShares":6062527,"ownershipPct":9.960223521370947,"effectiveDate":"2023-09-08"},{"code":"KPF","shareholderType":"PERSON","shareholderName":"Tạ Sơn Tùng","roleType":"Cổ đông lớn","enRoleType":"Major Shareholder","numberOfShares":6043600,"ownershipPct":9.92912804738972,"effectiveDate":"2023-09-08"},{"code":"KPF","shareholderType":"COMPANY","shareholderName":"Công ty Cổ phần xuất nhập khẩu đầu tư thương mại dịch vụ Việt Cam","roleType":"Cổ đông lớn","enRoleType":"Major Shareholder","numberOfShares":3004375,"ownershipPct":4.93593620977174,"effectiveDate":"2023-06-23"},{"code":"KPF","shareholderType":"PERSON","shareholderName":"Trần Thị Dịu Hòa","roleType":"Cổ đông lớn","enRoleType":"Major Shareholder","numberOfShares":2851750,"ownershipPct":4.685186132295922,"effectiveDate":"2021-01-19"},{"code":"KPF","shareholderType":"PERSON","shareholderName":"Đinh Kim Nhung","roleType":"Cổ đông lớn","enRoleType":"Major Shareholder","numberOfShares":2728687,"ownershipPct":4.483003942062299,"effectiveDate":"2021-12-31"},{"code":"KPF","shareholderType":"PERSON","shareholderName":"Vũ Đức Toàn","roleType":"Cổ đông lớn","enRoleType":"Major Shareholder","numberOfShares":2607412,"ownershipPct":4.283759285905838,"effectiveDate":"2022-05-20"},{"code":"KPF","shareholderType":"PERSON","shareholderName":"Lê Thị Mộng Đào","roleType":"Tổng Giám đốc","enRoleType":"CEO","numberOfShares":2292045,"ownershipPct":3.7656377482592114,"effectiveDate":"2022-06-30"},{"code":"KPF","shareholderType":"PERSON","shareholderName":"Lê Anh Đức","roleType":"Cổ đông lớn","enRoleType":"Major Shareholder","numberOfShares":2205000,"ownershipPct":3.622630111935656,"effectiveDate":"2021-06-30"}],"currentPage":1,"size":10,"totalElements":16,"totalPages":2}