{"data":[{"code":"KTT","shareholderType":"PERSON","shareholderName":"Đỗ Trường Giang","roleType":"Cổ đông lớn","enRoleType":"Major Shareholder","numberOfShares":554300,"ownershipPct":18.7580372250423,"effectiveDate":"2011-12-29"},{"code":"KTT","shareholderType":"PERSON","shareholderName":"Đặng Lê Duy","roleType":"Cổ đông lớn","enRoleType":"Major Shareholder","numberOfShares":367300,"ownershipPct":12.429780033840947,"effectiveDate":"2024-01-26"},{"code":"KTT","shareholderType":"PERSON","shareholderName":"Nguyễn Văn Đạt","roleType":"Cổ đông lớn","enRoleType":"Major Shareholder","numberOfShares":324000,"ownershipPct":10.964467005076141,"effectiveDate":"2023-04-26"},{"code":"KTT","shareholderType":"PERSON","shareholderName":"Trần Phú Minh","roleType":"Cổ đông lớn","enRoleType":"Major Shareholder","numberOfShares":147000,"ownershipPct":4.974619289340102,"effectiveDate":"2023-12-07"},{"code":"KTT","shareholderType":"PERSON","shareholderName":"Nguyễn Minh Khuê","roleType":"Cổ đông lớn","enRoleType":"Major Shareholder","numberOfShares":146700,"ownershipPct":4.964467005076142,"effectiveDate":"2017-04-25"},{"code":"KTT","shareholderType":"PERSON","shareholderName":"Nguyễn Tiến Sỹ","roleType":"Cổ đông lớn","enRoleType":"Major Shareholder","numberOfShares":141200,"ownershipPct":4.77834179357022,"effectiveDate":"2021-10-25"},{"code":"KTT","shareholderType":"PERSON","shareholderName":"Nguyễn Thanh Sơn","roleType":"Cổ đông lớn","enRoleType":"Major Shareholder","numberOfShares":140000,"ownershipPct":4.737732656514383,"effectiveDate":"2021-11-22"},{"code":"KTT","shareholderType":"PERSON","shareholderName":"Tô Thị Mến","roleType":"Cổ đông lớn","enRoleType":"Major Shareholder","numberOfShares":139600,"ownershipPct":4.7241962774957695,"effectiveDate":"2019-03-21"},{"code":"KTT","shareholderType":"PERSON","shareholderName":"Nguyễn Đức Hiếu","roleType":"Chủ tịch HĐQT","enRoleType":"Chairman","numberOfShares":123000,"ownershipPct":4.16243654822335,"effectiveDate":"2022-12-16"},{"code":"KTT","shareholderType":"PERSON","shareholderName":"Phạm Mai Anh","roleType":"Cổ đông lớn","enRoleType":"Major Shareholder","numberOfShares":118150,"ownershipPct":3.9983079526226732,"effectiveDate":"2020-12-31"}],"currentPage":1,"size":10,"totalElements":12,"totalPages":2}