{
  "data": [
    {
      "code": "LBE",
      "shareholderType": "COMPANY",
      "shareholderName": "Công ty Cổ phần Phước Hòa",
      "roleType": "Cổ đông lớn",
      "enRoleType": "Major Shareholder",
      "numberOfShares": 884800,
      "ownershipPct": 44.24442444244424,
      "effectiveDate": "2025-07-11"
    },
    {
      "code": "LBE",
      "shareholderType": "PERSON",
      "shareholderName": "Bùi Hữu Quỳnh",
      "roleType": "Cổ đông lớn",
      "enRoleType": "Major Shareholder",
      "numberOfShares": 803400,
      "ownershipPct": 40.17401740174017,
      "effectiveDate": "2025-07-11"
    },
    {
      "code": "LBE",
      "shareholderType": "PERSON",
      "shareholderName": "Bùi Hữu Vũ Hoàng",
      "roleType": "Cổ đông lớn",
      "enRoleType": "Major Shareholder",
      "numberOfShares": 440300,
      "ownershipPct": 22.017201720172018,
      "effectiveDate": "2025-07-11"
    },
    {
      "code": "LBE",
      "shareholderType": "PERSON",
      "shareholderName": "Bùi Quốc Hưng",
      "roleType": "Thành viên HĐQT",
      "enRoleType": "Board member",
      "numberOfShares": 289700,
      "ownershipPct": 14.486448644864486,
      "effectiveDate": "2024-01-10"
    },
    {
      "code": "LBE",
      "shareholderType": "PERSON",
      "shareholderName": "Bùi Thị Vân Anh",
      "roleType": "Thành viên HĐQT",
      "enRoleType": "Board member",
      "numberOfShares": 285800,
      "ownershipPct": 14.291429142914291,
      "effectiveDate": "2024-03-27"
    },
    {
      "code": "LBE",
      "shareholderType": "PERSON",
      "shareholderName": "Lê Vân Anh",
      "roleType": "Thành viên HĐQT",
      "enRoleType": "Board member",
      "numberOfShares": 272300,
      "ownershipPct": 13.616361636163616,
      "effectiveDate": "2024-10-09"
    },
    {
      "code": "LBE",
      "shareholderType": "PERSON",
      "shareholderName": "Đào Thị Kim Oanh",
      "roleType": "Thành viên HĐQT",
      "enRoleType": "Board member",
      "numberOfShares": 226100,
      "ownershipPct": 11.306130613061306,
      "effectiveDate": "2024-04-12"
    },
    {
      "code": "LBE",
      "shareholderType": "PERSON",
      "shareholderName": "Trương Thanh Minh",
      "roleType": "Chủ tịch HĐQT",
      "enRoleType": "Chairman",
      "numberOfShares": 222827,
      "ownershipPct": 11.142464246424643,
      "effectiveDate": "2024-10-09"
    },
    {
      "code": "LBE",
      "shareholderType": "PERSON",
      "shareholderName": "Nguyễn Thị Mai Lan",
      "roleType": "Cổ đông lớn",
      "enRoleType": "Major Shareholder",
      "numberOfShares": 217069,
      "ownershipPct": 10.854535453545354,
      "effectiveDate": "2023-01-30"
    },
    {
      "code": "LBE",
      "shareholderType": "PERSON",
      "shareholderName": "Nguyễn Hoàng Yến Nhi",
      "roleType": "Cổ đông lớn",
      "enRoleType": "Major Shareholder",
      "numberOfShares": 97000,
      "ownershipPct": 4.850485048504851,
      "effectiveDate": "2023-07-24"
    }
  ],
  "currentPage": 1,
  "size": 10,
  "totalElements": 13,
  "totalPages": 2
}