{"data":[{"code":"LMH","shareholderType":"PERSON","shareholderName":"Trần Thế Bình","roleType":"Cổ đông lớn","enRoleType":"Major Shareholder","numberOfShares":2020700,"ownershipPct":7.884121709738921,"effectiveDate":"2021-08-27"},{"code":"LMH","shareholderType":"PERSON","shareholderName":"Nguyễn Thị Vui Mừng","roleType":"Cổ đông lớn","enRoleType":"Major Shareholder","numberOfShares":1278915,"ownershipPct":4.989915136542165,"effectiveDate":"2019-12-16"},{"code":"LMH","shareholderType":"PERSON","shareholderName":"Lương Quang Vinh","roleType":"Cổ đông lớn","enRoleType":"Major Shareholder","numberOfShares":1181500,"ownershipPct":4.6098331271621396,"effectiveDate":"2020-02-05"},{"code":"LMH","shareholderType":"PERSON","shareholderName":"Nguyễn Hoàng Duy","roleType":"Cổ đông lớn","enRoleType":"Major Shareholder","numberOfShares":1122420,"ownershipPct":4.37932196241162,"effectiveDate":"2019-06-14"},{"code":"LMH","shareholderType":"PERSON","shareholderName":"Đào Minh Hương","roleType":"Cổ đông lớn","enRoleType":"Major Shareholder","numberOfShares":1075030,"ownershipPct":4.194421419122399,"effectiveDate":"2019-06-19"},{"code":"LMH","shareholderType":"PERSON","shareholderName":"Nguyễn Thị Ngọc Diễm","roleType":"Cổ đông lớn","enRoleType":"Major Shareholder","numberOfShares":902850,"ownershipPct":3.5226304179926684,"effectiveDate":"2019-09-13"},{"code":"LMH","shareholderType":"PERSON","shareholderName":"Trần Thị Kim Phương","roleType":"Thành viên BKS","enRoleType":"Control member","numberOfShares":837800,"ownershipPct":3.268826232701177,"effectiveDate":"2021-09-16"},{"code":"LMH","shareholderType":"PERSON","shareholderName":"Phạm Quốc Bình","roleType":"Cổ đông lớn","enRoleType":"Major Shareholder","numberOfShares":777400,"ownershipPct":3.033164852353658,"effectiveDate":"2021-03-26"},{"code":"LMH","shareholderType":"PERSON","shareholderName":"Nguyễn Thị Bích Ngọc","roleType":"Cổ đông lớn","enRoleType":"Major Shareholder","numberOfShares":683758,"ownershipPct":2.6678038758883877,"effectiveDate":"2020-02-06"},{"code":"LMH","shareholderType":"PERSON","shareholderName":"Trần Thanh Tùng","roleType":"Cổ đông lớn","enRoleType":"Major Shareholder","numberOfShares":610070,"ownershipPct":2.380296991864415,"effectiveDate":"2020-02-05"}],"currentPage":1,"size":10,"totalElements":17,"totalPages":2}