{
  "data": [
    {
      "code": "LMI",
      "shareholderType": "PERSON",
      "shareholderName": "Nguyễn Cao Hà",
      "roleType": "Thành viên HĐQT",
      "enRoleType": "Board member",
      "numberOfShares": 1253400,
      "ownershipPct": 22.78909090909091,
      "effectiveDate": "2021-01-28"
    },
    {
      "code": "LMI",
      "shareholderType": "COMPANY",
      "shareholderName": "TCT IDICO",
      "roleType": "Cổ đông lớn",
      "enRoleType": "Major Shareholder",
      "numberOfShares": 1106891,
      "ownershipPct": 20.12529090909091,
      "effectiveDate": "2020-06-30"
    },
    {
      "code": "LMI",
      "shareholderType": "PERSON",
      "shareholderName": "Nguyễn Thị Thủy",
      "roleType": "Chủ tịch HĐQT",
      "enRoleType": "Chairman",
      "numberOfShares": 403060,
      "ownershipPct": 7.328363636363636,
      "effectiveDate": "2020-12-31"
    },
    {
      "code": "LMI",
      "shareholderType": "PERSON",
      "shareholderName": "Nguyễn Thị Thủy",
      "roleType": "Vợ của Thành viên HĐQT",
      "enRoleType": "Wife of Board member",
      "numberOfShares": 403060,
      "ownershipPct": 7.328363636363636,
      "effectiveDate": "2020-06-30"
    },
    {
      "code": "LMI",
      "shareholderType": "PERSON",
      "shareholderName": "Nguyễn Quang Đồng",
      "roleType": "Cổ đông lớn",
      "enRoleType": "Major Shareholder",
      "numberOfShares": 294900,
      "ownershipPct": 5.361818181818182,
      "effectiveDate": "2024-04-19"
    },
    {
      "code": "LMI",
      "shareholderType": "COMPANY",
      "shareholderName": "Công ty TNHH Một thành viên Phát triển đô thị và Khu công nghiệp IDICO",
      "roleType": "Cổ đông lớn",
      "enRoleType": "Major Shareholder",
      "numberOfShares": 285665,
      "ownershipPct": 5.193909090909091,
      "effectiveDate": "2020-06-30"
    },
    {
      "code": "LMI",
      "shareholderType": "PERSON",
      "shareholderName": "Vũ Thị Hiền",
      "roleType": "Thành viên HĐQT",
      "enRoleType": "Board member",
      "numberOfShares": 107500,
      "ownershipPct": 1.9545454545454546,
      "effectiveDate": "2023-07-28"
    },
    {
      "code": "LMI",
      "shareholderType": "PERSON",
      "shareholderName": "Nguyễn Văn Vinh",
      "roleType": "Thành viên HĐQT",
      "enRoleType": "Board member",
      "numberOfShares": 97847,
      "ownershipPct": 1.7790363636363635,
      "effectiveDate": "2024-04-19"
    },
    {
      "code": "LMI",
      "shareholderType": "PERSON",
      "shareholderName": "Phạm Minh Hải",
      "roleType": "Thành viên BKS",
      "enRoleType": "Control member",
      "numberOfShares": 78000,
      "ownershipPct": 1.4181818181818182,
      "effectiveDate": "2024-05-31"
    },
    {
      "code": "LMI",
      "shareholderType": "PERSON",
      "shareholderName": "Nguyễn Đăng Hưng",
      "roleType": "Phó TGĐ",
      "enRoleType": "Deputy CEO",
      "numberOfShares": 70000,
      "ownershipPct": 1.2727272727272727,
      "effectiveDate": "2023-04-26"
    }
  ],
  "currentPage": 1,
  "size": 10,
  "totalElements": 12,
  "totalPages": 2
}