{
  "data": [
    {
      "code": "LSS",
      "shareholderType": "COMPANY",
      "shareholderName": "Hiệp hội Mía đường Lam Sơn - Thanh Hóa",
      "roleType": "Cổ đông lớn",
      "enRoleType": "Major Shareholder",
      "numberOfShares": 16651477,
      "ownershipPct": 19.4205292801607,
      "effectiveDate": "2022-12-08"
    },
    {
      "code": "LSS",
      "shareholderType": "COMPANY",
      "shareholderName": "CTCP thương mại và đầu tư Thăng Long Hà Nội",
      "roleType": "Cổ đông lớn",
      "enRoleType": "Major Shareholder",
      "numberOfShares": 8359300,
      "ownershipPct": 9.749407239468747,
      "effectiveDate": "2025-01-14"
    },
    {
      "code": "LSS",
      "shareholderType": "PERSON",
      "shareholderName": "Lê Trung Thành",
      "roleType": "Phó chủ tịch HĐQT",
      "enRoleType": "Vice-chairman",
      "numberOfShares": 4862963,
      "ownershipPct": 5.6716479462955816,
      "groupPct": 14.201795550336154,
      "effectiveDate": "2025-01-14"
    },
    {
      "code": "LSS",
      "shareholderType": "PERSON",
      "shareholderName": "Lê Văn Tân",
      "roleType": "Chủ tịch HĐQT",
      "enRoleType": "Chairman",
      "numberOfShares": 4330651,
      "ownershipPct": 5.050815284893779,
      "groupPct": 14.201795550336154,
      "effectiveDate": "2025-01-14"
    },
    {
      "code": "LSS",
      "shareholderType": "PERSON",
      "shareholderName": "Lê Văn Tiến",
      "roleType": "Con của Đại diện CBTT",
      "enRoleType": "Child of Spokeman",
      "numberOfShares": 1905244,
      "ownershipPct": 2.2220759688675358,
      "groupPct": 14.201795550336154,
      "effectiveDate": "2022-12-08"
    },
    {
      "code": "LSS",
      "shareholderType": "COMPANY",
      "shareholderName": "Red River Holding",
      "roleType": "Cổ đông lớn",
      "enRoleType": "Major Shareholder",
      "numberOfShares": 1688781,
      "ownershipPct": 1.9696163204188473,
      "effectiveDate": "2025-01-14"
    },
    {
      "code": "LSS",
      "shareholderType": "COMPANY",
      "shareholderName": "CK Sacombank",
      "roleType": "Cổ đông lớn",
      "enRoleType": "Major Shareholder",
      "numberOfShares": 1498898,
      "ownershipPct": 1.7481567849491255,
      "effectiveDate": "2025-01-14"
    },
    {
      "code": "LSS",
      "shareholderType": "COMPANY",
      "shareholderName": "Công ty Cổ phần Đầu tư Phát triển Tân Thành Đạt",
      "roleType": "Cổ đông lớn",
      "enRoleType": "Major Shareholder",
      "numberOfShares": 1355904,
      "ownershipPct": 1.5813836414083275,
      "effectiveDate": "2022-12-08"
    },
    {
      "code": "LSS",
      "shareholderType": "COMPANY",
      "shareholderName": "Công ty cổ phần Sữa Lam Sơn",
      "roleType": "Cổ đông lớn",
      "enRoleType": "Major Shareholder",
      "numberOfShares": 1005288,
      "ownershipPct": 1.1724620608126348,
      "effectiveDate": "2022-12-08"
    },
    {
      "code": "LSS",
      "shareholderType": "COMPANY",
      "shareholderName": "Công ty cổ phần đầu tư phát triển Lam Sơn - Như Xuân",
      "roleType": "Cổ đông lớn",
      "enRoleType": "Major Shareholder",
      "numberOfShares": 983458,
      "ownershipPct": 1.147001847632392,
      "effectiveDate": "2022-12-08"
    }
  ],
  "currentPage": 1,
  "size": 10,
  "totalElements": 11,
  "totalPages": 2
}