{"data":[{"code":"MAC","shareholderType":"COMPANY","shareholderName":"CTCP Đầu tư Sao Á D.C","roleType":"Cổ đông lớn","enRoleType":"Major Shareholder","numberOfShares":4250000,"ownershipPct":28.071807021848784,"effectiveDate":"2023-12-15"},{"code":"MAC","shareholderType":"COMPANY","shareholderName":"Công ty TNHH Quỹ TM Holding","roleType":"Cổ đông lớn","enRoleType":"Major Shareholder","numberOfShares":2998600,"ownershipPct":19.806146008403708,"effectiveDate":"2024-04-26"},{"code":"MAC","shareholderType":"COMPANY","shareholderName":"Đ.tư T.mại XNH CFS","roleType":"Cổ đông lớn","enRoleType":"Major Shareholder","numberOfShares":2760000,"ownershipPct":18.2301617365418,"effectiveDate":"2014-03-27"},{"code":"MAC","shareholderType":"PERSON","shareholderName":"Nguyễn Thị Thu Ngà","roleType":"Vợ của Thành viên HĐQT","enRoleType":"Wife of Board member","numberOfShares":1507700,"ownershipPct":9.958556105139156,"effectiveDate":"2023-12-15"},{"code":"MAC","shareholderType":"PERSON","shareholderName":"Nguyễn Văn Trúc","roleType":"Thành viên HĐQT","enRoleType":"Board member","numberOfShares":1005000,"ownershipPct":6.6381567192842414,"effectiveDate":"2023-12-29"},{"code":"MAC","shareholderType":"PERSON","shareholderName":"Vũ Hải Trường","roleType":"Thành viên HĐQT","enRoleType":"Board member","numberOfShares":900000,"ownershipPct":5.944617957567978,"effectiveDate":"2024-04-09"},{"code":"MAC","shareholderType":"COMPANY","shareholderName":"Hàng hải Việt Nam","roleType":"Cổ đông lớn","enRoleType":"Major Shareholder","numberOfShares":538436,"ownershipPct":3.556440349556746,"effectiveDate":"2020-06-30"},{"code":"MAC","shareholderType":"PERSON","shareholderName":"Trần Thị Nga","roleType":"Cổ đông lớn","enRoleType":"Major Shareholder","numberOfShares":378200,"ownershipPct":2.4980605683913435,"effectiveDate":"2015-02-24"},{"code":"MAC","shareholderType":"COMPANY","shareholderName":"Công ty CP Đầu tư Toàn Việt","roleType":"Cổ đông lớn","enRoleType":"Major Shareholder","numberOfShares":265230,"ownershipPct":1.751878912095283,"effectiveDate":"2020-06-30"},{"code":"MAC","shareholderType":"PERSON","shareholderName":"Nguyễn Hữu Vinh","roleType":"Cổ đông lớn","enRoleType":"Major Shareholder","numberOfShares":250328,"ownershipPct":1.6534492489800852,"effectiveDate":"2016-05-19"}],"currentPage":1,"size":10,"totalElements":15,"totalPages":2}