{"data":[{"code":"MCG","shareholderType":"PERSON","shareholderName":"Nguyễn Ngọc Bình","roleType":"Chủ tịch HĐQT","enRoleType":"Chairman","numberOfShares":8998880,"ownershipPct":15.647504781777082,"effectiveDate":"2017-06-30"},{"code":"MCG","shareholderType":"COMPANY","shareholderName":"Năng lượng và BĐS MCG","roleType":"Cổ phiếu quỹ","enRoleType":"Treasury Stock","numberOfShares":5460000,"ownershipPct":9.494001043296818,"effectiveDate":"2011-08-18"},{"code":"MCG","shareholderType":"PERSON","shareholderName":"Đỗ Hiệp Hòa","roleType":"Cổ đông lớn","enRoleType":"Major Shareholder","numberOfShares":5120235,"ownershipPct":8.90320813771518,"effectiveDate":"2020-06-30"},{"code":"MCG","shareholderType":"PERSON","shareholderName":"La Mỹ Phượng","roleType":"Cổ đông lớn","enRoleType":"Major Shareholder","numberOfShares":4103220,"ownershipPct":7.134793948878456,"effectiveDate":"2021-11-25"},{"code":"MCG","shareholderType":"PERSON","shareholderName":"Trần Đoàn Thế Duy","roleType":"Cổ đông lớn","enRoleType":"Major Shareholder","numberOfShares":3603220,"ownershipPct":6.265379933924535,"effectiveDate":"2021-12-01"},{"code":"MCG","shareholderType":"PERSON","shareholderName":"Phan Hải Hà","roleType":"Cổ đông lớn","enRoleType":"Major Shareholder","numberOfShares":2855240,"ownershipPct":4.964771344114067,"effectiveDate":"2021-10-20"},{"code":"MCG","shareholderType":"PERSON","shareholderName":"Đào Thùy Linh","roleType":"Cổ đông lớn","enRoleType":"Major Shareholder","numberOfShares":2650140,"ownershipPct":4.608137715179969,"effectiveDate":"2022-03-21"},{"code":"MCG","shareholderType":"PERSON","shareholderName":"Đỗ Quang Vinh","roleType":"Cổ đông lớn","enRoleType":"Major Shareholder","numberOfShares":2610310,"ownershipPct":4.53888019474874,"effectiveDate":"2011-04-04"},{"code":"MCG","shareholderType":"PERSON","shareholderName":"Nguyễn Văn Dũng","roleType":"Cổ đông lớn","enRoleType":"Major Shareholder","numberOfShares":2500097,"ownershipPct":4.347238741088506,"effectiveDate":"2022-01-11"},{"code":"MCG","shareholderType":"PERSON","shareholderName":"Smit Cheancharadpong","roleType":"Cổ đông lớn","enRoleType":"Major Shareholder","numberOfShares":1954400,"ownershipPct":3.3983655016518868,"effectiveDate":"2021-09-24"}],"currentPage":1,"size":10,"totalElements":11,"totalPages":2}