{"data":[{"code":"MEF","shareholderType":"PERSON","shareholderName":"Đinh Văn Vinh","roleType":"Chủ tịch HĐQT","enRoleType":"Chairman","numberOfShares":327545,"ownershipPct":8.01612402311557,"effectiveDate":"2020-12-31"},{"code":"MEF","shareholderType":"PERSON","shareholderName":"Nguyễn Bá Hữu","roleType":"Cổ đông lớn","enRoleType":"Major Shareholder","numberOfShares":307865,"ownershipPct":7.534488459223847,"effectiveDate":"2017-12-11"},{"code":"MEF","shareholderType":"PERSON","shareholderName":"Chen Ji Fu","roleType":"Cổ đông lớn","enRoleType":"Major Shareholder","numberOfShares":260265,"ownershipPct":6.369556912412566,"effectiveDate":"2020-06-30"},{"code":"MEF","shareholderType":"PERSON","shareholderName":"Nguyễn Tất Trường","roleType":"Thành viên HĐQT","enRoleType":"Board member","numberOfShares":255401,"ownershipPct":6.250518529141766,"effectiveDate":"2020-12-31"},{"code":"MEF","shareholderType":"PERSON","shareholderName":"Hà Văn Kỳ","roleType":"Cổ đông lớn","enRoleType":"Major Shareholder","numberOfShares":251700,"ownershipPct":6.159942654042006,"effectiveDate":"2017-12-19"},{"code":"MEF","shareholderType":"PERSON","shareholderName":"Phạm Văn Sáu","roleType":"Thành viên HĐQT","enRoleType":"Board member","numberOfShares":249173,"ownershipPct":6.098098493983349,"effectiveDate":"2020-12-31"},{"code":"MEF","shareholderType":"PERSON","shareholderName":"Trần Văn Hùng","roleType":"Phó chủ tịch HĐQT","enRoleType":"Vice-chairman","numberOfShares":176585,"ownershipPct":4.321626831799792,"effectiveDate":"2020-12-31"},{"code":"MEF","shareholderType":"PERSON","shareholderName":"Phạm Văn Minh","roleType":"Em trai của Thành viên HĐQT","enRoleType":"Young Brother of Board member","numberOfShares":168918,"ownershipPct":4.133989643366975,"groupPct":8.703874156067053,"effectiveDate":"2020-06-30"},{"code":"MEF","shareholderType":"PERSON","shareholderName":"Ngô Thị Dung","roleType":"Em gái của Thành viên HĐQT","enRoleType":"Young Sister of Board member","numberOfShares":100100,"ownershipPct":2.449782517559018,"groupPct":8.703874156067053,"effectiveDate":"2020-06-30"},{"code":"MEF","shareholderType":"PERSON","shareholderName":"Phạm Văn Bình","roleType":"Em trai của Thành viên HĐQT","enRoleType":"Young Brother of Board member","numberOfShares":86629,"ownershipPct":2.1201019951410607,"groupPct":8.703874156067053,"effectiveDate":"2020-06-30"}],"currentPage":1,"size":10,"totalElements":16,"totalPages":2}