{
  "data": [
    {
      "code": "MIC",
      "shareholderType": "COMPANY",
      "shareholderName": "Công ty Cổ phần Tập Đoàn Đầu tư Việt Phương",
      "roleType": "Cổ đông lớn",
      "enRoleType": "Major Shareholder",
      "numberOfShares": 2196861,
      "ownershipPct": 25.701961229349823,
      "effectiveDate": "2025-08-04"
    },
    {
      "code": "MIC",
      "shareholderType": "COMPANY",
      "shareholderName": "Công ty TNHH MTV Khoáng sản Việt Phương Huế",
      "roleType": "Cổ đông lớn",
      "enRoleType": "Major Shareholder",
      "numberOfShares": 2117338,
      "ownershipPct": 24.771589638775097,
      "effectiveDate": "2025-08-04"
    },
    {
      "code": "MIC",
      "shareholderType": "PERSON",
      "shareholderName": "Phạm Khắc Sơn",
      "roleType": "Cổ đông lớn",
      "enRoleType": "Major Shareholder",
      "numberOfShares": 1161526,
      "ownershipPct": 13.589160269530836,
      "effectiveDate": "2025-08-04"
    },
    {
      "code": "MIC",
      "shareholderType": "PERSON",
      "shareholderName": "Nguyễn Bá Phong",
      "roleType": "Cổ đông lớn",
      "enRoleType": "Major Shareholder",
      "numberOfShares": 909695,
      "ownershipPct": 10.64288802092321,
      "effectiveDate": "2025-08-04"
    },
    {
      "code": "MIC",
      "shareholderType": "COMPANY",
      "shareholderName": "CTCP Gemadept",
      "roleType": "Cổ đông lớn",
      "enRoleType": "Major Shareholder",
      "numberOfShares": 731993,
      "ownershipPct": 8.563880785427692,
      "effectiveDate": "2025-08-04"
    },
    {
      "code": "MIC",
      "shareholderType": "PERSON",
      "shareholderName": "Lê Tuấn Điệp",
      "roleType": "Cổ đông lớn",
      "enRoleType": "Major Shareholder",
      "numberOfShares": 531425,
      "ownershipPct": 6.217355010766375,
      "effectiveDate": "2025-08-04"
    },
    {
      "code": "MIC",
      "shareholderType": "PERSON",
      "shareholderName": "Nguyễn Thanh Toàn",
      "roleType": "Cổ đông lớn",
      "enRoleType": "Major Shareholder",
      "numberOfShares": 515731,
      "ownershipPct": 6.033744586832674,
      "effectiveDate": "2025-08-04"
    },
    {
      "code": "MIC",
      "shareholderType": "COMPANY",
      "shareholderName": "CTCP KINH DOANH BẤT ĐỘNG SẢN VHC",
      "roleType": "Cổ đông lớn",
      "enRoleType": "Major Shareholder",
      "numberOfShares": 509337,
      "ownershipPct": 5.958938606800044,
      "effectiveDate": "2025-08-04"
    },
    {
      "code": "MIC",
      "shareholderType": "PERSON",
      "shareholderName": "Lê Thị Thuận",
      "roleType": "Cổ đông lớn",
      "enRoleType": "Major Shareholder",
      "numberOfShares": 405224,
      "ownershipPct": 4.740878707028825,
      "effectiveDate": "2025-08-04"
    },
    {
      "code": "MIC",
      "shareholderType": "PERSON",
      "shareholderName": "Joji Tsukamoto",
      "roleType": "Cổ đông lớn",
      "enRoleType": "Major Shareholder",
      "numberOfShares": 368039,
      "ownershipPct": 4.305836422463087,
      "effectiveDate": "2025-08-04"
    }
  ],
  "currentPage": 1,
  "size": 10,
  "totalElements": 14,
  "totalPages": 2
}