{
  "data": [
    {
      "code": "MKP",
      "shareholderType": "PERSON",
      "shareholderName": "Huỳnh Thị Lan",
      "roleType": "Phó chủ tịch HĐQT",
      "enRoleType": "Vice-chairman",
      "numberOfShares": 6223981,
      "ownershipPct": 24.631654915476638,
      "effectiveDate": "2025-09-15"
    },
    {
      "code": "MKP",
      "shareholderType": "COMPANY",
      "shareholderName": "Dược Việt Nam",
      "roleType": "Cổ đông lớn",
      "enRoleType": "Major Shareholder",
      "numberOfShares": 3881196,
      "ownershipPct": 15.359989134177669,
      "effectiveDate": "2021-06-14"
    },
    {
      "code": "MKP",
      "shareholderType": "COMPANY",
      "shareholderName": "Công ty TNHH Bệnh Viện Đa Khoa Tư Nhân An Sinh",
      "roleType": "Cổ đông lớn",
      "enRoleType": "Major Shareholder",
      "numberOfShares": 2200000,
      "ownershipPct": 8.70658840604568,
      "effectiveDate": "2021-06-14"
    },
    {
      "code": "MKP",
      "shareholderType": "PERSON",
      "shareholderName": "Phan Thị Lan Hương",
      "roleType": "Thành viên HĐQT",
      "enRoleType": "Board member",
      "numberOfShares": 1796622,
      "ownershipPct": 7.110203761475729,
      "groupPct": 10.819368724058572,
      "effectiveDate": "2021-06-14"
    },
    {
      "code": "MKP",
      "shareholderType": "COMPANY",
      "shareholderName": "Công ty Cổ phần Quản lý Quỹ Đầu tư MB",
      "roleType": "Cổ đông lớn",
      "enRoleType": "Major Shareholder",
      "numberOfShares": 1243226,
      "ownershipPct": 4.920116853497522,
      "effectiveDate": "2022-01-07"
    },
    {
      "code": "MKP",
      "shareholderType": "COMPANY",
      "shareholderName": "P.triển Đ.tư HCM",
      "roleType": "Cổ đông lớn",
      "enRoleType": "Major Shareholder",
      "numberOfShares": 1030030,
      "ownershipPct": 4.076385116308742,
      "effectiveDate": "2021-06-14"
    },
    {
      "code": "MKP",
      "shareholderType": "PERSON",
      "shareholderName": "Phan Minh Hoàng",
      "roleType": "Con của Phó chủ tịch HĐQT",
      "enRoleType": "Child of Vice-chairman",
      "numberOfShares": 786787,
      "ownershipPct": 3.1137411691943013,
      "groupPct": 10.819368724058572,
      "effectiveDate": "2023-06-30"
    },
    {
      "code": "MKP",
      "shareholderType": "PERSON",
      "shareholderName": "Đặng Thị Kim Lan",
      "roleType": "Thành viên HĐQT",
      "enRoleType": "Board member",
      "numberOfShares": 767267,
      "ownershipPct": 3.0364899847915687,
      "effectiveDate": "2023-06-30"
    },
    {
      "code": "MKP",
      "shareholderType": "PERSON",
      "shareholderName": "Lê Anh Phương",
      "roleType": "Chủ tịch HĐQT",
      "enRoleType": "Chairman",
      "numberOfShares": 406553,
      "ownershipPct": 1.6089498346559499,
      "effectiveDate": "2023-06-30"
    },
    {
      "code": "MKP",
      "shareholderType": "COMPANY",
      "shareholderName": "Dược phẩm Mekophar",
      "roleType": "Cổ phiếu quỹ",
      "enRoleType": "Treasury Stock",
      "numberOfShares": 277646,
      "ownershipPct": 1.0987952020840723,
      "effectiveDate": "2012-06-26"
    }
  ],
  "currentPage": 1,
  "size": 10,
  "totalElements": 11,
  "totalPages": 2
}