{
  "data": [
    {
      "code": "MST",
      "shareholderType": "PERSON",
      "shareholderName": "Nguyễn Thanh Tuyên",
      "roleType": "Cổ đông lớn",
      "enRoleType": "Major Shareholder",
      "numberOfShares": 6310532,
      "ownershipPct": 7.548102236944499,
      "effectiveDate": "2023-07-19"
    },
    {
      "code": "MST",
      "shareholderType": "PERSON",
      "shareholderName": "Nguyễn Thị Lan Hương",
      "roleType": "Cổ đông lớn",
      "enRoleType": "Major Shareholder",
      "numberOfShares": 3312650,
      "ownershipPct": 3.9622999891632262,
      "effectiveDate": "2023-07-19"
    },
    {
      "code": "MST",
      "shareholderType": "PERSON",
      "shareholderName": "Nguyễn Huy Quang",
      "roleType": "Chủ tịch HĐQT",
      "enRoleType": "Chairman",
      "numberOfShares": 2595186,
      "ownershipPct": 3.1041327818141236,
      "effectiveDate": "2023-07-19"
    },
    {
      "code": "MST",
      "shareholderType": "PERSON",
      "shareholderName": "Tạ Thị Dinh",
      "roleType": "Cổ đông lớn",
      "enRoleType": "Major Shareholder",
      "numberOfShares": 2301261,
      "ownershipPct": 2.752565600157504,
      "effectiveDate": "2023-07-19"
    },
    {
      "code": "MST",
      "shareholderType": "PERSON",
      "shareholderName": "Nguyễn Trọng Huy",
      "roleType": "Cổ đông lớn",
      "enRoleType": "Major Shareholder",
      "numberOfShares": 1913458,
      "ownershipPct": 2.2887098282837877,
      "effectiveDate": "2023-07-19"
    },
    {
      "code": "MST",
      "shareholderType": "PERSON",
      "shareholderName": "Phan Hoàng Thắng",
      "roleType": "Cổ đông lớn",
      "enRoleType": "Major Shareholder",
      "numberOfShares": 1842500,
      "ownershipPct": 2.203836122147901,
      "effectiveDate": "2023-07-19"
    },
    {
      "code": "MST",
      "shareholderType": "PERSON",
      "shareholderName": "Nguyễn Trường Phi",
      "roleType": "Cổ đông lớn",
      "enRoleType": "Major Shareholder",
      "numberOfShares": 1837000,
      "ownershipPct": 2.197257506857907,
      "effectiveDate": "2023-07-19"
    },
    {
      "code": "MST",
      "shareholderType": "PERSON",
      "shareholderName": "Trần Thị Minh Phương",
      "roleType": "Cổ đông lớn",
      "enRoleType": "Major Shareholder",
      "numberOfShares": 1716660,
      "ownershipPct": 2.0533174043128444,
      "effectiveDate": "2023-07-19"
    },
    {
      "code": "MST",
      "shareholderType": "PERSON",
      "shareholderName": "Phan Thị Thanh Hoài",
      "roleType": "Cổ đông lớn",
      "enRoleType": "Major Shareholder",
      "numberOfShares": 1544070,
      "ownershipPct": 1.8468804565128412,
      "effectiveDate": "2023-07-19"
    },
    {
      "code": "MST",
      "shareholderType": "PERSON",
      "shareholderName": "Phạm Bá Quang",
      "roleType": "Cổ đông lớn",
      "enRoleType": "Major Shareholder",
      "numberOfShares": 1425864,
      "ownershipPct": 1.7054928567002958,
      "effectiveDate": "2023-07-19"
    }
  ],
  "currentPage": 1,
  "size": 10,
  "totalElements": 14,
  "totalPages": 2
}