{"data":[{"code":"NAC","shareholderType":"COMPANY","shareholderName":"Tư vấn Xây dựng VN","roleType":"Cổ đông lớn","enRoleType":"Major Shareholder","numberOfShares":1377000,"ownershipPct":48.57142857142857,"effectiveDate":"2020-06-30"},{"code":"NAC","shareholderType":"COMPANY","shareholderName":"TCT VLXD số 1","roleType":"Cổ đông lớn","enRoleType":"Major Shareholder","numberOfShares":151000,"ownershipPct":5.326278659611993,"effectiveDate":"2020-06-30"},{"code":"NAC","shareholderType":"COMPANY","shareholderName":"TCT IDICO","roleType":"Cổ đông lớn","enRoleType":"Major Shareholder","numberOfShares":135000,"ownershipPct":4.761904761904762,"effectiveDate":"2020-06-30"},{"code":"NAC","shareholderType":"PERSON","shareholderName":"Trần Tuấn Khang","roleType":"Anh/em rể của Chủ tịch HĐQT","enRoleType":"Brother in law of Chairman","numberOfShares":110150,"ownershipPct":3.8853615520282188,"effectiveDate":"2020-12-31"},{"code":"NAC","shareholderType":"PERSON","shareholderName":"Lê Đức Tuấn","roleType":"Cổ đông lớn","enRoleType":"Major Shareholder","numberOfShares":94533,"ownershipPct":3.3344973544973544,"effectiveDate":"2021-03-03"},{"code":"NAC","shareholderType":"PERSON","shareholderName":"Nguyễn Tấn Khoa","roleType":"Thành viên BKS","enRoleType":"Control member","numberOfShares":79827,"ownershipPct":2.815767195767196,"effectiveDate":"2023-12-31"},{"code":"NAC","shareholderType":"PERSON","shareholderName":"Phạm Khánh Toàn","roleType":"Cổ đông lớn","enRoleType":"Major Shareholder","numberOfShares":75750,"ownershipPct":2.671957671957672,"effectiveDate":"2020-06-30"},{"code":"NAC","shareholderType":"PERSON","shareholderName":"Võ Công Tuấn","roleType":"Thành viên HĐQT","enRoleType":"Board member","numberOfShares":74360,"ownershipPct":2.622927689594356,"effectiveDate":"2022-04-11"},{"code":"NAC","shareholderType":"PERSON","shareholderName":"Nguyễn Minh Hồng","roleType":"Thành viên HĐQT","enRoleType":"Board member","numberOfShares":46050,"ownershipPct":1.6243386243386244,"effectiveDate":"2020-06-30"},{"code":"NAC","shareholderType":"PERSON","shareholderName":"Nguyễn Duy Trác","roleType":"Thành viên BKS","enRoleType":"Control member","numberOfShares":45322,"ownershipPct":1.5986596119929453,"effectiveDate":"2022-06-30"}],"currentPage":1,"size":10,"totalElements":12,"totalPages":2}