{
  "data": [
    {
      "code": "NBB",
      "shareholderType": "COMPANY",
      "shareholderName": "Công ty TNHH MTV Thương mại và đầu tư CII",
      "roleType": "Cổ đông lớn",
      "enRoleType": "Major Shareholder",
      "numberOfShares": 48545736,
      "ownershipPct": 48.468286102222955,
      "effectiveDate": "2025-05-23"
    },
    {
      "code": "NBB",
      "shareholderType": "COMPANY",
      "shareholderName": "H.tầng KT HCM",
      "roleType": "Cổ đông lớn",
      "enRoleType": "Major Shareholder",
      "numberOfShares": 26474332,
      "ownershipPct": 26.432094834059914,
      "effectiveDate": "2025-04-23"
    },
    {
      "code": "NBB",
      "shareholderType": "COMPANY",
      "shareholderName": "KALLANG LIMITED",
      "roleType": "Cổ đông lớn",
      "enRoleType": "Major Shareholder",
      "numberOfShares": 6176832,
      "ownershipPct": 6.166977478338489,
      "effectiveDate": "2021-11-02"
    },
    {
      "code": "NBB",
      "shareholderType": "COMPANY",
      "shareholderName": "Vietnam Equity Holding",
      "roleType": "Cổ đông lớn",
      "enRoleType": "Major Shareholder",
      "numberOfShares": 5332693,
      "ownershipPct": 5.324185218230529,
      "effectiveDate": "2021-11-02"
    },
    {
      "code": "NBB",
      "shareholderType": "PERSON",
      "shareholderName": "Nguyễn Thị Thu Hiền",
      "roleType": "Cổ đông lớn",
      "enRoleType": "Major Shareholder",
      "numberOfShares": 4962300,
      "ownershipPct": 4.954383143455915,
      "effectiveDate": "2022-11-24"
    },
    {
      "code": "NBB",
      "shareholderType": "COMPANY",
      "shareholderName": "Công ty TNHH Thương mại Dịch vụ Đại Dũng",
      "roleType": "Cổ đông lớn",
      "enRoleType": "Major Shareholder",
      "numberOfShares": 4932200,
      "ownershipPct": 4.9243311650148645,
      "effectiveDate": "2025-04-09"
    },
    {
      "code": "NBB",
      "shareholderType": "PERSON",
      "shareholderName": "Nguyễn Thị Cẩm Viên",
      "roleType": "Cổ đông lớn",
      "enRoleType": "Major Shareholder",
      "numberOfShares": 4851110,
      "ownershipPct": 4.843370536051916,
      "effectiveDate": "2017-10-16"
    },
    {
      "code": "NBB",
      "shareholderType": "COMPANY",
      "shareholderName": "Chứng khoán SG HN",
      "roleType": "Cổ đông lớn",
      "enRoleType": "Major Shareholder",
      "numberOfShares": 4666393,
      "ownershipPct": 4.658948233670007,
      "effectiveDate": "2010-06-08"
    },
    {
      "code": "NBB",
      "shareholderType": "PERSON",
      "shareholderName": "Nguyễn Văn Thịnh",
      "roleType": "Cổ đông lớn",
      "enRoleType": "Major Shareholder",
      "numberOfShares": 4521000,
      "ownershipPct": 4.513787193753741,
      "effectiveDate": "2024-10-09"
    },
    {
      "code": "NBB",
      "shareholderType": "PERSON",
      "shareholderName": "Phan Diệp Huyền Chi",
      "roleType": "Cổ đông lớn",
      "enRoleType": "Major Shareholder",
      "numberOfShares": 4293333,
      "ownershipPct": 4.286483413828872,
      "effectiveDate": "2017-01-12"
    }
  ],
  "currentPage": 1,
  "size": 10,
  "totalElements": 19,
  "totalPages": 2
}