{"data":[{"code":"NDF","shareholderType":"PERSON","shareholderName":"Nguyễn Thanh Mai","roleType":"Cổ đông lớn","enRoleType":"Major Shareholder","numberOfShares":637100,"ownershipPct":8.111996740431383,"effectiveDate":"2018-05-03"},{"code":"NDF","shareholderType":"PERSON","shareholderName":"Lưu Thị Lam","roleType":"Thành viên HĐQT","enRoleType":"Board member","numberOfShares":400000,"ownershipPct":5.093075963227991,"effectiveDate":"2017-08-04"},{"code":"NDF","shareholderType":"PERSON","shareholderName":"Lã Văn Khanh","roleType":"Cổ đông lớn","enRoleType":"Major Shareholder","numberOfShares":390000,"ownershipPct":4.965749064147292,"effectiveDate":"2016-12-30"},{"code":"NDF","shareholderType":"PERSON","shareholderName":"Trương Hoàng Phong","roleType":"Cổ đông lớn","enRoleType":"Major Shareholder","numberOfShares":390000,"ownershipPct":4.965749064147292,"effectiveDate":"2021-11-19"},{"code":"NDF","shareholderType":"PERSON","shareholderName":"Đỗ Văn Quang","roleType":"Cổ đông lớn","enRoleType":"Major Shareholder","numberOfShares":389200,"ownershipPct":4.955562912220835,"effectiveDate":"2017-08-15"},{"code":"NDF","shareholderType":"PERSON","shareholderName":"Phạm Văn Thưởng","roleType":"Cổ đông lớn","enRoleType":"Major Shareholder","numberOfShares":374000,"ownershipPct":4.762026025618172,"effectiveDate":"2015-01-16"},{"code":"NDF","shareholderType":"PERSON","shareholderName":"Nguyễn Thị Ngọc Anh","roleType":"Cổ đông lớn","enRoleType":"Major Shareholder","numberOfShares":294300,"ownershipPct":3.747230639944995,"effectiveDate":"2014-12-19"},{"code":"NDF","shareholderType":"PERSON","shareholderName":"Lê Quốc Trung","roleType":"Cổ đông lớn","enRoleType":"Major Shareholder","numberOfShares":279100,"ownershipPct":3.553693753342331,"effectiveDate":"2015-01-26"},{"code":"NDF","shareholderType":"PERSON","shareholderName":"Nguyễn Thanh Phong","roleType":"Cổ đông lớn","enRoleType":"Major Shareholder","numberOfShares":279000,"ownershipPct":3.552420484351524,"effectiveDate":"2015-03-09"},{"code":"NDF","shareholderType":"PERSON","shareholderName":"Nguyễn Thị Lân","roleType":"Cổ đông lớn","enRoleType":"Major Shareholder","numberOfShares":268700,"ownershipPct":3.4212737782984033,"effectiveDate":"2017-07-18"}],"currentPage":1,"size":10,"totalElements":14,"totalPages":2}