{"data":[{"code":"NDN","shareholderType":"PERSON","shareholderName":"Nguyễn Quang Trung","roleType":"Cổ đông lớn","enRoleType":"Major Shareholder","numberOfShares":6075450,"ownershipPct":8.478404959919583,"effectiveDate":"2021-07-28"},{"code":"NDN","shareholderType":"COMPANY","shareholderName":"Intereffekt Investment Funds N.V.","roleType":"Cổ đông lớn","enRoleType":"Major Shareholder","numberOfShares":2939917,"ownershipPct":4.102709572879688,"effectiveDate":"2021-07-28"},{"code":"NDN","shareholderType":"PERSON","shareholderName":"Mai Đình Thảo","roleType":"Cổ đông lớn","enRoleType":"Major Shareholder","numberOfShares":2845050,"ownershipPct":3.9703208867193718,"effectiveDate":"2020-12-31"},{"code":"NDN","shareholderType":"COMPANY","shareholderName":"Acadian Frontier Markets Equity Fund","roleType":"Cổ đông lớn","enRoleType":"Major Shareholder","numberOfShares":2215081,"ownershipPct":3.091187276172733,"effectiveDate":"2021-07-28"},{"code":"NDN","shareholderType":"COMPANY","shareholderName":"Saigon Commercial Bank","roleType":"Cổ đông lớn","enRoleType":"Major Shareholder","numberOfShares":2211312,"ownershipPct":3.08592756565023,"effectiveDate":"2021-07-28"},{"code":"NDN","shareholderType":"COMPANY","shareholderName":"PYN ELITE FUND (NON - UCITS)","roleType":"Cổ đông lớn","enRoleType":"Major Shareholder","numberOfShares":2210088,"ownershipPct":3.0842194505853477,"effectiveDate":"2021-07-28"},{"code":"NDN","shareholderType":"COMPANY","shareholderName":"AFC Vietnam Fund (AVF)","roleType":"Cổ đông lớn","enRoleType":"Major Shareholder","numberOfShares":1639716,"ownershipPct":2.288254576576138,"effectiveDate":"2021-07-28"},{"code":"NDN","shareholderType":"PERSON","shareholderName":"Nguyễn Đình Nam","roleType":"Cổ đông lớn","enRoleType":"Major Shareholder","numberOfShares":1616300,"ownershipPct":2.2555771073283495,"effectiveDate":"2021-12-31"},{"code":"NDN","shareholderType":"PERSON","shareholderName":"Nguyễn Quang Minh Khoa","roleType":"Phó chủ tịch HĐQT","enRoleType":"Vice-chairman","numberOfShares":1530000,"ownershipPct":2.1351438311033686,"groupPct":4.135585205803304,"effectiveDate":"2022-11-11"},{"code":"NDN","shareholderType":"COMPANY","shareholderName":"TCM Investment Funds Luxembourg","roleType":"Cổ đông lớn","enRoleType":"Major Shareholder","numberOfShares":1289437,"ownershipPct":1.7994336314682577,"effectiveDate":"2021-07-28"}],"currentPage":1,"size":10,"totalElements":16,"totalPages":2}