{"data":[{"code":"NDX","shareholderType":"COMPANY","shareholderName":"ĐTPT Nhà Đà Nẵng","roleType":"Cổ đông lớn","enRoleType":"Major Shareholder","numberOfShares":4407000,"ownershipPct":45.96582841697838,"effectiveDate":"2021-12-24"},{"code":"NDX","shareholderType":"PERSON","shareholderName":"Võ Thị Ngọc","roleType":"Phó chủ tịch HĐQT","enRoleType":"Vice-chairman","numberOfShares":523294,"ownershipPct":5.458053600098545,"effectiveDate":"2020-06-30"},{"code":"NDX","shareholderType":"COMPANY","shareholderName":"America LLC","roleType":"Cổ đông lớn","enRoleType":"Major Shareholder","numberOfShares":464900,"ownershipPct":4.848993335841445,"effectiveDate":"2023-05-18"},{"code":"NDX","shareholderType":"PERSON","shareholderName":"Tưởng Thành Tiến","roleType":"Cổ đông lớn","enRoleType":"Major Shareholder","numberOfShares":435993,"ownershipPct":4.547487957568336,"effectiveDate":"2020-01-13"},{"code":"NDX","shareholderType":"COMPANY","shareholderName":"X.lắp Nhà Đà Nẵng","roleType":"Cổ phiếu quỹ","enRoleType":"Treasury Stock","numberOfShares":400000,"ownershipPct":4.172074283365408,"effectiveDate":"2018-05-14"},{"code":"NDX","shareholderType":"PERSON","shareholderName":"Lê Mai Long","roleType":"Cổ đông lớn","enRoleType":"Major Shareholder","numberOfShares":359603,"ownershipPct":3.750726071302627,"effectiveDate":"2022-01-07"},{"code":"NDX","shareholderType":"PERSON","shareholderName":"Lương Thanh Viên","roleType":"Thành viên HĐQT","enRoleType":"Board member","numberOfShares":354603,"ownershipPct":3.6985751427605593,"effectiveDate":"2023-06-30"},{"code":"NDX","shareholderType":"PERSON","shareholderName":"Nguyễn Quang Trung","roleType":"Cổ đông lớn","enRoleType":"Major Shareholder","numberOfShares":318500,"ownershipPct":3.322014148129706,"effectiveDate":"2021-06-30"},{"code":"NDX","shareholderType":"PERSON","shareholderName":"Nguyễn Văn Lục","roleType":"Cổ đông lớn","enRoleType":"Major Shareholder","numberOfShares":307142,"ownershipPct":3.2035480988535454,"effectiveDate":"2020-06-30"},{"code":"NDX","shareholderType":"PERSON","shareholderName":"Bùi Lê Duy","roleType":"Cổ đông lớn","enRoleType":"Major Shareholder","numberOfShares":281301,"ownershipPct":2.9340216699624313,"effectiveDate":"2022-06-30"}],"currentPage":1,"size":10,"totalElements":13,"totalPages":2}