{
  "data": [
    {
      "code": "NGC",
      "shareholderType": "PERSON",
      "shareholderName": "Nguyễn Đoàn Anh Vĩ",
      "roleType": "Chủ tịch HĐQT",
      "enRoleType": "Chairman",
      "numberOfShares": 574900,
      "ownershipPct": 24.99723895516846,
      "effectiveDate": "2023-06-30"
    },
    {
      "code": "NGC",
      "shareholderType": "COMPANY",
      "shareholderName": "Công ty TNHH Kiên Hùng I",
      "roleType": "Cổ đông lớn",
      "enRoleType": "Major Shareholder",
      "numberOfShares": 345000,
      "ownershipPct": 15.000952234359225,
      "effectiveDate": "2020-06-30"
    },
    {
      "code": "NGC",
      "shareholderType": "COMPANY",
      "shareholderName": "Intereffekt Investment Funds N.V.",
      "roleType": "Cổ đông lớn",
      "enRoleType": "Major Shareholder",
      "numberOfShares": 282890,
      "ownershipPct": 12.300346021964872,
      "effectiveDate": "2020-06-30"
    },
    {
      "code": "NGC",
      "shareholderType": "COMPANY",
      "shareholderName": "TCM Investment Funds Luxembourg",
      "roleType": "Cổ đông lớn",
      "enRoleType": "Major Shareholder",
      "numberOfShares": 213900,
      "ownershipPct": 9.30059038530272,
      "effectiveDate": "2020-12-31"
    },
    {
      "code": "NGC",
      "shareholderType": "PERSON",
      "shareholderName": "Hoàng Công Thành",
      "roleType": "Cổ đông lớn",
      "enRoleType": "Major Shareholder",
      "numberOfShares": 179370,
      "ownershipPct": 7.799190731237722,
      "effectiveDate": "2021-11-05"
    },
    {
      "code": "NGC",
      "shareholderType": "PERSON",
      "shareholderName": "Nguyễn Quang Kim",
      "roleType": "Cổ đông lớn",
      "enRoleType": "Major Shareholder",
      "numberOfShares": 135892,
      "ownershipPct": 5.908722901540706,
      "effectiveDate": "2020-06-30"
    },
    {
      "code": "NGC",
      "shareholderType": "PERSON",
      "shareholderName": "Tạ Thị Mùi",
      "roleType": "Thành viên HĐQT",
      "enRoleType": "Board member",
      "numberOfShares": 114800,
      "ownershipPct": 4.991621207259244,
      "effectiveDate": "2021-06-30"
    },
    {
      "code": "NGC",
      "shareholderType": "PERSON",
      "shareholderName": "Nguyễn Duy Phước",
      "roleType": "Cổ đông lớn",
      "enRoleType": "Major Shareholder",
      "numberOfShares": 55000,
      "ownershipPct": 2.3914561533036447,
      "effectiveDate": "2014-12-10"
    },
    {
      "code": "NGC",
      "shareholderType": "PERSON",
      "shareholderName": "Huỳnh Châu Sang",
      "roleType": "Thành viên HĐQT",
      "enRoleType": "Board member",
      "numberOfShares": 48300,
      "ownershipPct": 2.1001333128102915,
      "effectiveDate": "2021-05-21"
    },
    {
      "code": "NGC",
      "shareholderType": "PERSON",
      "shareholderName": "Nguyễn Ngọc Thúy",
      "roleType": "Vợ của Thành viên HĐQT",
      "enRoleType": "Wife of Board member",
      "numberOfShares": 38410,
      "ownershipPct": 1.670106015425327,
      "groupPct": 3.280208221913217,
      "effectiveDate": "2020-06-30"
    }
  ],
  "currentPage": 1,
  "size": 10,
  "totalElements": 12,
  "totalPages": 2
}