{"data":[{"code":"NHA","shareholderType":"PERSON","shareholderName":"Nguyễn Minh Hoàn","roleType":"Chủ tịch HĐQT","enRoleType":"Chairman","numberOfShares":10089400,"ownershipPct":23.92297529408752,"effectiveDate":"2022-03-11"},{"code":"NHA","shareholderType":"PERSON","shareholderName":"Nguyễn Hoàng Đạo","roleType":"Phó TGĐ","enRoleType":"Deputy CEO","numberOfShares":2272879,"ownershipPct":5.389223161283163,"effectiveDate":"2023-06-30"},{"code":"NHA","shareholderType":"PERSON","shareholderName":"Nguyễn Đức Kiên","roleType":"Phó TGĐ","enRoleType":"Deputy CEO","numberOfShares":2186226,"ownershipPct":5.183760241966002,"groupPct":10.953661120505936,"effectiveDate":"2022-03-11"},{"code":"NHA","shareholderType":"PERSON","shareholderName":"Trần Thị Nguồn","roleType":"Cổ đông lớn","enRoleType":"Major Shareholder","numberOfShares":1480200,"ownershipPct":3.5097020665558256,"effectiveDate":"2012-07-12"},{"code":"NHA","shareholderType":"PERSON","shareholderName":"Nguyễn Ngọc Hương","roleType":"Vợ của Chủ tịch HĐQT","enRoleType":"Wife of Chairman","numberOfShares":1383366,"ownershipPct":3.2800989791940727,"groupPct":10.953661120505936,"effectiveDate":"2022-06-30"},{"code":"NHA","shareholderType":"PERSON","shareholderName":"Nguyễn Văn Hùng","roleType":"Thành viên HĐQT","enRoleType":"Board member","numberOfShares":1341735,"ownershipPct":3.181387719409729,"effectiveDate":"2022-06-30"},{"code":"NHA","shareholderType":"PERSON","shareholderName":"Phạm Văn Tuân","roleType":"Cổ đông lớn","enRoleType":"Major Shareholder","numberOfShares":1140026,"ownershipPct":2.703115530419789,"effectiveDate":"2020-09-07"},{"code":"NHA","shareholderType":"PERSON","shareholderName":"Peter Eric Dennis","roleType":"Cổ đông lớn","enRoleType":"Major Shareholder","numberOfShares":1134060,"ownershipPct":2.6889695484382514,"effectiveDate":"2021-01-26"},{"code":"NHA","shareholderType":"PERSON","shareholderName":"Nguyễn Thành Mỹ","roleType":"Con của Chủ tịch HĐQT","enRoleType":"Child of Chairman","numberOfShares":1050000,"ownershipPct":2.489654891152288,"groupPct":10.953661120505936,"effectiveDate":"2022-06-30"},{"code":"NHA","shareholderType":"PERSON","shareholderName":"Tạ Ngọc Nhất","roleType":"Kế toán trưởng","enRoleType":"Chief Accountant","numberOfShares":833169,"ownershipPct":1.9755269295299627,"effectiveDate":"2022-06-30"}],"currentPage":1,"size":10,"totalElements":11,"totalPages":2}