{
  "data": [
    {
      "code": "NKG",
      "shareholderType": "PERSON",
      "shareholderName": "Hồ Minh Quang",
      "roleType": "Chủ tịch HĐQT",
      "enRoleType": "Chairman",
      "numberOfShares": 71040996,
      "ownershipPct": 15.872568796538843,
      "effectiveDate": "2025-02-26"
    },
    {
      "code": "NKG",
      "shareholderType": "PERSON",
      "shareholderName": "Võ Hoàng Vũ",
      "roleType": "Thành viên HĐQT",
      "enRoleType": "Board member",
      "numberOfShares": 15936480,
      "ownershipPct": 3.560660596237493,
      "effectiveDate": "2025-01-24"
    },
    {
      "code": "NKG",
      "shareholderType": "COMPANY",
      "shareholderName": "Unicoh Specialty Chemicals",
      "roleType": "Cổ đông lớn",
      "enRoleType": "Major Shareholder",
      "numberOfShares": 15897600,
      "ownershipPct": 3.551973704026558,
      "effectiveDate": "2025-02-26"
    },
    {
      "code": "NKG",
      "shareholderType": "COMPANY",
      "shareholderName": "Vietnam Enterprise Investments Limited",
      "roleType": "Cổ đông lớn",
      "enRoleType": "Major Shareholder",
      "numberOfShares": 12882902,
      "ownershipPct": 2.878404862089319,
      "effectiveDate": "2022-06-03"
    },
    {
      "code": "NKG",
      "shareholderType": "PERSON",
      "shareholderName": "Nguyễn Thị Nhân",
      "roleType": "Cổ đông lớn",
      "enRoleType": "Major Shareholder",
      "numberOfShares": 10166406,
      "ownershipPct": 2.2714627853548857,
      "effectiveDate": "2024-12-19"
    },
    {
      "code": "NKG",
      "shareholderType": "COMPANY",
      "shareholderName": "KIM Vietnam Growth Equity Fund",
      "roleType": "Cổ đông lớn",
      "enRoleType": "Major Shareholder",
      "numberOfShares": 8160000,
      "ownershipPct": 1.8231749084677382,
      "effectiveDate": "2024-12-19"
    },
    {
      "code": "NKG",
      "shareholderType": "COMPANY",
      "shareholderName": "PYN ELITE FUND (NON - UCITS)",
      "roleType": "Cổ đông lớn",
      "enRoleType": "Major Shareholder",
      "numberOfShares": 8064000,
      "ownershipPct": 1.8017257918975296,
      "effectiveDate": "2022-06-03"
    },
    {
      "code": "NKG",
      "shareholderType": "COMPANY",
      "shareholderName": "TMAM VIETNAM EQUITY MOTHER FUND",
      "roleType": "Cổ đông lớn",
      "enRoleType": "Major Shareholder",
      "numberOfShares": 7080000,
      "ownershipPct": 1.5818723470528906,
      "effectiveDate": "2024-12-19"
    },
    {
      "code": "NKG",
      "shareholderType": "COMPANY",
      "shareholderName": "Chứng khoán Vietcap",
      "roleType": "Cổ đông lớn",
      "enRoleType": "Major Shareholder",
      "numberOfShares": 6048000,
      "ownershipPct": 1.3512943439231473,
      "effectiveDate": "2022-06-03"
    },
    {
      "code": "NKG",
      "shareholderType": "COMPANY",
      "shareholderName": "KITMC WORLDWIDE VIETNAM RSP BALANCED FUND",
      "roleType": "Cổ đông lớn",
      "enRoleType": "Major Shareholder",
      "numberOfShares": 4800000,
      "ownershipPct": 1.0724558285104344,
      "effectiveDate": "2024-12-19"
    }
  ],
  "currentPage": 1,
  "size": 10,
  "totalElements": 11,
  "totalPages": 2
}