{"data":[{"code":"NLG","shareholderType":"PERSON","shareholderName":"Nguyễn Xuân Quang","roleType":"Chủ tịch HĐQT","enRoleType":"Chairman","numberOfShares":40452851,"ownershipPct":10.513310692246844,"effectiveDate":"2024-05-24"},{"code":"NLG","shareholderType":"COMPANY","shareholderName":"IBEWORTH PTE LTD","roleType":"Cổ đông lớn","enRoleType":"Major Shareholder","numberOfShares":31365866,"ownershipPct":8.151689837370961,"effectiveDate":"2022-06-30"},{"code":"NLG","shareholderType":"COMPANY","shareholderName":"Công ty cổ phần Đầu tư Thái Bình","roleType":"Cổ đông lớn","enRoleType":"Major Shareholder","numberOfShares":21574719,"ownershipPct":5.607063985302819,"effectiveDate":"2024-06-28"},{"code":"NLG","shareholderType":"COMPANY","shareholderName":"CTBC Vietnam Equity Fund","roleType":"Cổ đông lớn","enRoleType":"Major Shareholder","numberOfShares":16700000,"ownershipPct":4.3401709451954895,"effectiveDate":"2023-09-11"},{"code":"NLG","shareholderType":"PERSON","shareholderName":"Trần Thanh Phong","roleType":"Phó chủ tịch HĐQT","enRoleType":"Vice-chairman","numberOfShares":15683750,"ownershipPct":4.076057249204177,"effectiveDate":"2024-03-26"},{"code":"NLG","shareholderType":"COMPANY","shareholderName":"PYN ELITE FUND (NON - UCITS)","roleType":"Cổ đông lớn","enRoleType":"Major Shareholder","numberOfShares":15488400,"ownershipPct":4.02528764476442,"effectiveDate":"2021-11-30"},{"code":"NLG","shareholderType":"COMPANY","shareholderName":"Tài chính quốc tế (IFC)","roleType":"Cổ đông lớn","enRoleType":"Major Shareholder","numberOfShares":14160986,"ownershipPct":3.6803053887736583,"effectiveDate":"2021-11-24"},{"code":"NLG","shareholderType":"PERSON","shareholderName":"Nguyễn Thị Bích Ngọc","roleType":"Vợ của Chủ tịch HĐQT","enRoleType":"Wife of Chairman","numberOfShares":13840867,"ownershipPct":3.5971095095637757,"groupPct":4.1303379739714545,"effectiveDate":"2023-07-27"},{"code":"NLG","shareholderType":"PERSON","shareholderName":"Nguyễn Đình Vinh","roleType":"Cổ đông lớn","enRoleType":"Major Shareholder","numberOfShares":13207780,"ownershipPct":3.4325762279361727,"effectiveDate":"2019-07-29"},{"code":"NLG","shareholderType":"COMPANY","shareholderName":"International Finance Corporation","roleType":"Cổ đông lớn","enRoleType":"Major Shareholder","numberOfShares":11210112,"ownershipPct":2.9134013410052275,"effectiveDate":"2021-11-24"}],"currentPage":1,"size":10,"totalElements":13,"totalPages":2}