{
  "data": [
    {
      "code": "NO1",
      "shareholderType": "PERSON",
      "shareholderName": "Lưu Đình Tuấn",
      "roleType": "Chủ tịch HĐQT",
      "enRoleType": "Chairman",
      "numberOfShares": 5000000,
      "ownershipPct": 20.833333333333332,
      "effectiveDate": "2022-09-19"
    },
    {
      "code": "NO1",
      "shareholderType": "PERSON",
      "shareholderName": "Nguyễn Xuân Thanh",
      "roleType": "Thành viên HĐQT",
      "enRoleType": "Board member",
      "numberOfShares": 2347111,
      "ownershipPct": 9.779629166666666,
      "effectiveDate": "2024-11-22"
    },
    {
      "code": "NO1",
      "shareholderType": "PERSON",
      "shareholderName": "Nguyễn Thị Hải",
      "roleType": "Vợ của Chủ tịch HĐQT",
      "enRoleType": "Wife of Chairman",
      "numberOfShares": 1747900,
      "ownershipPct": 7.282916666666667,
      "effectiveDate": "2024-11-13"
    },
    {
      "code": "NO1",
      "shareholderType": "COMPANY",
      "shareholderName": "Mirae Asset Daewoo Co.,Ltd",
      "roleType": "Cổ đông lớn",
      "enRoleType": "Major Shareholder",
      "numberOfShares": 1461600,
      "ownershipPct": 6.09,
      "effectiveDate": "2025-05-16"
    },
    {
      "code": "NO1",
      "shareholderType": "PERSON",
      "shareholderName": "Nguyễn Mạnh Hải",
      "roleType": "Chủ tịch HĐQT",
      "enRoleType": "Chairman",
      "numberOfShares": 1350500,
      "ownershipPct": 5.627083333333333,
      "effectiveDate": "2024-10-01"
    },
    {
      "code": "NO1",
      "shareholderType": "PERSON",
      "shareholderName": "Lưu Thị Tính",
      "roleType": "Vợ của Thành viên HĐQT",
      "enRoleType": "Wife of Board member",
      "numberOfShares": 786250,
      "ownershipPct": 3.2760416666666665,
      "effectiveDate": "2022-09-19"
    },
    {
      "code": "NO1",
      "shareholderType": "PERSON",
      "shareholderName": "Nguyễn Đức Hải",
      "roleType": "Thành viên HĐQT",
      "enRoleType": "Board member",
      "numberOfShares": 721500,
      "ownershipPct": 3.00625,
      "effectiveDate": "2022-09-19"
    },
    {
      "code": "NO1",
      "shareholderType": "PERSON",
      "shareholderName": "Nguyễn Văn Chinh",
      "roleType": "Anh/em rể của Thành viên HĐQT",
      "enRoleType": "Brother in law of Board member",
      "numberOfShares": 721500,
      "ownershipPct": 3.00625,
      "groupPct": 7.804166666666666,
      "effectiveDate": "2022-09-19"
    },
    {
      "code": "NO1",
      "shareholderType": "PERSON",
      "shareholderName": "Nguyễn Văn Chinh",
      "roleType": "Anh/em rể của Thành viên HĐQT",
      "enRoleType": "Brother in law of Board member",
      "numberOfShares": 721500,
      "ownershipPct": 3.00625,
      "groupPct": 7.804166666666666,
      "effectiveDate": "2022-09-19"
    },
    {
      "code": "NO1",
      "shareholderType": "PERSON",
      "shareholderName": "Bùi Việt Bắc",
      "roleType": "Cổ đông lớn",
      "enRoleType": "Major Shareholder",
      "numberOfShares": 660000,
      "ownershipPct": 2.75,
      "effectiveDate": "2023-07-20"
    }
  ],
  "currentPage": 1,
  "size": 10,
  "totalElements": 12,
  "totalPages": 2
}