{
  "data": [
    {
      "code": "NTL",
      "shareholderType": "PERSON",
      "shareholderName": "Đinh Quang Chiến",
      "roleType": "Phó chủ tịch HĐQT",
      "enRoleType": "Vice-chairman",
      "numberOfShares": 15542300,
      "ownershipPct": 12.741689409484678,
      "effectiveDate": "2024-07-04"
    },
    {
      "code": "NTL",
      "shareholderType": "COMPANY",
      "shareholderName": "PYN ELITE FUND",
      "roleType": "Cổ đông lớn",
      "enRoleType": "Major Shareholder",
      "numberOfShares": 9493700,
      "ownershipPct": 7.783003593214947,
      "effectiveDate": "2024-10-17"
    },
    {
      "code": "NTL",
      "shareholderType": "PERSON",
      "shareholderName": "Vũ Gia Cường",
      "roleType": "Thành viên HĐQT",
      "enRoleType": "Board member",
      "numberOfShares": 7386624,
      "ownershipPct": 6.055607522222924,
      "effectiveDate": "2024-07-04"
    },
    {
      "code": "NTL",
      "shareholderType": "COMPANY",
      "shareholderName": "Kingsmead Vietnam and Indochina Growth Master Fund",
      "roleType": "Cổ đông lớn",
      "enRoleType": "Major Shareholder",
      "numberOfShares": 7013560,
      "ownershipPct": 5.749766969804042,
      "effectiveDate": "2024-07-04"
    },
    {
      "code": "NTL",
      "shareholderType": "COMPANY",
      "shareholderName": "KITMC WORLDWIDE VIETNAM RSP BALANCED FUND",
      "roleType": "Cổ đông lớn",
      "enRoleType": "Major Shareholder",
      "numberOfShares": 6476560,
      "ownershipPct": 5.309530504615925,
      "effectiveDate": "2024-07-04"
    },
    {
      "code": "NTL",
      "shareholderType": "COMPANY",
      "shareholderName": "Công ty Cổ phần Quản lý Quỹ Đầu tư MB",
      "roleType": "Cổ đông lớn",
      "enRoleType": "Major Shareholder",
      "numberOfShares": 5996780,
      "ownershipPct": 4.9162034072826755,
      "effectiveDate": "2024-07-04"
    },
    {
      "code": "NTL",
      "shareholderType": "COMPANY",
      "shareholderName": "K.sản Viglacera",
      "roleType": "Cổ đông lớn",
      "enRoleType": "Major Shareholder",
      "numberOfShares": 5798420,
      "ownershipPct": 4.753586451538327,
      "effectiveDate": "2024-07-04"
    },
    {
      "code": "NTL",
      "shareholderType": "COMPANY",
      "shareholderName": "Quỹ Đầu Tư Chứng Khoán Việt Nam",
      "roleType": "Cổ đông lớn",
      "enRoleType": "Major Shareholder",
      "numberOfShares": 5643100,
      "ownershipPct": 4.626253997584848,
      "effectiveDate": "2024-07-04"
    },
    {
      "code": "NTL",
      "shareholderType": "PERSON",
      "shareholderName": "Nguyễn Thị Mai",
      "roleType": "Mẹ của Phó TGĐ",
      "enRoleType": "Mother of Deputy CEO",
      "numberOfShares": 3862880,
      "ownershipPct": 3.1668168280183866,
      "effectiveDate": "2024-08-20"
    },
    {
      "code": "NTL",
      "shareholderType": "COMPANY",
      "shareholderName": "PT đô thị Từ Liêm",
      "roleType": "Cổ phiếu quỹ",
      "enRoleType": "Treasury Stock",
      "numberOfShares": 2610050,
      "ownershipPct": 2.13973777646973,
      "effectiveDate": "2012-01-06"
    }
  ],
  "currentPage": 1,
  "size": 10,
  "totalElements": 13,
  "totalPages": 2
}