{"data":[{"code":"NTP","shareholderType":"COMPANY","shareholderName":"SCIC","roleType":"Cổ đông lớn","enRoleType":"Major Shareholder","numberOfShares":48078531,"ownershipPct":33.731677940416645,"effectiveDate":"2022-07-11"},{"code":"NTP","shareholderType":"COMPANY","shareholderName":"Công ty Cổ phần Nhựa thiếu niên tiền phong phía Nam","roleType":"Cổ đông lớn","enRoleType":"Major Shareholder","numberOfShares":20337638,"ownershipPct":14.268794008801542,"effectiveDate":"2024-07-08"},{"code":"NTP","shareholderType":"COMPANY","shareholderName":"Công ty Sekisui Chemical CO.,LTD","roleType":"Cổ đông lớn","enRoleType":"Major Shareholder","numberOfShares":19436539,"ownershipPct":13.63658706261944,"effectiveDate":"2022-07-11"},{"code":"NTP","shareholderType":"PERSON","shareholderName":"Chu Văn Phương","roleType":"Thành viên HĐQT","enRoleType":"Board member","numberOfShares":9796564,"ownershipPct":6.873224595208199,"effectiveDate":"2024-07-08"},{"code":"NTP","shareholderType":"PERSON","shareholderName":"Đặng Quốc Dũng","roleType":"Chủ tịch HĐQT","enRoleType":"Chairman","numberOfShares":8905968,"ownershipPct":6.248386505895043,"effectiveDate":"2022-07-11"},{"code":"NTP","shareholderType":"COMPANY","shareholderName":"Windstar Resources Limited","roleType":"Cổ đông lớn","enRoleType":"Major Shareholder","numberOfShares":6241330,"ownershipPct":4.3788886453261355,"effectiveDate":"2022-07-11"},{"code":"NTP","shareholderType":"COMPANY","shareholderName":"Quỹ đầu tư PXP Vietnam Fund Ltd","roleType":"Cổ đông lớn","enRoleType":"Major Shareholder","numberOfShares":4783933,"ownershipPct":3.3563855610424373,"effectiveDate":"2022-07-11"},{"code":"NTP","shareholderType":"PERSON","shareholderName":"Đặng Quốc Minh","roleType":"Thư ký công ty","enRoleType":"Secretary of the company","numberOfShares":4621320,"ownershipPct":3.242297022336357,"groupPct":5.5780997658046365,"effectiveDate":"2022-07-11"},{"code":"NTP","shareholderType":"COMPANY","shareholderName":"Công đoàn Công ty cổ phần Nhựa Thiếu niên Tiền phong","roleType":"Cổ đông lớn","enRoleType":"Major Shareholder","numberOfShares":3790479,"ownershipPct":2.6593827683277707,"effectiveDate":"2024-07-08"},{"code":"NTP","shareholderType":"PERSON","shareholderName":"Hồ Phi Hải","roleType":"Cổ đông lớn","enRoleType":"Major Shareholder","numberOfShares":3729066,"ownershipPct":2.6162956877895818,"effectiveDate":"2024-07-08"}],"currentPage":1,"size":10,"totalElements":11,"totalPages":2}