{"data":[{"code":"OGC","shareholderType":"COMPANY","shareholderName":"Doanh nghiệp tư nhân Hà Bảo","roleType":"Cổ đông lớn","enRoleType":"Major Shareholder","numberOfShares":84779140,"ownershipPct":28.25971342753238,"effectiveDate":"2020-06-30"},{"code":"OGC","shareholderType":"COMPANY","shareholderName":"Tập đoàn phát triển Nhà và Đô thị Việt Nam","roleType":"Cổ đông lớn","enRoleType":"Major Shareholder","numberOfShares":51724860,"ownershipPct":17.241620057472065,"effectiveDate":"2023-12-29"},{"code":"OGC","shareholderType":"COMPANY","shareholderName":"CÔNG TY CỔ PHẦN ĐẦU TƯ BẤT ĐỘNG SẢN THƯƠNG MẠI HÙNG LĨNH","roleType":"Cổ đông lớn","enRoleType":"Major Shareholder","numberOfShares":48263040,"ownershipPct":16.0876800536256,"effectiveDate":"2024-06-05"},{"code":"OGC","shareholderType":"COMPANY","shareholderName":"Công ty Cổ phần Xây dựng Sông Hồng Bắc Việt","roleType":"Cổ đông lớn","enRoleType":"Major Shareholder","numberOfShares":27058490,"ownershipPct":9.019496696731656,"effectiveDate":"2023-12-08"},{"code":"OGC","shareholderType":"COMPANY","shareholderName":"Công ty cổ phần thương mại, Đầu tư và xây dựng Thành Đông","roleType":"Cổ đông lớn","enRoleType":"Major Shareholder","numberOfShares":17269660,"ownershipPct":5.756553352521845,"effectiveDate":"2014-12-18"},{"code":"OGC","shareholderType":"COMPANY","shareholderName":"Công ty cổ phần Đầu tư và Xây dựng Sông Đà","roleType":"Cổ đông lớn","enRoleType":"Major Shareholder","numberOfShares":16390171,"ownershipPct":5.463390351544635,"effectiveDate":"2014-12-03"},{"code":"OGC","shareholderType":"COMPANY","shareholderName":"PYN ELITE FUND (NON - UCITS)","roleType":"Cổ đông lớn","enRoleType":"Major Shareholder","numberOfShares":14652460,"ownershipPct":4.884153349613844,"effectiveDate":"2016-09-29"},{"code":"OGC","shareholderType":"COMPANY","shareholderName":"CTCP Đầu tư và Thương mại VNECO Hà Nội","roleType":"Cổ đông lớn","enRoleType":"Major Shareholder","numberOfShares":14499312,"ownershipPct":4.8331040161103465,"effectiveDate":"2020-06-30"},{"code":"OGC","shareholderType":"COMPANY","shareholderName":"Quỹ ETF VanEck Vietnam","roleType":"Cổ đông lớn","enRoleType":"Major Shareholder","numberOfShares":12361576,"ownershipPct":4.120525347068418,"effectiveDate":"2015-06-17"},{"code":"OGC","shareholderType":"COMPANY","shareholderName":"Tổng Công ty Tài chính cổ phần Dầu khí Việt Nam","roleType":"Cổ đông lớn","enRoleType":"Major Shareholder","numberOfShares":12000000,"ownershipPct":4.0000000133333335,"effectiveDate":"2020-06-30"}],"currentPage":1,"size":10,"totalElements":17,"totalPages":2}