{
  "data": [
    {
      "code": "ONE",
      "shareholderType": "PERSON",
      "shareholderName": "Nguyễn Thị Ngân",
      "roleType": "Cổ đông lớn",
      "enRoleType": "Major Shareholder",
      "numberOfShares": 573700,
      "ownershipPct": 7.207777212971034,
      "effectiveDate": "2017-05-23"
    },
    {
      "code": "ONE",
      "shareholderType": "PERSON",
      "shareholderName": "Phùng Thúy Phượng",
      "roleType": "Cổ đông lớn",
      "enRoleType": "Major Shareholder",
      "numberOfShares": 475600,
      "ownershipPct": 5.975281231460735,
      "effectiveDate": "2022-10-24"
    },
    {
      "code": "ONE",
      "shareholderType": "PERSON",
      "shareholderName": "Đặng Anh Phương",
      "roleType": "Phó chủ tịch HĐQT",
      "enRoleType": "Vice-chairman",
      "numberOfShares": 468023,
      "ownershipPct": 5.880086307384246,
      "effectiveDate": "2020-06-30"
    },
    {
      "code": "ONE",
      "shareholderType": "COMPANY",
      "shareholderName": "American LLC",
      "roleType": "Cổ đông lớn",
      "enRoleType": "Major Shareholder",
      "numberOfShares": 460200,
      "ownershipPct": 5.78180072060183,
      "effectiveDate": "2023-02-15"
    },
    {
      "code": "ONE",
      "shareholderType": "PERSON",
      "shareholderName": "Phạm Thế Hùng",
      "roleType": "Cổ đông lớn",
      "enRoleType": "Major Shareholder",
      "numberOfShares": 427504,
      "ownershipPct": 5.371018981443209,
      "effectiveDate": "2020-06-30"
    },
    {
      "code": "ONE",
      "shareholderType": "COMPANY",
      "shareholderName": "America LLC",
      "roleType": "Cổ đông lớn",
      "enRoleType": "Major Shareholder",
      "numberOfShares": 391900,
      "ownershipPct": 4.923702091273049,
      "effectiveDate": "2023-03-07"
    },
    {
      "code": "ONE",
      "shareholderType": "PERSON",
      "shareholderName": "Lê Hải Đoàn",
      "roleType": "Cổ đông lớn",
      "enRoleType": "Major Shareholder",
      "numberOfShares": 350000,
      "ownershipPct": 4.397284337702391,
      "effectiveDate": "2024-06-20"
    },
    {
      "code": "ONE",
      "shareholderType": "PERSON",
      "shareholderName": "Phạm Thế Hùng",
      "roleType": "Cổ đông lớn",
      "enRoleType": "Major Shareholder",
      "numberOfShares": 291826,
      "ownershipPct": 3.6664054260981085,
      "effectiveDate": "2011-07-29"
    },
    {
      "code": "ONE",
      "shareholderType": "PERSON",
      "shareholderName": "Willem Stuive",
      "roleType": "Cổ đông lớn",
      "enRoleType": "Major Shareholder",
      "numberOfShares": 260000,
      "ownershipPct": 3.266554079436062,
      "effectiveDate": "2017-07-12"
    },
    {
      "code": "ONE",
      "shareholderType": "PERSON",
      "shareholderName": "Đỗ Quỳnh Lan",
      "roleType": "Nhóm cổ đông lớn",
      "enRoleType": "Major Shareholder Group",
      "numberOfShares": 194656,
      "ownershipPct": 2.4455936572565617,
      "groupPct": 2.4523906024756963,
      "effectiveDate": "2020-06-30"
    }
  ],
  "currentPage": 1,
  "size": 10,
  "totalElements": 13,
  "totalPages": 2
}