{"data":[{"code":"PAN","shareholderType":"COMPANY","shareholderName":"Chứng khoán SSI","roleType":"Cổ đông lớn","enRoleType":"Major Shareholder","numberOfShares":26582793,"ownershipPct":12.725448102453509,"effectiveDate":"2023-06-30"},{"code":"PAN","shareholderType":"COMPANY","shareholderName":"Công ty TNHH Nguyễn Duy Hưng Việt Nam","roleType":"Cổ đông lớn","enRoleType":"Major Shareholder","numberOfShares":23828927,"ownershipPct":11.407144985692556,"effectiveDate":"2021-03-17"},{"code":"PAN","shareholderType":"COMPANY","shareholderName":"Công ty cổ phần CSC Việt Nam","roleType":"Cổ đông lớn","enRoleType":"Major Shareholder","numberOfShares":10415702,"ownershipPct":4.9861004165973535,"effectiveDate":"2021-08-13"},{"code":"PAN","shareholderType":"COMPANY","shareholderName":"Công ty cổ phần đầu tư Đường Mặt Trời","roleType":"Cổ đông lớn","enRoleType":"Major Shareholder","numberOfShares":10140451,"ownershipPct":4.854335017993511,"effectiveDate":"2020-12-31"},{"code":"PAN","shareholderType":"COMPANY","shareholderName":"PYN ELITE FUND (NON - UCITS)","roleType":"Cổ đông lớn","enRoleType":"Major Shareholder","numberOfShares":9378745,"ownershipPct":4.489698759782139,"effectiveDate":"2020-12-08"},{"code":"PAN","shareholderType":"COMPANY","shareholderName":"International Finance Corporation","roleType":"Cổ đông lớn","enRoleType":"Major Shareholder","numberOfShares":8714843,"ownershipPct":4.171882251708097,"effectiveDate":"2020-12-31"},{"code":"PAN","shareholderType":"COMPANY","shareholderName":"CTCP Tập đoàn PAN","roleType":"Cổ phiếu quỹ","enRoleType":"Treasury Stock","numberOfShares":7463830,"ownershipPct":3.5730098530480063,"effectiveDate":"2021-01-11"},{"code":"PAN","shareholderType":"COMPANY","shareholderName":"Government of Singapore","roleType":"Cổ đông lớn","enRoleType":"Major Shareholder","numberOfShares":6926908,"ownershipPct":3.315979937265058,"effectiveDate":"2020-12-31"},{"code":"PAN","shareholderType":"COMPANY","shareholderName":"Công ty TNHH bất động sản Sài Gòn Đan Linh","roleType":"Cổ đông lớn","enRoleType":"Major Shareholder","numberOfShares":5786460,"ownershipPct":2.7700361066996657,"effectiveDate":"2020-12-31"},{"code":"PAN","shareholderType":"COMPANY","shareholderName":"Công ty TNHH MTV Nguyễn Sài Gòn","roleType":"Cổ đông lớn","enRoleType":"Major Shareholder","numberOfShares":3670006,"ownershipPct":1.7568684708447675,"effectiveDate":"2022-06-30"}],"currentPage":1,"size":10,"totalElements":12,"totalPages":2}