{
  "data": [
    {
      "code": "PEN",
      "shareholderType": "COMPANY",
      "shareholderName": "Công ty TNHH MTV Đóng tàu và Thương mại Petrolimex",
      "roleType": "Cổ đông lớn",
      "enRoleType": "Major Shareholder",
      "numberOfShares": 1500000,
      "ownershipPct": 30,
      "effectiveDate": "2018-04-27"
    },
    {
      "code": "PEN",
      "shareholderType": "COMPANY",
      "shareholderName": "Công ty TNHH MTV - Tổng Công ty Xây lắp và Thương mại Petrolimex",
      "roleType": "Cổ đông lớn",
      "enRoleType": "Major Shareholder",
      "numberOfShares": 1500000,
      "ownershipPct": 30,
      "effectiveDate": "2024-05-22"
    },
    {
      "code": "PEN",
      "shareholderType": "PERSON",
      "shareholderName": "Lê Huy Thủy",
      "roleType": "Cổ đông lớn",
      "enRoleType": "Major Shareholder",
      "numberOfShares": 429760,
      "ownershipPct": 8.5952,
      "effectiveDate": "2023-05-15"
    },
    {
      "code": "PEN",
      "shareholderType": "COMPANY",
      "shareholderName": "Công đoàn NH TMCP Xăng Dầu Petrolimex",
      "roleType": "Cổ đông lớn",
      "enRoleType": "Major Shareholder",
      "numberOfShares": 260000,
      "ownershipPct": 5.2,
      "effectiveDate": "2020-06-30"
    },
    {
      "code": "PEN",
      "shareholderType": "PERSON",
      "shareholderName": "Nguyễn Thị Phượng",
      "roleType": "Phó TGĐ",
      "enRoleType": "Deputy CEO",
      "numberOfShares": 249120,
      "ownershipPct": 4.9824,
      "effectiveDate": "2020-06-30"
    },
    {
      "code": "PEN",
      "shareholderType": "PERSON",
      "shareholderName": "Vũ Lộc",
      "roleType": "Cổ đông lớn",
      "enRoleType": "Major Shareholder",
      "numberOfShares": 239760,
      "ownershipPct": 4.7952,
      "effectiveDate": "2020-06-30"
    },
    {
      "code": "PEN",
      "shareholderType": "PERSON",
      "shareholderName": "Nguyễn Hồng Kỳ",
      "roleType": "Thành viên HĐQT",
      "enRoleType": "Board member",
      "numberOfShares": 214360,
      "ownershipPct": 4.2872,
      "effectiveDate": "2020-06-30"
    },
    {
      "code": "PEN",
      "shareholderType": "PERSON",
      "shareholderName": "Hà Thị Xuân Anh",
      "roleType": "Vợ của Thành viên HĐQT",
      "enRoleType": "Wife of Board member",
      "numberOfShares": 210000,
      "ownershipPct": 4.2,
      "effectiveDate": "2020-06-30"
    },
    {
      "code": "PEN",
      "shareholderType": "PERSON",
      "shareholderName": "Cung Quang Hà",
      "roleType": "Chủ tịch HĐQT",
      "enRoleType": "Chairman",
      "numberOfShares": 198740,
      "ownershipPct": 3.9748,
      "effectiveDate": "2022-06-30"
    },
    {
      "code": "PEN",
      "shareholderType": "PERSON",
      "shareholderName": "Đinh Minh Thắng",
      "roleType": "Cổ đông lớn",
      "enRoleType": "Major Shareholder",
      "numberOfShares": 92500,
      "ownershipPct": 1.85,
      "effectiveDate": "2020-06-30"
    }
  ],
  "currentPage": 1,
  "size": 10,
  "totalElements": 12,
  "totalPages": 2
}