{"data":[{"code":"PGT","shareholderType":"PERSON","shareholderName":"Nguyễn Thị Thanh Chi","roleType":"Phó TGĐ","enRoleType":"Deputy CEO","numberOfShares":1277201,"ownershipPct":14.053861282159653,"effectiveDate":"2022-06-30"},{"code":"PGT","shareholderType":"COMPANY","shareholderName":"ALL CORPORATION","roleType":"Cổ đông lớn","enRoleType":"Major Shareholder","numberOfShares":1168878,"ownershipPct":12.861913878683318,"effectiveDate":"2015-06-05"},{"code":"PGT","shareholderType":"COMPANY","shareholderName":"Công ty TNHH Thương mại Đầu tư HaLo","roleType":"Cổ đông lớn","enRoleType":"Major Shareholder","numberOfShares":906799,"ownershipPct":9.978090650415316,"effectiveDate":"2023-01-12"},{"code":"PGT","shareholderType":"PERSON","shareholderName":"Shimabukuro Yoshihiko","roleType":"Thành viên HĐQT","enRoleType":"Board member","numberOfShares":904600,"ownershipPct":9.95389364386782,"effectiveDate":"2023-06-30"},{"code":"PGT","shareholderType":"PERSON","shareholderName":"Shimabukuro Yoshinori","roleType":"Con của Thành viên HĐQT","enRoleType":"Child of Board member","numberOfShares":819740,"ownershipPct":9.020124669051743,"effectiveDate":"2018-10-16"},{"code":"PGT","shareholderType":"COMPANY","shareholderName":"Daitomi Inc.","roleType":"Cổ đông lớn","enRoleType":"Major Shareholder","numberOfShares":602103,"ownershipPct":6.625325253873254,"effectiveDate":"2015-12-31"},{"code":"PGT","shareholderType":"COMPANY","shareholderName":"Công ty TNHH Đầu tư Vina Terrace","roleType":"Cổ đông lớn","enRoleType":"Major Shareholder","numberOfShares":497201,"ownershipPct":5.471021306240022,"effectiveDate":"2023-01-16"},{"code":"PGT","shareholderType":"PERSON","shareholderName":"Vũ Văn Hiệp","roleType":"Cổ đông lớn","enRoleType":"Major Shareholder","numberOfShares":465000,"ownershipPct":5.116693062567473,"effectiveDate":"2013-09-18"},{"code":"PGT","shareholderType":"PERSON","shareholderName":"Lê Hải Đoàn","roleType":"Cổ đông lớn","enRoleType":"Major Shareholder","numberOfShares":463300,"ownershipPct":5.097986872876366,"effectiveDate":"2017-03-14"},{"code":"PGT","shareholderType":"COMPANY","shareholderName":"Công đoàn và CTPC Vietnam Manpower Supply","roleType":"Cổ đông lớn","enRoleType":"Major Shareholder","numberOfShares":460497,"ownershipPct":5.067143667168029,"effectiveDate":"2022-03-02"}],"currentPage":1,"size":10,"totalElements":12,"totalPages":2}