{
  "data": [
    {
      "code": "PHH",
      "shareholderType": "PERSON",
      "shareholderName": "Nguyễn Thị Huyền Trang",
      "roleType": "Chủ tịch HĐQT",
      "enRoleType": "Chairman",
      "numberOfShares": 3575600,
      "ownershipPct": 19.754696132596685,
      "effectiveDate": "2023-06-30"
    },
    {
      "code": "PHH",
      "shareholderType": "PERSON",
      "shareholderName": "Nguyễn Tuấn Anh",
      "roleType": "Cổ đông lớn",
      "enRoleType": "Major Shareholder",
      "numberOfShares": 2871160,
      "ownershipPct": 15.862762430939226,
      "effectiveDate": "2022-04-15"
    },
    {
      "code": "PHH",
      "shareholderType": "PERSON",
      "shareholderName": "Trương Mỹ Hạnh",
      "roleType": "Thành viên BKS",
      "enRoleType": "Control member",
      "numberOfShares": 2511496,
      "ownershipPct": 13.875668508287292,
      "effectiveDate": "2022-04-15"
    },
    {
      "code": "PHH",
      "shareholderType": "PERSON",
      "shareholderName": "Nguyễn Thị Thúy Huyền",
      "roleType": "Thành viên HĐQT",
      "enRoleType": "Board member",
      "numberOfShares": 2486770,
      "ownershipPct": 13.739060773480663,
      "effectiveDate": "2022-01-07"
    },
    {
      "code": "PHH",
      "shareholderType": "PERSON",
      "shareholderName": "Phạm Ngọc Dung",
      "roleType": "Cổ đông lớn",
      "enRoleType": "Major Shareholder",
      "numberOfShares": 2243900,
      "ownershipPct": 12.397237569060774,
      "effectiveDate": "2022-01-07"
    },
    {
      "code": "PHH",
      "shareholderType": "COMPANY",
      "shareholderName": "Công ty Cổ phần Đầu tư và Quản lý mặt bằng Hà Nội",
      "roleType": "Cổ đông lớn",
      "enRoleType": "Major Shareholder",
      "numberOfShares": 2138300,
      "ownershipPct": 11.813812154696132,
      "effectiveDate": "2022-05-27"
    },
    {
      "code": "PHH",
      "shareholderType": "COMPANY",
      "shareholderName": "Hồng Hà Việt Nam",
      "roleType": "Cổ phiếu quỹ",
      "enRoleType": "Treasury Stock",
      "numberOfShares": 1900000,
      "ownershipPct": 10.497237569060774,
      "effectiveDate": "2013-03-01"
    },
    {
      "code": "PHH",
      "shareholderType": "PERSON",
      "shareholderName": "Trần Thị Thanh Bình",
      "roleType": "Thành viên HĐQT",
      "enRoleType": "Board member",
      "numberOfShares": 1000000,
      "ownershipPct": 5.524861878453039,
      "effectiveDate": "2022-03-18"
    },
    {
      "code": "PHH",
      "shareholderType": "PERSON",
      "shareholderName": "Nguyễn Thanh Đức",
      "roleType": "Cổ đông lớn",
      "enRoleType": "Major Shareholder",
      "numberOfShares": 882000,
      "ownershipPct": 4.87292817679558,
      "effectiveDate": "2017-03-17"
    },
    {
      "code": "PHH",
      "shareholderType": "COMPANY",
      "shareholderName": "Tài chính Điện lực",
      "roleType": "Cổ đông lớn",
      "enRoleType": "Major Shareholder",
      "numberOfShares": 868900,
      "ownershipPct": 4.800552486187845,
      "effectiveDate": "2017-06-02"
    }
  ],
  "currentPage": 1,
  "size": 10,
  "totalElements": 14,
  "totalPages": 2
}