{"data":[{"code":"PNC","shareholderType":"COMPANY","shareholderName":"CTCP Phát triển Kinh doanh Trường Phát","roleType":"Cổ đông lớn","enRoleType":"Major Shareholder","numberOfShares":2682280,"ownershipPct":24.837418470795143,"effectiveDate":"2016-09-01"},{"code":"PNC","shareholderType":"COMPANY","shareholderName":"CTCP Phát triển kinh doanh Thành Vinh","roleType":"Cổ đông lớn","enRoleType":"Major Shareholder","numberOfShares":2514869,"ownershipPct":23.28722346370629,"effectiveDate":"2017-03-06"},{"code":"PNC","shareholderType":"PERSON","shareholderName":"Nguyễn Hữu Đức","roleType":"Cổ đông lớn","enRoleType":"Major Shareholder","numberOfShares":1136081,"ownershipPct":10.519900686624595,"effectiveDate":"2016-08-31"},{"code":"PNC","shareholderType":"PERSON","shareholderName":"Phạm Vĩnh Đức","roleType":"Cổ đông lớn","enRoleType":"Major Shareholder","numberOfShares":647120,"ownershipPct":5.9922119394026545,"effectiveDate":"2010-07-30"},{"code":"PNC","shareholderType":"COMPANY","shareholderName":"The Caravel Fund (International) Limited","roleType":"Cổ đông lớn","enRoleType":"Major Shareholder","numberOfShares":628540,"ownershipPct":5.820164563592757,"effectiveDate":"2020-06-30"},{"code":"PNC","shareholderType":"PERSON","shareholderName":"Phan Thị Lệ","roleType":"Cổ đông lớn","enRoleType":"Major Shareholder","numberOfShares":605251,"ownershipPct":5.604512715625226,"effectiveDate":"2020-06-30"},{"code":"PNC","shareholderType":"COMPANY","shareholderName":"Công ty Cổ phần Hồng Ngân","roleType":"Cổ đông lớn","enRoleType":"Major Shareholder","numberOfShares":521950,"ownershipPct":4.833160807533712,"effectiveDate":"2014-12-03"},{"code":"PNC","shareholderType":"COMPANY","shareholderName":"Intereffekt Investment Funds N.V.","roleType":"Cổ đông lớn","enRoleType":"Major Shareholder","numberOfShares":450000,"ownershipPct":4.166917067516372,"effectiveDate":"2014-03-28"},{"code":"PNC","shareholderType":"COMPANY","shareholderName":"Indochina Capital Vietnam Holdings Limited","roleType":"Cổ đông lớn","enRoleType":"Major Shareholder","numberOfShares":434104,"ownershipPct":4.019723037060283,"effectiveDate":"2009-09-09"},{"code":"PNC","shareholderType":"COMPANY","shareholderName":"VOF Investment Limited","roleType":"Cổ đông lớn","enRoleType":"Major Shareholder","numberOfShares":317764,"ownershipPct":2.9424360778717165,"effectiveDate":"2009-04-15"}],"currentPage":1,"size":10,"totalElements":11,"totalPages":2}