{
  "data": [
    {
      "code": "PNJ",
      "shareholderType": "PERSON",
      "shareholderName": "Trương Ngọc Phượng",
      "roleType": "Cổ đông lớn",
      "enRoleType": "Major Shareholder",
      "numberOfShares": 27832697,
      "ownershipPct": 8.158513807864079,
      "effectiveDate": "2022-12-29"
    },
    {
      "code": "PNJ",
      "shareholderType": "COMPANY",
      "shareholderName": "T. Rowe Price Group, Inc",
      "roleType": "Cổ đông lớn",
      "enRoleType": "Major Shareholder",
      "numberOfShares": 17509531,
      "ownershipPct": 5.132515560124271,
      "effectiveDate": "2025-05-14"
    },
    {
      "code": "PNJ",
      "shareholderType": "COMPANY",
      "shareholderName": "Sprucegrove Investment Management",
      "roleType": "Cổ đông lớn",
      "enRoleType": "Major Shareholder",
      "numberOfShares": 16269282,
      "ownershipPct": 4.768965143443861,
      "effectiveDate": "2025-04-16"
    },
    {
      "code": "PNJ",
      "shareholderType": "COMPANY",
      "shareholderName": "LGM Investments Ltd",
      "roleType": "Cổ đông lớn",
      "enRoleType": "Major Shareholder",
      "numberOfShares": 13060247,
      "ownershipPct": 3.8283104753957335,
      "effectiveDate": "2022-12-29"
    },
    {
      "code": "PNJ",
      "shareholderType": "PERSON",
      "shareholderName": "Trần Phương Ngọc Hà",
      "roleType": "Con của Chủ tịch HĐQT",
      "enRoleType": "Child of Chairman",
      "numberOfShares": 12266666,
      "ownershipPct": 3.595690490844521,
      "groupPct": 13.026485512682289,
      "effectiveDate": "2023-06-30"
    },
    {
      "code": "PNJ",
      "shareholderType": "COMPANY",
      "shareholderName": "Công ty quản lý quỹ đầu tư Dragon Capital",
      "roleType": "Cổ đông lớn",
      "enRoleType": "Major Shareholder",
      "numberOfShares": 11999813,
      "ownershipPct": 3.5174686826895316,
      "effectiveDate": "2022-12-29"
    },
    {
      "code": "PNJ",
      "shareholderType": "PERSON",
      "shareholderName": "Trần Phương Ngọc Thảo",
      "roleType": "Phó chủ tịch HĐQT",
      "enRoleType": "Vice-chairman",
      "numberOfShares": 11868666,
      "ownershipPct": 3.479025961513069,
      "groupPct": 13.026485512682289,
      "effectiveDate": "2025-01-14"
    },
    {
      "code": "PNJ",
      "shareholderType": "COMPANY",
      "shareholderName": "Route One Investment Company",
      "roleType": "Cổ đông lớn",
      "enRoleType": "Major Shareholder",
      "numberOfShares": 10230240,
      "ownershipPct": 2.9987591320296203,
      "effectiveDate": "2022-12-29"
    },
    {
      "code": "PNJ",
      "shareholderType": "COMPANY",
      "shareholderName": "Vietnam Investment Limited",
      "roleType": "Cổ đông lớn",
      "enRoleType": "Major Shareholder",
      "numberOfShares": 9948184,
      "ownershipPct": 2.916080914730344,
      "effectiveDate": "2022-12-29"
    },
    {
      "code": "PNJ",
      "shareholderType": "PERSON",
      "shareholderName": "Cao Thị Ngọc Dung",
      "roleType": "Chủ tịch HĐQT",
      "enRoleType": "Chairman",
      "numberOfShares": 9637789,
      "ownershipPct": 2.8250957725649273,
      "effectiveDate": "2024-12-31"
    }
  ],
  "currentPage": 1,
  "size": 10,
  "totalElements": 19,
  "totalPages": 2
}