{"data":[{"code":"PVD","shareholderType":"COMPANY","shareholderName":"Tập đoàn Dầu khí Việt Nam","roleType":"Cổ đông lớn","enRoleType":"Major Shareholder","numberOfShares":280496574,"ownershipPct":50.4599141851488,"effectiveDate":"2022-08-05"},{"code":"PVD","shareholderType":"COMPANY","shareholderName":"CTBC Vietnam Equity Fund","roleType":"Cổ đông lớn","enRoleType":"Major Shareholder","numberOfShares":27500000,"ownershipPct":4.9471108338442376,"effectiveDate":"2024-01-15"},{"code":"PVD","shareholderType":"COMPANY","shareholderName":"PYN ELITE FUND (NON - UCITS)","roleType":"Cổ đông lớn","enRoleType":"Major Shareholder","numberOfShares":27403345,"ownershipPct":4.929723088475321,"effectiveDate":"2022-08-05"},{"code":"PVD","shareholderType":"COMPANY","shareholderName":"Deutsche Bank AG, London Branch","roleType":"Cổ đông lớn","enRoleType":"Major Shareholder","numberOfShares":20307357,"ownershipPct":3.653190757143368,"effectiveDate":"2022-08-05"},{"code":"PVD","shareholderType":"COMPANY","shareholderName":"Tổng Công ty Tài chính cổ phần Dầu khí Việt Nam","roleType":"Cổ đông lớn","enRoleType":"Major Shareholder","numberOfShares":17064027,"ownershipPct":3.0697321032985667,"effectiveDate":"2022-08-05"},{"code":"PVD","shareholderType":"COMPANY","shareholderName":"TGIT-Templetion Frontier Markets Fund","roleType":"Cổ đông lớn","enRoleType":"Major Shareholder","numberOfShares":13179559,"ownershipPct":2.3709359677887027,"effectiveDate":"2022-08-05"},{"code":"PVD","shareholderType":"COMPANY","shareholderName":"Norges Bank","roleType":"Cổ đông lớn","enRoleType":"Major Shareholder","numberOfShares":11119000,"ownershipPct":2.000251831327785,"effectiveDate":"2024-01-10"},{"code":"PVD","shareholderType":"COMPANY","shareholderName":"Công ty Cổ phần Chứng khoán Âu Việt","roleType":"Cổ đông lớn","enRoleType":"Major Shareholder","numberOfShares":9372812,"ownershipPct":1.6861214468649193,"effectiveDate":"2011-10-05"},{"code":"PVD","shareholderType":"COMPANY","shareholderName":"DC Developing Markets Strategies Public Limited Company","roleType":"Cổ đông lớn","enRoleType":"Major Shareholder","numberOfShares":8850000,"ownershipPct":1.592070213800782,"effectiveDate":"2024-01-10"},{"code":"PVD","shareholderType":"COMPANY","shareholderName":"Hanoi Investments Holdings Limited","roleType":"Cổ đông lớn","enRoleType":"Major Shareholder","numberOfShares":8114300,"ownershipPct":1.4597215068749927,"effectiveDate":"2024-05-15"}],"currentPage":1,"size":10,"totalElements":17,"totalPages":2}