{"data":[{"code":"PVE","shareholderType":"COMPANY","shareholderName":"Tập đoàn Dầu khí Việt Nam","roleType":"Cổ đông lớn","enRoleType":"Major Shareholder","numberOfShares":7250000,"ownershipPct":29,"effectiveDate":"2020-06-30"},{"code":"PVE","shareholderType":"COMPANY","shareholderName":"Technip Geoproduction Malaysia","roleType":"Cổ đông lớn","enRoleType":"Major Shareholder","numberOfShares":2500000,"ownershipPct":10,"effectiveDate":"2020-06-30"},{"code":"PVE","shareholderType":"COMPANY","shareholderName":"Vietnam Equity Holding","roleType":"Cổ đông lớn","enRoleType":"Major Shareholder","numberOfShares":1842675,"ownershipPct":7.3707,"effectiveDate":"2020-06-30"},{"code":"PVE","shareholderType":"COMPANY","shareholderName":"Xây lắp D.khí VN","roleType":"Cổ đông lớn","enRoleType":"Major Shareholder","numberOfShares":1802320,"ownershipPct":7.20928,"effectiveDate":"2020-06-30"},{"code":"PVE","shareholderType":"COMPANY","shareholderName":"Công ty cổ phần Giải pháp công nghệ ULATECH","roleType":"Cổ đông lớn","enRoleType":"Major Shareholder","numberOfShares":1623500,"ownershipPct":6.494,"effectiveDate":"2024-04-05"},{"code":"PVE","shareholderType":"PERSON","shareholderName":"Nguyễn Tiến Dũng","roleType":"Cổ đông lớn","enRoleType":"Major Shareholder","numberOfShares":1560000,"ownershipPct":6.24,"effectiveDate":"2014-04-01"},{"code":"PVE","shareholderType":"PERSON","shareholderName":"Trần Nguyễn Sông Hàn","roleType":"Cổ đông lớn","enRoleType":"Major Shareholder","numberOfShares":1473800,"ownershipPct":5.8952,"effectiveDate":"2022-06-30"},{"code":"PVE","shareholderType":"COMPANY","shareholderName":"Vietnam Holding LTD","roleType":"Cổ đông lớn","enRoleType":"Major Shareholder","numberOfShares":1177440,"ownershipPct":4.70976,"effectiveDate":"2012-12-12"},{"code":"PVE","shareholderType":"COMPANY","shareholderName":"America LLC","roleType":"Cổ đông lớn","enRoleType":"Major Shareholder","numberOfShares":1161000,"ownershipPct":4.644,"effectiveDate":"2017-09-25"},{"code":"PVE","shareholderType":"PERSON","shareholderName":"Đỗ Đức Hiếu","roleType":"Cổ đông lớn","enRoleType":"Major Shareholder","numberOfShares":1149669,"ownershipPct":4.598676,"effectiveDate":"2014-04-01"}],"currentPage":1,"size":10,"totalElements":11,"totalPages":2}