{"data":[{"code":"PVI","shareholderType":"COMPANY","shareholderName":"HDI Global SE","roleType":"Cổ đông lớn","enRoleType":"Major Shareholder","numberOfShares":91183609,"ownershipPct":37.22309180390533,"effectiveDate":"2024-01-31"},{"code":"PVI","shareholderType":"COMPANY","shareholderName":"HDI- Gerling Industrie Versicherung AG","roleType":"Cổ đông lớn","enRoleType":"Major Shareholder","numberOfShares":83711071,"ownershipPct":34.172642594528554,"effectiveDate":"2019-03-22"},{"code":"PVI","shareholderType":"COMPANY","shareholderName":"Tập đoàn Dầu khí Việt Nam","roleType":"Cổ đông lớn","enRoleType":"Major Shareholder","numberOfShares":81978740,"ownershipPct":33.4654681740935,"effectiveDate":"2015-10-21"},{"code":"PVI","shareholderType":"COMPANY","shareholderName":"Funderburk Lighthouse Limited","roleType":"Cổ đông lớn","enRoleType":"Major Shareholder","numberOfShares":29535195,"ownershipPct":12.05689582796888,"effectiveDate":"2024-03-20"},{"code":"PVI","shareholderType":"COMPANY","shareholderName":"Tổng Công ty Tài chính cổ phần Dầu khí Việt Nam","roleType":"Cổ đông lớn","enRoleType":"Major Shareholder","numberOfShares":14593243,"ownershipPct":5.957272692570205,"effectiveDate":"2012-06-15"},{"code":"PVI","shareholderType":"COMPANY","shareholderName":"Công ty cổ phần đầu tư Đường Mặt Trời","roleType":"Cổ đông lớn","enRoleType":"Major Shareholder","numberOfShares":10299421,"ownershipPct":4.204443074961755,"effectiveDate":"2019-05-20"},{"code":"PVI","shareholderType":"COMPANY","shareholderName":"IFC EMERGING ASIA FUND, LP","roleType":"Cổ đông lớn","enRoleType":"Major Shareholder","numberOfShares":4919079,"ownershipPct":2.0080728457201427,"effectiveDate":"2021-08-06"},{"code":"PVI","shareholderType":"COMPANY","shareholderName":"IFC FINANCIAL INSTITUTIONS GROWTH FUND. LP","roleType":"Cổ đông lớn","enRoleType":"Major Shareholder","numberOfShares":4919079,"ownershipPct":2.0080728457201427,"effectiveDate":"2021-08-06"},{"code":"PVI","shareholderType":"COMPANY","shareholderName":"Chứng khoán HSC","roleType":"Cổ đông lớn","enRoleType":"Major Shareholder","numberOfShares":4614000,"ownershipPct":1.8835330984017005,"effectiveDate":"2021-07-20"},{"code":"PVI","shareholderType":"COMPANY","shareholderName":"International Finance Corporation","roleType":"Cổ đông lớn","enRoleType":"Major Shareholder","numberOfShares":4216354,"ownershipPct":1.7212055296008677,"effectiveDate":"2021-08-06"}],"currentPage":1,"size":10,"totalElements":12,"totalPages":2}