{"data":[{"code":"PVL","shareholderType":"PERSON","shareholderName":"Nguyễn Việt Dũng","roleType":"Thành viên HĐQT","enRoleType":"Board member","numberOfShares":4751500,"ownershipPct":9.503,"effectiveDate":"2024-06-28"},{"code":"PVL","shareholderType":"PERSON","shareholderName":"Trịnh Quốc Khánh","roleType":"Thành viên HĐQT","enRoleType":"Board member","numberOfShares":4568200,"ownershipPct":9.1364,"effectiveDate":"2024-04-05"},{"code":"PVL","shareholderType":"COMPANY","shareholderName":"Xây lắp D.khí VN","roleType":"Cổ đông lớn","enRoleType":"Major Shareholder","numberOfShares":4000000,"ownershipPct":8,"effectiveDate":"2014-12-26"},{"code":"PVL","shareholderType":"PERSON","shareholderName":"Nguyễn Quang Thoại","roleType":"Cổ đông lớn","enRoleType":"Major Shareholder","numberOfShares":2774600,"ownershipPct":5.5492,"effectiveDate":"2012-04-19"},{"code":"PVL","shareholderType":"COMPANY","shareholderName":"Công ty TNHH Đầu tư và Phát triển Công nghệ Việt Nam","roleType":"Cổ đông lớn","enRoleType":"Major Shareholder","numberOfShares":2470000,"ownershipPct":4.94,"effectiveDate":"2024-05-17"},{"code":"PVL","shareholderType":"PERSON","shareholderName":"Bạch Đức Huyến","roleType":"Cổ đông lớn","enRoleType":"Major Shareholder","numberOfShares":2450000,"ownershipPct":4.9,"effectiveDate":"2024-07-12"},{"code":"PVL","shareholderType":"COMPANY","shareholderName":"Ngân hàng TMCP Đại chúng Việt Nam (PVcomBank)","roleType":"Cổ đông lớn","enRoleType":"Major Shareholder","numberOfShares":1970400,"ownershipPct":3.9408,"effectiveDate":"2014-09-08"},{"code":"PVL","shareholderType":"COMPANY","shareholderName":"CTCP Đầu tư xây dựng SaigonLand","roleType":"Cổ đông lớn","enRoleType":"Major Shareholder","numberOfShares":1269400,"ownershipPct":2.5388,"effectiveDate":"2018-01-22"},{"code":"PVL","shareholderType":"PERSON","shareholderName":"Phạm Thị Hòa","roleType":"Cổ đông lớn","enRoleType":"Major Shareholder","numberOfShares":1134400,"ownershipPct":2.2688,"effectiveDate":"2021-10-25"},{"code":"PVL","shareholderType":"COMPANY","shareholderName":"SJ Group Joint Stock company","roleType":"Cổ đông lớn","enRoleType":"Major Shareholder","numberOfShares":880000,"ownershipPct":1.76,"effectiveDate":"2021-11-05"}],"currentPage":1,"size":10,"totalElements":12,"totalPages":2}