{
  "data": [
    {
      "code": "PVR",
      "shareholderType": "PERSON",
      "shareholderName": "Nguyễn Văn Bình",
      "roleType": "Cổ đông lớn",
      "enRoleType": "Major Shareholder",
      "numberOfShares": 12485200,
      "ownershipPct": 24.053150890136312,
      "effectiveDate": "2013-01-25"
    },
    {
      "code": "PVR",
      "shareholderType": "PERSON",
      "shareholderName": "Trần Thị Thắm",
      "roleType": "Vợ của Chủ tịch HĐQT",
      "enRoleType": "Wife of Chairman",
      "numberOfShares": 12483000,
      "ownershipPct": 24.048912517346263,
      "effectiveDate": "2025-06-13"
    },
    {
      "code": "PVR",
      "shareholderType": "PERSON",
      "shareholderName": "Trần Thị Thắm",
      "roleType": "Cổ đông lớn",
      "enRoleType": "Major Shareholder",
      "numberOfShares": 12483000,
      "ownershipPct": 24.048912517346263,
      "effectiveDate": "2025-06-13"
    },
    {
      "code": "PVR",
      "shareholderType": "COMPANY",
      "shareholderName": "Công ty cổ phần quản lý Quỹ PVI",
      "roleType": "Cổ đông lớn",
      "enRoleType": "Major Shareholder",
      "numberOfShares": 4350000,
      "ownershipPct": 8.380418925775555,
      "effectiveDate": "2017-07-21"
    },
    {
      "code": "PVR",
      "shareholderType": "PERSON",
      "shareholderName": "Nguyễn Ngọc Minh",
      "roleType": "Cổ đông lớn",
      "enRoleType": "Major Shareholder",
      "numberOfShares": 4350000,
      "ownershipPct": 8.380418925775555,
      "effectiveDate": "2017-01-23"
    },
    {
      "code": "PVR",
      "shareholderType": "COMPANY",
      "shareholderName": "Tập đoàn Đại Dương",
      "roleType": "Cổ đông lớn",
      "enRoleType": "Major Shareholder",
      "numberOfShares": 3185000,
      "ownershipPct": 6.136007880136814,
      "effectiveDate": "2022-02-18"
    },
    {
      "code": "PVR",
      "shareholderType": "PERSON",
      "shareholderName": "Đoàn Văn An",
      "roleType": "Cổ đông lớn",
      "enRoleType": "Major Shareholder",
      "numberOfShares": 3000000,
      "ownershipPct": 5.779599259155555,
      "effectiveDate": "2020-06-30"
    },
    {
      "code": "PVR",
      "shareholderType": "PERSON",
      "shareholderName": "Bùi Văn Phú",
      "roleType": "Chủ tịch HĐQT",
      "enRoleType": "Chairman",
      "numberOfShares": 2715520,
      "ownershipPct": 5.231539126740698,
      "effectiveDate": "2025-06-20"
    },
    {
      "code": "PVR",
      "shareholderType": "COMPANY",
      "shareholderName": "Công ty TNHH MHD Golf",
      "roleType": "Cổ đông lớn",
      "enRoleType": "Major Shareholder",
      "numberOfShares": 2705100,
      "ownershipPct": 5.211464651980564,
      "effectiveDate": "2017-10-13"
    },
    {
      "code": "PVR",
      "shareholderType": "PERSON",
      "shareholderName": "Khúc Thị Thanh Huyền",
      "roleType": "Kế toán trưởng",
      "enRoleType": "Chief Accountant",
      "numberOfShares": 2539400,
      "ownershipPct": 4.892238119566539,
      "effectiveDate": "2017-07-31"
    }
  ],
  "currentPage": 1,
  "size": 10,
  "totalElements": 14,
  "totalPages": 2
}