{
  "data": [
    {
      "code": "PVV",
      "shareholderType": "COMPANY",
      "shareholderName": "Công ty Cổ phần Quản lý quỹ Đầu tư Chứng khoán Hapaco",
      "roleType": "Cổ đông lớn",
      "enRoleType": "Major Shareholder",
      "numberOfShares": 5714000,
      "ownershipPct": 19.046666666666667,
      "effectiveDate": "2012-12-26"
    },
    {
      "code": "PVV",
      "shareholderType": "COMPANY",
      "shareholderName": "MBV Bank",
      "roleType": "Cổ đông lớn",
      "enRoleType": "Major Shareholder",
      "numberOfShares": 5000000,
      "ownershipPct": 16.666666666666668,
      "effectiveDate": "2020-06-30"
    },
    {
      "code": "PVV",
      "shareholderType": "PERSON",
      "shareholderName": "Phạm Thị Huyền Trang",
      "roleType": "Cổ đông lớn",
      "enRoleType": "Major Shareholder",
      "numberOfShares": 5000000,
      "ownershipPct": 16.666666666666668,
      "effectiveDate": "2021-06-30"
    },
    {
      "code": "PVV",
      "shareholderType": "PERSON",
      "shareholderName": "Nguyễn Bích Hằng",
      "roleType": "Thành viên HĐQT",
      "enRoleType": "Board member",
      "numberOfShares": 4216000,
      "ownershipPct": 14.053333333333333,
      "effectiveDate": "2023-12-22"
    },
    {
      "code": "PVV",
      "shareholderType": "PERSON",
      "shareholderName": "Nguyễn Việt Hưng",
      "roleType": "Thành viên HĐQT",
      "enRoleType": "Board member",
      "numberOfShares": 2967200,
      "ownershipPct": 9.890666666666666,
      "effectiveDate": "2023-12-22"
    },
    {
      "code": "PVV",
      "shareholderType": "COMPANY",
      "shareholderName": "Công ty cổ phần Khoáng sản Bắc Trung Bộ",
      "roleType": "Cổ đông lớn",
      "enRoleType": "Major Shareholder",
      "numberOfShares": 2133300,
      "ownershipPct": 7.111,
      "effectiveDate": "2021-12-03"
    },
    {
      "code": "PVV",
      "shareholderType": "PERSON",
      "shareholderName": "Dương Ngọc Hùng",
      "roleType": "Cổ đông lớn",
      "enRoleType": "Major Shareholder",
      "numberOfShares": 2016800,
      "ownershipPct": 6.722666666666667,
      "effectiveDate": "2023-12-22"
    },
    {
      "code": "PVV",
      "shareholderType": "COMPANY",
      "shareholderName": "Chứng khoán MB",
      "roleType": "Cổ đông lớn",
      "enRoleType": "Major Shareholder",
      "numberOfShares": 1300000,
      "ownershipPct": 4.333333333333333,
      "effectiveDate": "2020-06-30"
    },
    {
      "code": "PVV",
      "shareholderType": "COMPANY",
      "shareholderName": "Ngân hàng TMCP Đại chúng Việt Nam (PVcomBank)",
      "roleType": "Cổ đông lớn",
      "enRoleType": "Major Shareholder",
      "numberOfShares": 1000000,
      "ownershipPct": 3.3333333333333335,
      "effectiveDate": "2014-09-12"
    },
    {
      "code": "PVV",
      "shareholderType": "COMPANY",
      "shareholderName": "CTCP Đầu tư xây dựng và kỹ thuật Vinaconex (E&C)",
      "roleType": "Cổ đông lớn",
      "enRoleType": "Major Shareholder",
      "numberOfShares": 763900,
      "ownershipPct": 2.546333333333333,
      "effectiveDate": "2021-04-19"
    }
  ],
  "currentPage": 1,
  "size": 10,
  "totalElements": 12,
  "totalPages": 2
}