{
  "data": [
    {
      "code": "QST",
      "shareholderType": "PERSON",
      "shareholderName": "Vũ Thế Anh",
      "roleType": "Thành viên HĐQT",
      "enRoleType": "Board member",
      "numberOfShares": 330000,
      "ownershipPct": 10.185185185185185,
      "effectiveDate": "2023-03-15"
    },
    {
      "code": "QST",
      "shareholderType": "PERSON",
      "shareholderName": "Vũ Thế Bân",
      "roleType": "Cổ đông lớn",
      "enRoleType": "Major Shareholder",
      "numberOfShares": 330000,
      "ownershipPct": 10.185185185185185,
      "effectiveDate": "2021-12-31"
    },
    {
      "code": "QST",
      "shareholderType": "PERSON",
      "shareholderName": "Nguyễn Trọng Khải",
      "roleType": "Cổ đông lớn",
      "enRoleType": "Major Shareholder",
      "numberOfShares": 273600,
      "ownershipPct": 8.444444444444445,
      "effectiveDate": "2021-12-31"
    },
    {
      "code": "QST",
      "shareholderType": "PERSON",
      "shareholderName": "Vũ Thế Hòa",
      "roleType": "Chủ tịch HĐQT",
      "enRoleType": "Chairman",
      "numberOfShares": 267474,
      "ownershipPct": 8.25537037037037,
      "effectiveDate": "2021-12-31"
    },
    {
      "code": "QST",
      "shareholderType": "PERSON",
      "shareholderName": "Nguyễn Trọng Nhã",
      "roleType": "Thành viên HĐQT",
      "enRoleType": "Board member",
      "numberOfShares": 188000,
      "ownershipPct": 5.802469135802469,
      "effectiveDate": "2021-12-31"
    },
    {
      "code": "QST",
      "shareholderType": "PERSON",
      "shareholderName": "Hoàng Thị Kim Khánh",
      "roleType": "Thành viên HĐQT",
      "enRoleType": "Board member",
      "numberOfShares": 73280,
      "ownershipPct": 2.2617283950617284,
      "effectiveDate": "2021-12-31"
    },
    {
      "code": "QST",
      "shareholderType": "PERSON",
      "shareholderName": "Đồng Thị Oanh",
      "roleType": "Cổ đông lớn",
      "enRoleType": "Major Shareholder",
      "numberOfShares": 73200,
      "ownershipPct": 2.259259259259259,
      "effectiveDate": "2022-06-30"
    },
    {
      "code": "QST",
      "shareholderType": "PERSON",
      "shareholderName": "Vũ Kim Yến",
      "roleType": "Chị của Thành viên HĐQT",
      "enRoleType": "Elder Sister of Board member",
      "numberOfShares": 70000,
      "ownershipPct": 2.1604938271604937,
      "groupPct": 3.0691358024691358,
      "effectiveDate": "2023-06-30"
    },
    {
      "code": "QST",
      "shareholderType": "PERSON",
      "shareholderName": "Trần Hoài An",
      "roleType": "Kế toán trưởng",
      "enRoleType": "Chief Accountant",
      "numberOfShares": 63120,
      "ownershipPct": 1.9481481481481482,
      "effectiveDate": "2023-06-30"
    },
    {
      "code": "QST",
      "shareholderType": "PERSON",
      "shareholderName": "Nguyễn Thị Yến",
      "roleType": "Thành viên HĐQT",
      "enRoleType": "Board member",
      "numberOfShares": 60000,
      "ownershipPct": 1.8518518518518519,
      "effectiveDate": "2021-12-31"
    }
  ],
  "currentPage": 1,
  "size": 10,
  "totalElements": 13,
  "totalPages": 2
}