{
  "data": [
    {
      "code": "RAT",
      "shareholderType": "PERSON",
      "shareholderName": "Phạm Thị Minh Giang",
      "roleType": "Vợ của Đại diện CBTT",
      "enRoleType": "Wife of Spokeman",
      "numberOfShares": 1145300,
      "ownershipPct": 19.340269352047784,
      "effectiveDate": "2021-06-10"
    },
    {
      "code": "RAT",
      "shareholderType": "PERSON",
      "shareholderName": "Mai Hoàng Long",
      "roleType": "Thành viên HĐQT",
      "enRoleType": "Board member",
      "numberOfShares": 1092644,
      "ownershipPct": 18.45108641045918,
      "effectiveDate": "2022-12-31"
    },
    {
      "code": "RAT",
      "shareholderType": "COMPANY",
      "shareholderName": "Tổng công ty Đường sắt Việt Nam",
      "roleType": "Cổ đông lớn",
      "enRoleType": "Major Shareholder",
      "numberOfShares": 1092644,
      "ownershipPct": 18.45108641045918,
      "effectiveDate": "2020-06-30"
    },
    {
      "code": "RAT",
      "shareholderType": "PERSON",
      "shareholderName": "Trần Thế Hùng",
      "roleType": "Thành viên HĐQT",
      "enRoleType": "Board member",
      "numberOfShares": 972749,
      "ownershipPct": 16.426462649030935,
      "effectiveDate": "2021-06-11"
    },
    {
      "code": "RAT",
      "shareholderType": "PERSON",
      "shareholderName": "Trần Thị Thu Nga",
      "roleType": "Thành viên HĐQT",
      "enRoleType": "Board member",
      "numberOfShares": 612083,
      "ownershipPct": 10.336025570426495,
      "effectiveDate": "2021-06-11"
    },
    {
      "code": "RAT",
      "shareholderType": "PERSON",
      "shareholderName": "Đỗ Khánh Dư",
      "roleType": "Thành viên HĐQT",
      "enRoleType": "Board member",
      "numberOfShares": 452980,
      "ownershipPct": 7.649310408705671,
      "effectiveDate": "2020-06-30"
    },
    {
      "code": "RAT",
      "shareholderType": "PERSON",
      "shareholderName": "Nguyễn Thị Kim Anh",
      "roleType": "Cổ đông lớn",
      "enRoleType": "Major Shareholder",
      "numberOfShares": 385300,
      "ownershipPct": 6.506422580410383,
      "effectiveDate": "2021-06-10"
    },
    {
      "code": "RAT",
      "shareholderType": "PERSON",
      "shareholderName": "Nguyễn Tuấn Vinh",
      "roleType": "Đại diện CBTT",
      "enRoleType": "Spokeman",
      "numberOfShares": 238842,
      "ownershipPct": 4.033238987672921,
      "effectiveDate": "2019-12-06"
    },
    {
      "code": "RAT",
      "shareholderType": "PERSON",
      "shareholderName": "Nguyễn Chính Nam",
      "roleType": "Cổ đông lớn",
      "enRoleType": "Major Shareholder",
      "numberOfShares": 221880,
      "ownershipPct": 3.7468077916985614,
      "effectiveDate": "2019-12-13"
    },
    {
      "code": "RAT",
      "shareholderType": "PERSON",
      "shareholderName": "Trần Công Nghĩa",
      "roleType": "Con của Thành viên HĐQT",
      "enRoleType": "Child of Board member",
      "numberOfShares": 188349,
      "ownershipPct": 3.180581849462017,
      "effectiveDate": "2022-12-31"
    }
  ],
  "currentPage": 1,
  "size": 10,
  "totalElements": 11,
  "totalPages": 2
}