{
  "data": [
    {
      "code": "RCC",
      "shareholderType": "PERSON",
      "shareholderName": "Tạ Hữu Diễn",
      "roleType": "Phó chủ tịch HĐQT",
      "enRoleType": "Vice-chairman",
      "numberOfShares": 6241075,
      "ownershipPct": 19.463975844626134,
      "effectiveDate": "2023-12-31"
    },
    {
      "code": "RCC",
      "shareholderType": "COMPANY",
      "shareholderName": "Chứng khoán SG HN",
      "roleType": "Cổ đông lớn",
      "enRoleType": "Major Shareholder",
      "numberOfShares": 3105750,
      "ownershipPct": 9.685870299499303,
      "effectiveDate": "2022-11-03"
    },
    {
      "code": "RCC",
      "shareholderType": "PERSON",
      "shareholderName": "Nguyễn Hải Duy",
      "roleType": "Cổ đông lớn",
      "enRoleType": "Major Shareholder",
      "numberOfShares": 2738760,
      "ownershipPct": 8.54134239441575,
      "effectiveDate": "2022-11-03"
    },
    {
      "code": "RCC",
      "shareholderType": "PERSON",
      "shareholderName": "Đậu Hoàng Việt",
      "roleType": "Cổ đông lớn",
      "enRoleType": "Major Shareholder",
      "numberOfShares": 2066240,
      "ownershipPct": 6.443961248534957,
      "effectiveDate": "2022-11-03"
    },
    {
      "code": "RCC",
      "shareholderType": "PERSON",
      "shareholderName": "Lê Thị Thanh Thủy",
      "roleType": "Cổ đông lớn",
      "enRoleType": "Major Shareholder",
      "numberOfShares": 1948800,
      "ownershipPct": 6.077702339101423,
      "effectiveDate": "2025-02-20"
    },
    {
      "code": "RCC",
      "shareholderType": "PERSON",
      "shareholderName": "Nguyễn Xuân Cường",
      "roleType": "Cổ đông lớn",
      "enRoleType": "Major Shareholder",
      "numberOfShares": 1778430,
      "ownershipPct": 5.546371187873636,
      "effectiveDate": "2025-02-20"
    },
    {
      "code": "RCC",
      "shareholderType": "COMPANY",
      "shareholderName": "CTCP Đầu tư và Năng lượng Nhân Luật",
      "roleType": "Cổ đông lớn",
      "enRoleType": "Major Shareholder",
      "numberOfShares": 1726430,
      "ownershipPct": 5.384199327429633,
      "effectiveDate": "2022-11-03"
    },
    {
      "code": "RCC",
      "shareholderType": "COMPANY",
      "shareholderName": "CTCP Thương mại nước giải khát Khánh An",
      "roleType": "Cổ đông lớn",
      "enRoleType": "Major Shareholder",
      "numberOfShares": 1577354,
      "ownershipPct": 4.919277553053666,
      "effectiveDate": "2022-11-03"
    },
    {
      "code": "RCC",
      "shareholderType": "PERSON",
      "shareholderName": "Phạm Ngọc Quốc Cường",
      "roleType": "Thành viên HĐQT",
      "enRoleType": "Board member",
      "numberOfShares": 1504010,
      "ownershipPct": 4.690540381276647,
      "effectiveDate": "2023-12-31"
    },
    {
      "code": "RCC",
      "shareholderType": "PERSON",
      "shareholderName": "Vũ Huyền Trang",
      "roleType": "Vợ của Thành viên HĐQT",
      "enRoleType": "Wife of Board member",
      "numberOfShares": 1274257,
      "ownershipPct": 3.9740120841114335,
      "effectiveDate": "2023-12-31"
    }
  ],
  "currentPage": 1,
  "size": 10,
  "totalElements": 13,
  "totalPages": 2
}