{
  "data": [
    {
      "code": "RCL",
      "shareholderType": "COMPANY",
      "shareholderName": "Tổng Công ty Địa ốc Sài Gòn – TNHH MTV",
      "roleType": "Cổ đông lớn",
      "enRoleType": "Major Shareholder",
      "numberOfShares": 2570400,
      "ownershipPct": 18.18368192818337,
      "effectiveDate": "2025-08-19"
    },
    {
      "code": "RCL",
      "shareholderType": "COMPANY",
      "shareholderName": "Tổng công ty địa ốc Sài Gòn",
      "roleType": "Cổ đông lớn",
      "enRoleType": "Major Shareholder",
      "numberOfShares": 2570400,
      "ownershipPct": 18.18368192818337,
      "effectiveDate": "2025-08-19"
    },
    {
      "code": "RCL",
      "shareholderType": "COMPANY",
      "shareholderName": "Công ty TNHH Thương mại N.T.P",
      "roleType": "Cổ đông lớn",
      "enRoleType": "Major Shareholder",
      "numberOfShares": 1470156,
      "ownershipPct": 10.40026808621629,
      "effectiveDate": "2025-08-19"
    },
    {
      "code": "RCL",
      "shareholderType": "PERSON",
      "shareholderName": "Trần Văn Châu",
      "roleType": "Chủ tịch HĐQT",
      "enRoleType": "Chairman",
      "numberOfShares": 1355470,
      "ownershipPct": 9.588949324305444,
      "effectiveDate": "2025-08-19"
    },
    {
      "code": "RCL",
      "shareholderType": "COMPANY",
      "shareholderName": "Công ty TNHH Đầu tư CORES",
      "roleType": "Cổ đông lớn",
      "enRoleType": "Major Shareholder",
      "numberOfShares": 644854,
      "ownershipPct": 4.561865867614674,
      "effectiveDate": "2025-08-19"
    },
    {
      "code": "RCL",
      "shareholderType": "PERSON",
      "shareholderName": "Phạm Đình Bá Duy",
      "roleType": "Cổ đông lớn",
      "enRoleType": "Major Shareholder",
      "numberOfShares": 634950,
      "ownershipPct": 4.491802381069106,
      "effectiveDate": "2025-08-19"
    },
    {
      "code": "RCL",
      "shareholderType": "PERSON",
      "shareholderName": "Trần Hữu Hai",
      "roleType": "Cổ đông lớn",
      "enRoleType": "Major Shareholder",
      "numberOfShares": 631463,
      "ownershipPct": 4.467134430989907,
      "effectiveDate": "2025-08-19"
    },
    {
      "code": "RCL",
      "shareholderType": "COMPANY",
      "shareholderName": "America LLC",
      "roleType": "Cổ đông lớn",
      "enRoleType": "Major Shareholder",
      "numberOfShares": 607594,
      "ownershipPct": 4.298278881680924,
      "effectiveDate": "2022-06-15"
    },
    {
      "code": "RCL",
      "shareholderType": "COMPANY",
      "shareholderName": "Công ty cổ phần Bảo hiểm Hùng Vương",
      "roleType": "Cổ đông lớn",
      "enRoleType": "Major Shareholder",
      "numberOfShares": 275000,
      "ownershipPct": 1.9454219305362694,
      "effectiveDate": "2022-06-15"
    },
    {
      "code": "RCL",
      "shareholderType": "PERSON",
      "shareholderName": "Shih Kuan Tung",
      "roleType": "Cổ đông lớn",
      "enRoleType": "Major Shareholder",
      "numberOfShares": 273643,
      "ownershipPct": 1.9358221575917685,
      "effectiveDate": "2025-08-19"
    }
  ],
  "currentPage": 1,
  "size": 10,
  "totalElements": 12,
  "totalPages": 2
}