{"data":[{"code":"SBB","shareholderType":"COMPANY","shareholderName":"SABECO","roleType":"Cổ đông lớn","enRoleType":"Major Shareholder","numberOfShares":14372300,"ownershipPct":16.42088111155482,"effectiveDate":"2023-07-26"},{"code":"SBB","shareholderType":"PERSON","shareholderName":"Nguyễn Thị Hạnh","roleType":"Vợ của Chủ tịch HĐQT","enRoleType":"Wife of Chairman","numberOfShares":6496840,"ownershipPct":7.422878540024479,"groupPct":17.255664171701522,"effectiveDate":"2023-07-26"},{"code":"SBB","shareholderType":"COMPANY","shareholderName":"Công ty Cổ phần Rượu Bình Tây","roleType":"Cổ đông lớn","enRoleType":"Major Shareholder","numberOfShares":5520000,"ownershipPct":6.306802928952402,"effectiveDate":"2023-07-26"},{"code":"SBB","shareholderType":"PERSON","shareholderName":"Văn Thanh Liêm","roleType":"Chủ tịch HĐQT","enRoleType":"Chairman","numberOfShares":4325000,"ownershipPct":4.941471497775207,"groupPct":6.488580527864781,"effectiveDate":"2023-07-26"},{"code":"SBB","shareholderType":"PERSON","shareholderName":"Phạm Thị Cẩn","roleType":"Vợ của Thành viên HĐQT","enRoleType":"Wife of Board member","numberOfShares":3867400,"ownershipPct":4.4186466752591524,"groupPct":7.201386363247901,"effectiveDate":"2023-07-26"},{"code":"SBB","shareholderType":"PERSON","shareholderName":"Văn Thảo Nguyên","roleType":"Phó chủ tịch HĐQT","enRoleType":"Vice-chairman","numberOfShares":3275000,"ownershipPct":3.7418078971592608,"groupPct":17.255664171701522,"effectiveDate":"2023-07-26"},{"code":"SBB","shareholderType":"PERSON","shareholderName":"Văn Thảo Nguyên","roleType":"Phó chủ tịch HĐQT","enRoleType":"Vice-chairman","numberOfShares":3275000,"ownershipPct":3.7418078971592608,"groupPct":5.254640824374094,"effectiveDate":"2023-07-26"},{"code":"SBB","shareholderType":"PERSON","shareholderName":"Văn Bảo Ngọc","roleType":"Phó TGĐ","enRoleType":"Deputy CEO","numberOfShares":2900000,"ownershipPct":3.313356611224994,"groupPct":17.255664171701522,"effectiveDate":"2023-07-26"},{"code":"SBB","shareholderType":"COMPANY","shareholderName":"CÔNG TY CỔ PHẦN TẬP ĐOÀN POLYCO","roleType":"Cổ đông lớn","enRoleType":"Major Shareholder","numberOfShares":1854140,"ownershipPct":2.1184231128057625,"effectiveDate":"2023-07-26"},{"code":"SBB","shareholderType":"PERSON","shareholderName":"Nguyễn Huỳnh Loan Anh","roleType":"Chị/em dâu của Phó TGĐ","enRoleType":"Sister in law of Deputy CEO","numberOfShares":1294100,"ownershipPct":1.4785568243400913,"groupPct":5.254640824374094,"effectiveDate":"2023-07-26"}],"currentPage":1,"size":10,"totalElements":14,"totalPages":2}