{
  "data": [
    {
      "code": "SBL",
      "shareholderType": "COMPANY",
      "shareholderName": "Bia SG Miền Tây",
      "roleType": "Cổ đông lớn",
      "enRoleType": "Major Shareholder",
      "numberOfShares": 2402400,
      "ownershipPct": 20,
      "effectiveDate": "2020-06-30"
    },
    {
      "code": "SBL",
      "shareholderType": "PERSON",
      "shareholderName": "Trần Nguyên Trung",
      "roleType": "Thành viên HĐQT",
      "enRoleType": "Board member",
      "numberOfShares": 2402400,
      "ownershipPct": 20,
      "effectiveDate": "2023-12-31"
    },
    {
      "code": "SBL",
      "shareholderType": "PERSON",
      "shareholderName": "Nguyễn Thị Phương Khanh",
      "roleType": "Vợ của Thành viên HĐQT",
      "enRoleType": "Wife of Board member",
      "numberOfShares": 1361972,
      "ownershipPct": 11.338428238428238,
      "groupPct": 11.773093573093574,
      "effectiveDate": "2020-07-28"
    },
    {
      "code": "SBL",
      "shareholderType": "PERSON",
      "shareholderName": "Nguyễn Duy Hưng",
      "roleType": "Cổ đông lớn",
      "enRoleType": "Major Shareholder",
      "numberOfShares": 848310,
      "ownershipPct": 7.062187812187812,
      "effectiveDate": "2025-04-16"
    },
    {
      "code": "SBL",
      "shareholderType": "PERSON",
      "shareholderName": "Phạm Thị Hồng Hạnh",
      "roleType": "Chủ tịch HĐQT",
      "enRoleType": "Chairman",
      "numberOfShares": 607464,
      "ownershipPct": 5.057142857142857,
      "effectiveDate": "2020-06-30"
    },
    {
      "code": "SBL",
      "shareholderType": "PERSON",
      "shareholderName": "Đinh Ngọc Ninh",
      "roleType": "Chồng của Chủ tịch HĐQT",
      "enRoleType": "Husband of Chairman",
      "numberOfShares": 592500,
      "ownershipPct": 4.932567432567432,
      "groupPct": 14.714285714285714,
      "effectiveDate": "2020-06-30"
    },
    {
      "code": "SBL",
      "shareholderType": "PERSON",
      "shareholderName": "Đinh Ngọc Ninh",
      "roleType": "Anh/em rể của Thành viên HĐQT",
      "enRoleType": "Brother in law of Board member",
      "numberOfShares": 592500,
      "ownershipPct": 4.932567432567432,
      "groupPct": 5.503996003996004,
      "effectiveDate": "2020-06-30"
    },
    {
      "code": "SBL",
      "shareholderType": "PERSON",
      "shareholderName": "Đinh Lê Nghĩa",
      "roleType": "Con của Chủ tịch HĐQT",
      "enRoleType": "Child of Chairman",
      "numberOfShares": 574380,
      "ownershipPct": 4.781718281718281,
      "groupPct": 14.714285714285714,
      "effectiveDate": "2020-06-30"
    },
    {
      "code": "SBL",
      "shareholderType": "PERSON",
      "shareholderName": "Phạm Hồng Minh",
      "roleType": "Thành viên HĐQT",
      "enRoleType": "Board member",
      "numberOfShares": 308880,
      "ownershipPct": 2.5714285714285716,
      "groupPct": 14.714285714285714,
      "effectiveDate": "2020-06-30"
    },
    {
      "code": "SBL",
      "shareholderType": "PERSON",
      "shareholderName": "Nguyễn Xuân Hải",
      "roleType": "Thành viên HĐQT",
      "enRoleType": "Board member",
      "numberOfShares": 205920,
      "ownershipPct": 1.7142857142857142,
      "effectiveDate": "2020-06-30"
    }
  ],
  "currentPage": 1,
  "size": 10,
  "totalElements": 13,
  "totalPages": 2
}