{"data":[{"code":"SC5","shareholderType":"PERSON","shareholderName":"Phạm Văn Từ","roleType":"Cổ đông lớn","enRoleType":"Major Shareholder","numberOfShares":7335420,"ownershipPct":48.956655584920455,"effectiveDate":"2018-05-11"},{"code":"SC5","shareholderType":"PERSON","shareholderName":"Nguyễn Đình Dũng","roleType":"Phó chủ tịch HĐQT","enRoleType":"Vice-chairman","numberOfShares":3630420,"ownershipPct":24.22945401471312,"effectiveDate":"2024-07-17"},{"code":"SC5","shareholderType":"PERSON","shareholderName":"Phạm Gia Phú","roleType":"Chủ tịch HĐQT","enRoleType":"Chairman","numberOfShares":2200430,"ownershipPct":14.685688569806025,"effectiveDate":"2024-07-17"},{"code":"SC5","shareholderType":"PERSON","shareholderName":"Phạm Văn Tư","roleType":"Thành viên HĐQT","enRoleType":"Board member","numberOfShares":1524230,"ownershipPct":10.17272400792365,"groupPct":10.617012755164865,"effectiveDate":"2023-09-11"},{"code":"SC5","shareholderType":"PERSON","shareholderName":"Phạm Thị Liên","roleType":"Phó TGĐ","enRoleType":"Deputy CEO","numberOfShares":1000000,"ownershipPct":6.674008520973639,"effectiveDate":"2023-09-11"},{"code":"SC5","shareholderType":"PERSON","shareholderName":"Nguyễn Văn Chí","roleType":"Nhóm cổ đông lớn","enRoleType":"Major Shareholder Group","numberOfShares":730000,"ownershipPct":4.872026220310756,"groupPct":9.744052440621513,"effectiveDate":"2023-09-11"},{"code":"SC5","shareholderType":"PERSON","shareholderName":"Nguyễn Văn Thái","roleType":"Nhóm cổ đông lớn","enRoleType":"Major Shareholder Group","numberOfShares":730000,"ownershipPct":4.872026220310756,"groupPct":9.744052440621513,"effectiveDate":"2023-09-11"},{"code":"SC5","shareholderType":"PERSON","shareholderName":"Nguyễn Thị Hạnh Liên","roleType":"Cổ đông lớn","enRoleType":"Major Shareholder","numberOfShares":564800,"ownershipPct":3.769480012645911,"effectiveDate":"2010-11-23"},{"code":"SC5","shareholderType":"PERSON","shareholderName":"Nguyễn Xuân Hồng","roleType":"Cổ đông lớn","enRoleType":"Major Shareholder","numberOfShares":506100,"ownershipPct":3.3777157124647585,"effectiveDate":"2010-05-31"},{"code":"SC5","shareholderType":"PERSON","shareholderName":"Dương Thị Trinh","roleType":"Cổ đông lớn","enRoleType":"Major Shareholder","numberOfShares":500000,"ownershipPct":3.3370042604868195,"effectiveDate":"2015-10-28"}],"currentPage":1,"size":10,"totalElements":11,"totalPages":2}