{"data":[{"code":"SCL","shareholderType":"COMPANY","shareholderName":"Công ty cổ phần công nghiệp dịch vụ Cao Cường","roleType":"Cổ đông lớn","enRoleType":"Major Shareholder","numberOfShares":2390090,"ownershipPct":12.808013763541352,"effectiveDate":"2023-12-14"},{"code":"SCL","shareholderType":"PERSON","shareholderName":"Kiều Văn Mát","roleType":"Chủ tịch HĐQT","enRoleType":"Chairman","numberOfShares":2205631,"ownershipPct":11.81953491512599,"effectiveDate":"2023-12-14"},{"code":"SCL","shareholderType":"PERSON","shareholderName":"Nguyễn Ánh Hồng","roleType":"Thành viên HĐQT","enRoleType":"Board member","numberOfShares":602854,"ownershipPct":3.2305738819065217,"effectiveDate":"2023-12-14"},{"code":"SCL","shareholderType":"PERSON","shareholderName":"Nguyễn Anh Dũng","roleType":"Thành viên HĐQT","enRoleType":"Board member","numberOfShares":478792,"ownershipPct":2.565750463737136,"effectiveDate":"2024-06-30"},{"code":"SCL","shareholderType":"COMPANY","shareholderName":"Dầu khí Đông Đô","roleType":"Cổ đông lớn","enRoleType":"Major Shareholder","numberOfShares":439436,"ownershipPct":2.354849539638908,"effectiveDate":"2023-12-14"},{"code":"SCL","shareholderType":"COMPANY","shareholderName":"CTCP Sông Đà 12","roleType":"Cổ đông lớn","enRoleType":"Major Shareholder","numberOfShares":431244,"ownershipPct":2.3109502518501928,"effectiveDate":"2023-12-14"},{"code":"SCL","shareholderType":"PERSON","shareholderName":"Kiều Thị Nhung","roleType":"Con của Thành viên HĐQT","enRoleType":"Child of Board member","numberOfShares":408766,"ownershipPct":2.19049515042017,"groupPct":2.2175624481033736,"effectiveDate":"2024-05-22"},{"code":"SCL","shareholderType":"PERSON","shareholderName":"Kiều Thị Nhung","roleType":"Cổ đông lớn","enRoleType":"Major Shareholder","numberOfShares":408766,"ownershipPct":2.19049515042017,"effectiveDate":"2024-05-22"},{"code":"SCL","shareholderType":"PERSON","shareholderName":"Kiều Quang Vọng","roleType":"Thành viên HĐQT","enRoleType":"Board member","numberOfShares":350514,"ownershipPct":1.8783343456999249,"groupPct":3.65847940305114,"effectiveDate":"2024-05-16"},{"code":"SCL","shareholderType":"PERSON","shareholderName":"Đinh Thị Hoa","roleType":"Cổ đông lớn","enRoleType":"Major Shareholder","numberOfShares":330156,"ownershipPct":1.7692398998011618,"effectiveDate":"2023-12-14"}],"currentPage":1,"size":10,"totalElements":12,"totalPages":2}