{"data":[{"code":"SD1","shareholderType":"COMPANY","shareholderName":"Công ty TNHH Sunshine Financial Holdings","roleType":"Cổ đông lớn","enRoleType":"Major Shareholder","numberOfShares":850000,"ownershipPct":10.927868610507364,"effectiveDate":"2022-04-22"},{"code":"SD1","shareholderType":"COMPANY","shareholderName":"CTCP Đầu tư kinh doanh phát triển nhà TCL Hà Nội","roleType":"Cổ đông lớn","enRoleType":"Major Shareholder","numberOfShares":849975,"ownershipPct":10.927547202607055,"effectiveDate":"2021-04-19"},{"code":"SD1","shareholderType":"COMPANY","shareholderName":"CÔNG TY TNHH SHIZUOKA ELITE FUND ID","roleType":"Cổ đông lớn","enRoleType":"Major Shareholder","numberOfShares":760000,"ownershipPct":9.77080016939482,"effectiveDate":"2022-04-29"},{"code":"SD1","shareholderType":"COMPANY","shareholderName":"CÔNG TY TNHH WEST HAMPTON INVESTMENTS","roleType":"Cổ đông lớn","enRoleType":"Major Shareholder","numberOfShares":760000,"ownershipPct":9.77080016939482,"effectiveDate":"2022-04-29"},{"code":"SD1","shareholderType":"COMPANY","shareholderName":"Công ty TNHH FinanceSM Việt Nam","roleType":"Cổ đông lớn","enRoleType":"Major Shareholder","numberOfShares":625500,"ownershipPct":8.041625665732184,"effectiveDate":"2023-06-16"},{"code":"SD1","shareholderType":"COMPANY","shareholderName":"Công ty Cổ phần Hà Châu","roleType":"Cổ đông lớn","enRoleType":"Major Shareholder","numberOfShares":560087,"ownershipPct":7.200655466415574,"effectiveDate":"2010-10-06"},{"code":"SD1","shareholderType":"COMPANY","shareholderName":"Công ty TNHH SD-ONE Việt Nam","roleType":"Cổ đông lớn","enRoleType":"Major Shareholder","numberOfShares":426500,"ownershipPct":5.4832187792722245,"effectiveDate":"2020-02-17"},{"code":"SD1","shareholderType":"COMPANY","shareholderName":"CTCP Cao su Daknoruco","roleType":"Cổ đông lớn","enRoleType":"Major Shareholder","numberOfShares":419900,"ownershipPct":5.398367093590638,"effectiveDate":"2020-02-17"},{"code":"SD1","shareholderType":"COMPANY","shareholderName":"CTCP Sông Đà 1.02","roleType":"Cổ đông lớn","enRoleType":"Major Shareholder","numberOfShares":418303,"ownershipPct":5.377835556918896,"effectiveDate":"2020-03-09"},{"code":"SD1","shareholderType":"PERSON","shareholderName":"Nguyễn Xuân Dũng","roleType":"Cổ đông lớn","enRoleType":"Major Shareholder","numberOfShares":300000,"ownershipPct":3.8568948037084816,"effectiveDate":"2020-10-27"}],"currentPage":1,"size":10,"totalElements":12,"totalPages":2}