{"data":[{"code":"SFI","shareholderType":"COMPANY","shareholderName":"CTCP Đầu tư NMVT","roleType":"Cổ đông lớn","enRoleType":"Major Shareholder","numberOfShares":12740000,"ownershipPct":55.01568119647793,"effectiveDate":"2024-07-09"},{"code":"SFI","shareholderType":"COMPANY","shareholderName":"Samarang Unicts - Samarang Asian Properity","roleType":"Cổ đông lớn","enRoleType":"Major Shareholder","numberOfShares":1767615,"ownershipPct":7.633166665471926,"effectiveDate":"2024-03-13"},{"code":"SFI","shareholderType":"COMPANY","shareholderName":"Đại lý V.tải SAFI","roleType":"Cổ phiếu quỹ","enRoleType":"Treasury Stock","numberOfShares":1730012,"ownershipPct":7.470784039095853,"effectiveDate":"2020-08-19"},{"code":"SFI","shareholderType":"PERSON","shareholderName":"Nguyễn Hoàng Dũng","roleType":"Chủ tịch HĐQT","enRoleType":"Chairman","numberOfShares":1672000,"ownershipPct":7.220268364247338,"effectiveDate":"2024-05-10"},{"code":"SFI","shareholderType":"PERSON","shareholderName":"Nguyễn Hoàng Anh","roleType":"Phó chủ tịch HĐQT","enRoleType":"Vice-chairman","numberOfShares":1210000,"ownershipPct":5.225194210968469,"effectiveDate":"2024-07-09"},{"code":"SFI","shareholderType":"PERSON","shareholderName":"Lê Dung Nhi","roleType":"Cổ đông lớn","enRoleType":"Major Shareholder","numberOfShares":1040000,"ownershipPct":4.491076016039014,"effectiveDate":"2023-04-11"},{"code":"SFI","shareholderType":"COMPANY","shareholderName":"PYN ELITE FUND (NON - UCITS)","roleType":"Cổ đông lớn","enRoleType":"Major Shareholder","numberOfShares":1015680,"ownershipPct":4.3860539307408715,"effectiveDate":"2022-08-09"},{"code":"SFI","shareholderType":"PERSON","shareholderName":"Hà Cẩm Khải","roleType":"Cổ đông lớn","enRoleType":"Major Shareholder","numberOfShares":886544,"ownershipPct":3.828400476503165,"effectiveDate":"2013-08-22"},{"code":"SFI","shareholderType":"COMPANY","shareholderName":"America LLC","roleType":"Cổ đông lớn","enRoleType":"Major Shareholder","numberOfShares":756238,"ownershipPct":3.2656945617474156,"effectiveDate":"2022-08-09"},{"code":"SFI","shareholderType":"PERSON","shareholderName":"Nguyễn Hải Nguyên","roleType":"Thành viên HĐQT","enRoleType":"Board member","numberOfShares":404500,"ownershipPct":1.7467694696997897,"groupPct":3.042272166634121,"effectiveDate":"2024-05-10"}],"currentPage":1,"size":10,"totalElements":14,"totalPages":2}