{"data":[{"code":"SGD","shareholderType":"PERSON","shareholderName":"Ngô Phương Anh","roleType":"Cổ đông lớn","enRoleType":"Major Shareholder","numberOfShares":1007300,"ownershipPct":24.91466732624289,"effectiveDate":"2020-06-30"},{"code":"SGD","shareholderType":"PERSON","shareholderName":"Ngô Anh Thư","roleType":"Cổ đông lớn","enRoleType":"Major Shareholder","numberOfShares":665300,"ownershipPct":16.455602275537967,"effectiveDate":"2022-02-17"},{"code":"SGD","shareholderType":"PERSON","shareholderName":"Peter Eric Dennis","roleType":"Cổ đông lớn","enRoleType":"Major Shareholder","numberOfShares":369300,"ownershipPct":9.134306208261192,"effectiveDate":"2013-08-06"},{"code":"SGD","shareholderType":"PERSON","shareholderName":"Nguyễn Thu Hằng","roleType":"Cổ đông lớn","enRoleType":"Major Shareholder","numberOfShares":336900,"ownershipPct":8.33292109819441,"effectiveDate":"2013-06-25"},{"code":"SGD","shareholderType":"PERSON","shareholderName":"Vũ Thanh Thủy","roleType":"Cổ đông lớn","enRoleType":"Major Shareholder","numberOfShares":323800,"ownershipPct":8.008904279000742,"effectiveDate":"2023-12-12"},{"code":"SGD","shareholderType":"COMPANY","shareholderName":"CTCP Đầu tư CMC","roleType":"Cổ đông lớn","enRoleType":"Major Shareholder","numberOfShares":219900,"ownershipPct":5.439030422953253,"effectiveDate":"2022-06-30"},{"code":"SGD","shareholderType":"PERSON","shareholderName":"Nguyễn Thị La","roleType":"Mẹ của Chủ tịch HĐQT","enRoleType":"Mother of Chairman","numberOfShares":207000,"ownershipPct":5.1199604254266635,"groupPct":9.91343062082612,"effectiveDate":"2020-06-30"},{"code":"SGD","shareholderType":"PERSON","shareholderName":"Ngô Trọng Vinh","roleType":"Chủ tịch HĐQT","enRoleType":"Chairman","numberOfShares":207000,"ownershipPct":5.1199604254266635,"effectiveDate":"2020-06-30"},{"code":"SGD","shareholderType":"PERSON","shareholderName":"Ngô Trọng Quang","roleType":"Anh của Chủ tịch HĐQT","enRoleType":"Elder Brother of Chairman","numberOfShares":193800,"ownershipPct":4.793470195399456,"groupPct":9.91343062082612,"effectiveDate":"2014-02-27"},{"code":"SGD","shareholderType":"COMPANY","shareholderName":"CTCP Đầu tư Kim Cương","roleType":"Cổ đông lớn","enRoleType":"Major Shareholder","numberOfShares":183900,"ownershipPct":4.54860252287905,"effectiveDate":"2020-06-30"}],"currentPage":1,"size":10,"totalElements":12,"totalPages":2}