{"data":[{"code":"SGT","shareholderType":"COMPANY","shareholderName":"Đô thị Kinh Bắc","roleType":"Cổ đông lớn","enRoleType":"Major Shareholder","numberOfShares":31793846,"ownershipPct":21.48186274448862,"effectiveDate":"2022-10-24"},{"code":"SGT","shareholderType":"COMPANY","shareholderName":"CTCP Đầu tư Phát triển DTT","roleType":"Cổ đông lớn","enRoleType":"Major Shareholder","numberOfShares":25000000,"ownershipPct":16.891525756657924,"effectiveDate":"2024-05-31"},{"code":"SGT","shareholderType":"PERSON","shareholderName":"Đặng Thành Tâm","roleType":"Chủ tịch HĐQT","enRoleType":"Chairman","numberOfShares":10060740,"ownershipPct":6.797649953641545,"effectiveDate":"2024-05-31"},{"code":"SGT","shareholderType":"PERSON","shareholderName":"Nguyễn Thị Kim Xuân","roleType":"Cổ đông lớn","enRoleType":"Major Shareholder","numberOfShares":7452178,"ownershipPct":5.035146265207981,"effectiveDate":"2020-06-30"},{"code":"SGT","shareholderType":"PERSON","shareholderName":"Nguyễn Thị Kim Xuân","roleType":"Chị của Thành viên HĐQT","enRoleType":"Elder Sister of Board member","numberOfShares":7452178,"ownershipPct":5.035146265207981,"groupPct":6.900313944546391,"effectiveDate":"2020-06-30"},{"code":"SGT","shareholderType":"PERSON","shareholderName":"Đặng Thị Hoàng Phượng","roleType":"Em gái của Chủ tịch HĐQT","enRoleType":"Young Sister of Chairman","numberOfShares":7312900,"ownershipPct":4.941041548234549,"groupPct":6.430098461109032,"effectiveDate":"2021-12-31"},{"code":"SGT","shareholderType":"PERSON","shareholderName":"Nguyễn Thanh Hải","roleType":"Cổ đông lớn","enRoleType":"Major Shareholder","numberOfShares":3603040,"ownershipPct":2.4344337184907507,"effectiveDate":"2020-01-13"},{"code":"SGT","shareholderType":"PERSON","shareholderName":"Phạm Thị Lê","roleType":"Cổ đông lớn","enRoleType":"Major Shareholder","numberOfShares":2923654,"ownershipPct":1.9753990737822387,"effectiveDate":"2019-12-24"},{"code":"SGT","shareholderType":"PERSON","shareholderName":"Nguyễn Sơn","roleType":"Anh của Thành viên HĐQT","enRoleType":"Elder Brother of Board member","numberOfShares":2760508,"ownershipPct":1.86516767933841,"groupPct":6.900313944546391,"effectiveDate":"2023-06-30"},{"code":"SGT","shareholderType":"PERSON","shareholderName":"Nguyễn Thị Kim Thanh","roleType":"Thành viên HĐQT","enRoleType":"Board member","numberOfShares":2203852,"ownershipPct":1.489056912874483,"effectiveDate":"2023-06-30"}],"currentPage":1,"size":10,"totalElements":12,"totalPages":2}