{
  "data": [
    {
      "code": "SHB",
      "shareholderType": "COMPANY",
      "shareholderName": "Công ty cổ phần Tập đoàn T&T",
      "roleType": "Cổ đông lớn",
      "enRoleType": "Major Shareholder",
      "numberOfShares": 319001218,
      "ownershipPct": 6.944313983874204,
      "effectiveDate": "2025-02-26"
    },
    {
      "code": "SHB",
      "shareholderType": "COMPANY",
      "shareholderName": "VINACOMIN",
      "roleType": "Cổ đông lớn",
      "enRoleType": "Major Shareholder",
      "numberOfShares": 134264035,
      "ownershipPct": 2.9227838740787364,
      "effectiveDate": "2023-07-24"
    },
    {
      "code": "SHB",
      "shareholderType": "COMPANY",
      "shareholderName": "Cao su Việt Nam",
      "roleType": "Cổ đông lớn",
      "enRoleType": "Major Shareholder",
      "numberOfShares": 134264035,
      "ownershipPct": 2.9227838740787364,
      "effectiveDate": "2023-07-24"
    },
    {
      "code": "SHB",
      "shareholderType": "PERSON",
      "shareholderName": "Đỗ Quang Vinh",
      "roleType": "Phó chủ tịch HĐQT",
      "enRoleType": "Vice-chairman",
      "numberOfShares": 112301825,
      "ownershipPct": 2.444690144606575,
      "groupPct": 7.924530745510372,
      "effectiveDate": "2025-02-26"
    },
    {
      "code": "SHB",
      "shareholderType": "PERSON",
      "shareholderName": "Đỗ Quang Hiển",
      "roleType": "Chủ tịch HĐQT",
      "enRoleType": "Chairman",
      "numberOfShares": 110764027,
      "ownershipPct": 2.4112139333785234,
      "effectiveDate": "2025-02-26"
    },
    {
      "code": "SHB",
      "shareholderType": "PERSON",
      "shareholderName": "Đỗ Vinh Quang",
      "roleType": "Con của Chủ tịch HĐQT",
      "enRoleType": "Child of Chairman",
      "numberOfShares": 107252236,
      "ownershipPct": 2.334766014142856,
      "groupPct": 7.924530745510372,
      "effectiveDate": "2023-07-24"
    },
    {
      "code": "SHB",
      "shareholderType": "COMPANY",
      "shareholderName": "Quỹ ETF VanEck Vietnam",
      "roleType": "Cổ đông lớn",
      "enRoleType": "Major Shareholder",
      "numberOfShares": 82403843,
      "ownershipPct": 1.7938431798397536,
      "effectiveDate": "2023-07-24"
    },
    {
      "code": "SHB",
      "shareholderType": "PERSON",
      "shareholderName": "Đỗ Thị Thu Hà",
      "roleType": "Chị của Chủ tịch HĐQT",
      "enRoleType": "Elder Sister of Chairman",
      "numberOfShares": 74442202,
      "ownershipPct": 1.6205268041922907,
      "groupPct": 7.924530745510372,
      "effectiveDate": "2023-07-24"
    },
    {
      "code": "SHB",
      "shareholderType": "COMPANY",
      "shareholderName": "Công ty TNHH Đầu tư phát triển sản xuất Hạ Long",
      "roleType": "Cổ đông lớn",
      "enRoleType": "Major Shareholder",
      "numberOfShares": 71607485,
      "ownershipPct": 1.5588180589190173,
      "effectiveDate": "2023-07-24"
    },
    {
      "code": "SHB",
      "shareholderType": "PERSON",
      "shareholderName": "Đỗ Thị Thu Hà",
      "roleType": "Chị của Chủ tịch HĐQT",
      "enRoleType": "Elder Sister of Chairman",
      "numberOfShares": 70026139,
      "ownershipPct": 1.524393854491235,
      "groupPct": 7.924530745510372,
      "effectiveDate": "2025-02-26"
    }
  ],
  "currentPage": 1,
  "size": 10,
  "totalElements": 11,
  "totalPages": 2
}