{
  "data": [
    {
      "code": "SHC",
      "shareholderType": "PERSON",
      "shareholderName": "Nguyễn Đại Thắng",
      "roleType": "Cổ đông lớn",
      "enRoleType": "Major Shareholder",
      "numberOfShares": 654950,
      "ownershipPct": 15.197642445266908,
      "effectiveDate": "2020-06-30"
    },
    {
      "code": "SHC",
      "shareholderType": "PERSON",
      "shareholderName": "Nguyễn Minh Thắng",
      "roleType": "Thành viên HĐQT",
      "enRoleType": "Board member",
      "numberOfShares": 636280,
      "ownershipPct": 14.76441855878224,
      "effectiveDate": "2020-06-30"
    },
    {
      "code": "SHC",
      "shareholderType": "COMPANY",
      "shareholderName": "CTCP TRANSIMEX",
      "roleType": "Cổ đông lớn",
      "enRoleType": "Major Shareholder",
      "numberOfShares": 636280,
      "ownershipPct": 14.76441855878224,
      "effectiveDate": "2010-01-11"
    },
    {
      "code": "SHC",
      "shareholderType": "PERSON",
      "shareholderName": "Nguyễn Xuân Phú",
      "roleType": "Chủ tịch HĐQT",
      "enRoleType": "Chairman",
      "numberOfShares": 600000,
      "ownershipPct": 13.92256732141407,
      "effectiveDate": "2020-06-30"
    },
    {
      "code": "SHC",
      "shareholderType": "PERSON",
      "shareholderName": "Nguyễn Thị Vân Anh",
      "roleType": "Thành viên HĐQT",
      "enRoleType": "Board member",
      "numberOfShares": 486300,
      "ownershipPct": 11.284240814006102,
      "effectiveDate": "2020-06-30"
    },
    {
      "code": "SHC",
      "shareholderType": "PERSON",
      "shareholderName": "Nguyễn Đình Hiệu",
      "roleType": "Thành viên HĐQT",
      "enRoleType": "Board member",
      "numberOfShares": 482190,
      "ownershipPct": 11.188871227854417,
      "effectiveDate": "2021-09-10"
    },
    {
      "code": "SHC",
      "shareholderType": "COMPANY",
      "shareholderName": "Hàng hải Việt Nam",
      "roleType": "Cổ đông lớn",
      "enRoleType": "Major Shareholder",
      "numberOfShares": 437400,
      "ownershipPct": 10.149551577310856,
      "effectiveDate": "2024-02-05"
    },
    {
      "code": "SHC",
      "shareholderType": "COMPANY",
      "shareholderName": "KAMN INVESTMENT HOLDINGS, TNC",
      "roleType": "Cổ đông lớn",
      "enRoleType": "Major Shareholder",
      "numberOfShares": 196750,
      "ownershipPct": 4.565441867480363,
      "effectiveDate": "2008-07-18"
    },
    {
      "code": "SHC",
      "shareholderType": "COMPANY",
      "shareholderName": "First Vietnam Capital,LCC",
      "roleType": "Cổ đông lớn",
      "enRoleType": "Major Shareholder",
      "numberOfShares": 166460,
      "ownershipPct": 3.862584260537643,
      "effectiveDate": "2008-10-08"
    },
    {
      "code": "SHC",
      "shareholderType": "COMPANY",
      "shareholderName": "Công ty TNHH Thương mại - Sản xuất - Kinh doanh Thiên Hải",
      "roleType": "Cổ đông lớn",
      "enRoleType": "Major Shareholder",
      "numberOfShares": 150030,
      "ownershipPct": 3.481337958719588,
      "effectiveDate": "2008-11-25"
    }
  ],
  "currentPage": 1,
  "size": 10,
  "totalElements": 11,
  "totalPages": 2
}