{
  "data": [
    {
      "code": "SIV",
      "shareholderType": "PERSON",
      "shareholderName": "Hòa Quang Thiệp",
      "roleType": "Thành viên HĐQT",
      "enRoleType": "Board member",
      "numberOfShares": 318046,
      "ownershipPct": 9.180994741032361,
      "effectiveDate": "2025-07-30"
    },
    {
      "code": "SIV",
      "shareholderType": "COMPANY",
      "shareholderName": "CTCP Sơn Hải Phòng",
      "roleType": "Cổ đông lớn",
      "enRoleType": "Major Shareholder",
      "numberOfShares": 232875,
      "ownershipPct": 6.7223739657719666,
      "effectiveDate": "2025-07-30"
    },
    {
      "code": "SIV",
      "shareholderType": "PERSON",
      "shareholderName": "Nguyễn Văn Viện",
      "roleType": "Chủ tịch HĐQT",
      "enRoleType": "Chairman",
      "numberOfShares": 231796,
      "ownershipPct": 6.691226605561262,
      "effectiveDate": "2025-07-30"
    },
    {
      "code": "SIV",
      "shareholderType": "PERSON",
      "shareholderName": "Trần Bình Ân",
      "roleType": "Thành viên HĐQT",
      "enRoleType": "Board member",
      "numberOfShares": 228562,
      "ownershipPct": 6.597871125559945,
      "effectiveDate": "2025-07-30"
    },
    {
      "code": "SIV",
      "shareholderType": "PERSON",
      "shareholderName": "Nguyễn Thủy Nguyên",
      "roleType": "Thành viên HĐQT",
      "enRoleType": "Board member",
      "numberOfShares": 228562,
      "ownershipPct": 6.597871125559945,
      "effectiveDate": "2025-07-30"
    },
    {
      "code": "SIV",
      "shareholderType": "PERSON",
      "shareholderName": "Trần Thị Lưu Ly",
      "roleType": "Cổ đông lớn",
      "enRoleType": "Major Shareholder",
      "numberOfShares": 215625,
      "ownershipPct": 6.224420338677747,
      "effectiveDate": "2025-07-30"
    },
    {
      "code": "SIV",
      "shareholderType": "COMPANY",
      "shareholderName": "Công ty TNHH VICO",
      "roleType": "Cổ đông lớn",
      "enRoleType": "Major Shareholder",
      "numberOfShares": 215625,
      "ownershipPct": 6.224420338677747,
      "effectiveDate": "2025-07-30"
    },
    {
      "code": "SIV",
      "shareholderType": "COMPANY",
      "shareholderName": "PETER ERIC DENNIS",
      "roleType": "Cổ đông lớn",
      "enRoleType": "Major Shareholder",
      "numberOfShares": 181125,
      "ownershipPct": 5.2285130844893075,
      "effectiveDate": "2025-07-30"
    },
    {
      "code": "SIV",
      "shareholderType": "PERSON",
      "shareholderName": "Đinh Văn Ước",
      "roleType": "Thành viên BKS",
      "enRoleType": "Control member",
      "numberOfShares": 177243,
      "ownershipPct": 5.1164518682354085,
      "effectiveDate": "2025-07-30"
    },
    {
      "code": "SIV",
      "shareholderType": "PERSON",
      "shareholderName": "Nguyễn Mộng Lân",
      "roleType": "Phó chủ tịch HĐQT",
      "enRoleType": "Vice-chairman",
      "numberOfShares": 172500,
      "ownershipPct": 4.979536270942198,
      "effectiveDate": "2025-07-30"
    }
  ],
  "currentPage": 1,
  "size": 10,
  "totalElements": 14,
  "totalPages": 2
}