{"data":[{"code":"SJC","shareholderType":"PERSON","shareholderName":"Lê Hà Phương","roleType":"Phó TGĐ","enRoleType":"Deputy CEO","numberOfShares":901520,"ownershipPct":12.999976062693824,"effectiveDate":"2023-07-10"},{"code":"SJC","shareholderType":"PERSON","shareholderName":"Nguyễn Thanh Hải","roleType":"Cổ đông lớn","enRoleType":"Major Shareholder","numberOfShares":722692,"ownershipPct":10.421264864562433,"effectiveDate":"2023-01-13"},{"code":"SJC","shareholderType":"PERSON","shareholderName":"Nguyễn Đình Linh","roleType":"Cổ đông lớn","enRoleType":"Major Shareholder","numberOfShares":662435,"ownershipPct":9.55235507042615,"effectiveDate":"2023-09-08"},{"code":"SJC","shareholderType":"COMPANY","shareholderName":"CTCP Sông Đà 1","roleType":"Cổ đông lớn","enRoleType":"Major Shareholder","numberOfShares":593690,"ownershipPct":8.561047773383503,"effectiveDate":"2010-05-07"},{"code":"SJC","shareholderType":"COMPANY","shareholderName":"CTCP Sông Đà 1.01","roleType":"Cổ phiếu quỹ","enRoleType":"Treasury Stock","numberOfShares":436950,"ownershipPct":6.300846948036723,"effectiveDate":"2020-06-30"},{"code":"SJC","shareholderType":"PERSON","shareholderName":"Đào Thị Hồi","roleType":"Cổ đông lớn","enRoleType":"Major Shareholder","numberOfShares":345962,"ownershipPct":4.988794168295413,"effectiveDate":"2017-11-15"},{"code":"SJC","shareholderType":"COMPANY","shareholderName":"Công ty Chứng khoán Ngân hàng Việt Nam Thịnh Vượng ","roleType":"Cổ đông lớn","enRoleType":"Major Shareholder","numberOfShares":292343,"ownershipPct":4.215604758736468,"effectiveDate":"2020-06-30"},{"code":"SJC","shareholderType":"PERSON","shareholderName":"Ngô Thị Mười","roleType":"Cổ đông lớn","enRoleType":"Major Shareholder","numberOfShares":247844,"ownershipPct":3.5739263325076407,"effectiveDate":"2018-02-02"},{"code":"SJC","shareholderType":"PERSON","shareholderName":"Phạm Văn Nam","roleType":"Cổ đông lớn","enRoleType":"Major Shareholder","numberOfShares":247844,"ownershipPct":3.5739263325076407,"effectiveDate":"2018-02-02"},{"code":"SJC","shareholderType":"PERSON","shareholderName":"Nguyễn Bích Hạnh","roleType":"Cổ đông lớn","enRoleType":"Major Shareholder","numberOfShares":247744,"ownershipPct":3.5724843261114767,"effectiveDate":"2018-02-02"}],"currentPage":1,"size":10,"totalElements":11,"totalPages":2}