{
  "data": [
    {
      "code": "SJS",
      "shareholderType": "COMPANY",
      "shareholderName": "Công ty cổ phần Thương mại đầu tư bất động sản An Phát",
      "roleType": "Cổ đông lớn",
      "enRoleType": "Major Shareholder",
      "numberOfShares": 108121782,
      "ownershipPct": 36.34653147862313,
      "effectiveDate": "2025-07-30"
    },
    {
      "code": "SJS",
      "shareholderType": "PERSON",
      "shareholderName": "Nguyễn Văn Tùng",
      "roleType": "Cổ đông lớn",
      "enRoleType": "Major Shareholder",
      "numberOfShares": 62160000,
      "ownershipPct": 20.89588568482171,
      "effectiveDate": "2025-07-30"
    },
    {
      "code": "SJS",
      "shareholderType": "COMPANY",
      "shareholderName": "Deutsche Bank AG & Deutsche Asset Management (Asia) Ltd",
      "roleType": "Cổ đông lớn",
      "enRoleType": "Major Shareholder",
      "numberOfShares": 14551088,
      "ownershipPct": 4.891535898291199,
      "effectiveDate": "2025-07-30"
    },
    {
      "code": "SJS",
      "shareholderType": "COMPANY",
      "shareholderName": "Deutsche Bank AG, London Branch",
      "roleType": "Cổ đông lớn",
      "enRoleType": "Major Shareholder",
      "numberOfShares": 14385201,
      "ownershipPct": 4.835770843777074,
      "effectiveDate": "2025-07-30"
    },
    {
      "code": "SJS",
      "shareholderType": "COMPANY",
      "shareholderName": "Quỹ ETF VanEck Vietnam",
      "roleType": "Cổ đông lớn",
      "enRoleType": "Major Shareholder",
      "numberOfShares": 13194516,
      "ownershipPct": 4.435506724622764,
      "effectiveDate": "2025-07-30"
    },
    {
      "code": "SJS",
      "shareholderType": "COMPANY",
      "shareholderName": "Công ty Cổ phần Chứng khoán Âu Việt",
      "roleType": "Cổ đông lớn",
      "enRoleType": "Major Shareholder",
      "numberOfShares": 12532440,
      "ownershipPct": 4.21294133835082,
      "effectiveDate": "2025-07-30"
    },
    {
      "code": "SJS",
      "shareholderType": "COMPANY",
      "shareholderName": "Quỹ đầu tư Doanh nghiệp hàng đầu Việt Nam",
      "roleType": "Cổ đông lớn",
      "enRoleType": "Major Shareholder",
      "numberOfShares": 12357408,
      "ownershipPct": 4.154102074142556,
      "effectiveDate": "2025-07-30"
    },
    {
      "code": "SJS",
      "shareholderType": "COMPANY",
      "shareholderName": "Deutsche Bank Aktiengesellschaf",
      "roleType": "Cổ đông lớn",
      "enRoleType": "Major Shareholder",
      "numberOfShares": 11395015,
      "ownershipPct": 3.8305812550969858,
      "effectiveDate": "2025-07-30"
    },
    {
      "code": "SJS",
      "shareholderType": "COMPANY",
      "shareholderName": "Quỹ Đầu Tư Chứng Khoán Việt Nam",
      "roleType": "Cổ đông lớn",
      "enRoleType": "Major Shareholder",
      "numberOfShares": 10320502,
      "ownershipPct": 3.4693698520266056,
      "effectiveDate": "2025-07-30"
    },
    {
      "code": "SJS",
      "shareholderType": "COMPANY",
      "shareholderName": "Công ty Cổ phần Chứng khoán Quốc gia",
      "roleType": "Cổ đông lớn",
      "enRoleType": "Major Shareholder",
      "numberOfShares": 5472670,
      "ownershipPct": 1.8397086021678446,
      "effectiveDate": "2025-07-30"
    }
  ],
  "currentPage": 1,
  "size": 10,
  "totalElements": 11,
  "totalPages": 2
}