{
  "data": [
    {
      "code": "SKG",
      "shareholderType": "PERSON",
      "shareholderName": "Puan Kwong Siing",
      "roleType": "Thành viên HĐQT",
      "enRoleType": "Board member",
      "numberOfShares": 8531414,
      "ownershipPct": 12.829638295593906,
      "effectiveDate": "2024-06-28"
    },
    {
      "code": "SKG",
      "shareholderType": "PERSON",
      "shareholderName": "Ting Chek Hua",
      "roleType": "Cổ đông lớn",
      "enRoleType": "Major Shareholder",
      "numberOfShares": 8035860,
      "ownershipPct": 12.084418502493403,
      "effectiveDate": "2024-06-28"
    },
    {
      "code": "SKG",
      "shareholderType": "PERSON",
      "shareholderName": "Hà Nguyệt Nhi",
      "roleType": "Thành viên HĐQT",
      "enRoleType": "Board member",
      "numberOfShares": 4736724,
      "ownershipPct": 7.123139918665153,
      "effectiveDate": "2024-06-28"
    },
    {
      "code": "SKG",
      "shareholderType": "COMPANY",
      "shareholderName": "Kaibouk Shipyard (M) SDN. BHD.",
      "roleType": "Cổ đông lớn",
      "enRoleType": "Major Shareholder",
      "numberOfShares": 3775012,
      "ownershipPct": 5.676906374667381,
      "effectiveDate": "2024-07-08"
    },
    {
      "code": "SKG",
      "shareholderType": "PERSON",
      "shareholderName": "Puan Chiong",
      "roleType": "Anh của Thành viên HĐQT",
      "enRoleType": "Elder Brother of Board member",
      "numberOfShares": 3228828,
      "ownershipPct": 4.855548606442716,
      "groupPct": 7.701253172722659,
      "effectiveDate": "2024-06-28"
    },
    {
      "code": "SKG",
      "shareholderType": "COMPANY",
      "shareholderName": "The Ton Poh Thailand Fund",
      "roleType": "Cổ đông lớn",
      "enRoleType": "Major Shareholder",
      "numberOfShares": 3215242,
      "ownershipPct": 4.835117823704481,
      "effectiveDate": "2024-06-28"
    },
    {
      "code": "SKG",
      "shareholderType": "PERSON",
      "shareholderName": "Huỳnh Thị Phương Tú",
      "roleType": "Cổ đông lớn",
      "enRoleType": "Major Shareholder",
      "numberOfShares": 3209010,
      "ownershipPct": 4.825746070574444,
      "effectiveDate": "2024-06-28"
    },
    {
      "code": "SKG",
      "shareholderType": "PERSON",
      "shareholderName": "Huỳnh Văn Phương",
      "roleType": "Cổ đông lớn",
      "enRoleType": "Major Shareholder",
      "numberOfShares": 3128580,
      "ownershipPct": 4.704794513409991,
      "effectiveDate": "2024-06-28"
    },
    {
      "code": "SKG",
      "shareholderType": "COMPANY",
      "shareholderName": "Kaibuok Shipyard (M) SDN. BHD.",
      "roleType": "Cổ đông lớn",
      "enRoleType": "Major Shareholder",
      "numberOfShares": 2438952,
      "ownershipPct": 3.667724011554866,
      "effectiveDate": "2024-06-28"
    },
    {
      "code": "SKG",
      "shareholderType": "PERSON",
      "shareholderName": "Kong Mee Ling",
      "roleType": "Chị/em dâu của Thành viên HĐQT",
      "enRoleType": "Sister in law of Board member",
      "numberOfShares": 1882343,
      "ownershipPct": 2.830689008673488,
      "groupPct": 7.701253172722659,
      "effectiveDate": "2024-06-28"
    }
  ],
  "currentPage": 1,
  "size": 10,
  "totalElements": 11,
  "totalPages": 2
}