{
  "data": [
    {
      "code": "SMT",
      "shareholderType": "PERSON",
      "shareholderName": "Trần Thị Thùy Dương",
      "roleType": "Em gái của Thành viên HĐQT",
      "enRoleType": "Young Sister of Board member",
      "numberOfShares": 931320,
      "ownershipPct": 14.195352078477745,
      "effectiveDate": "2025-08-08"
    },
    {
      "code": "SMT",
      "shareholderType": "PERSON",
      "shareholderName": "Andreas Karall",
      "roleType": "Cổ đông lớn",
      "enRoleType": "Major Shareholder",
      "numberOfShares": 458772,
      "ownershipPct": 6.99268786641261,
      "effectiveDate": "2025-08-08"
    },
    {
      "code": "SMT",
      "shareholderType": "PERSON",
      "shareholderName": "Phạm Duy Khánh",
      "roleType": "Cổ đông lớn",
      "enRoleType": "Major Shareholder",
      "numberOfShares": 327720,
      "ownershipPct": 4.995168989347084,
      "effectiveDate": "2025-08-08"
    },
    {
      "code": "SMT",
      "shareholderType": "PERSON",
      "shareholderName": "Trần Thùy Linh",
      "roleType": "Thành viên HĐQT",
      "enRoleType": "Board member",
      "numberOfShares": 321480,
      "ownershipPct": 4.9000577526403655,
      "effectiveDate": "2025-08-08"
    },
    {
      "code": "SMT",
      "shareholderType": "PERSON",
      "shareholderName": "Nguyễn Thị Nga",
      "roleType": "Cổ đông lớn",
      "enRoleType": "Major Shareholder",
      "numberOfShares": 321480,
      "ownershipPct": 4.9000577526403655,
      "effectiveDate": "2025-08-08"
    },
    {
      "code": "SMT",
      "shareholderType": "PERSON",
      "shareholderName": "Nguyễn Đông Hưng",
      "roleType": "Chủ tịch HĐQT",
      "enRoleType": "Chairman",
      "numberOfShares": 321480,
      "ownershipPct": 4.9000577526403655,
      "effectiveDate": "2025-08-08"
    },
    {
      "code": "SMT",
      "shareholderType": "PERSON",
      "shareholderName": "Nguyễn Ngọc Huy",
      "roleType": "Thành viên HĐQT",
      "enRoleType": "Board member",
      "numberOfShares": 321480,
      "ownershipPct": 4.9000577526403655,
      "effectiveDate": "2025-08-08"
    },
    {
      "code": "SMT",
      "shareholderType": "PERSON",
      "shareholderName": "Vũ Thị Phương",
      "roleType": "Tổng Giám đốc",
      "enRoleType": "CEO",
      "numberOfShares": 321480,
      "ownershipPct": 4.9000577526403655,
      "effectiveDate": "2025-08-08"
    },
    {
      "code": "SMT",
      "shareholderType": "PERSON",
      "shareholderName": "Nguyễn Thị Hải Yến",
      "roleType": "Vợ của Chủ tịch HĐQT",
      "enRoleType": "Wife of Chairman",
      "numberOfShares": 321480,
      "ownershipPct": 4.9000577526403655,
      "effectiveDate": "2025-08-08"
    },
    {
      "code": "SMT",
      "shareholderType": "PERSON",
      "shareholderName": "Andreas Karall",
      "roleType": "Cổ đông lớn",
      "enRoleType": "Major Shareholder",
      "numberOfShares": 320880,
      "ownershipPct": 4.890912441418566,
      "effectiveDate": "2025-08-08"
    }
  ],
  "currentPage": 1,
  "size": 10,
  "totalElements": 12,
  "totalPages": 2
}