{"data":[{"code":"SPM","shareholderType":"PERSON","shareholderName":"Đào Hữu Hoàng","roleType":"Chủ tịch HĐQT","enRoleType":"Chairman","numberOfShares":6198120,"ownershipPct":45.01176470588236,"effectiveDate":"2016-06-24"},{"code":"SPM","shareholderType":"PERSON","shareholderName":"Đào Hữu Hoàng Vũ","roleType":"Thành viên HĐQT","enRoleType":"Board member","numberOfShares":1769020,"ownershipPct":12.846913580246914,"groupPct":18.45820624546115,"effectiveDate":"2020-11-25"},{"code":"SPM","shareholderType":"COMPANY","shareholderName":"CTCP Đầu tư Hải Hà Land","roleType":"Cổ đông lớn","enRoleType":"Major Shareholder","numberOfShares":1272850,"ownershipPct":9.243645606390704,"effectiveDate":"2020-06-30"},{"code":"SPM","shareholderType":"COMPANY","shareholderName":"CTCP Kỹ Thuật Hữu Nghị","roleType":"Cổ đông lớn","enRoleType":"Major Shareholder","numberOfShares":980000,"ownershipPct":7.116920842411038,"effectiveDate":"2020-06-30"},{"code":"SPM","shareholderType":"PERSON","shareholderName":"Vũ Thanh Hiếu","roleType":"Cổ đông lớn","enRoleType":"Major Shareholder","numberOfShares":844020,"ownershipPct":6.129411764705883,"effectiveDate":"2012-05-16"},{"code":"SPM","shareholderType":"PERSON","shareholderName":"Hồ Mộng Tiên","roleType":"Cổ đông lớn","enRoleType":"Major Shareholder","numberOfShares":771600,"ownershipPct":5.603485838779957,"effectiveDate":"2010-09-06"},{"code":"SPM","shareholderType":"PERSON","shareholderName":"Đào Hữu Khôi","roleType":"Thành viên HĐQT","enRoleType":"Board member","numberOfShares":409935,"ownershipPct":2.977015250544662,"effectiveDate":"2019-05-06"},{"code":"SPM","shareholderType":"PERSON","shareholderName":"Đào Thị Ngọc Ánh","roleType":"Chị của Chủ tịch HĐQT","enRoleType":"Elder Sister of Chairman","numberOfShares":354540,"ownershipPct":2.574727668845316,"groupPct":18.45820624546115,"effectiveDate":"2017-10-10"},{"code":"SPM","shareholderType":"PERSON","shareholderName":"Nguyễn Thị Quỳnh Hương","roleType":"Vợ của Chủ tịch HĐQT","enRoleType":"Wife of Chairman","numberOfShares":245845,"ownershipPct":1.785366739288308,"groupPct":18.45820624546115,"effectiveDate":"2020-06-30"},{"code":"SPM","shareholderType":"PERSON","shareholderName":"Trần Thế Tiếp","roleType":"Cổ đông lớn","enRoleType":"Major Shareholder","numberOfShares":245845,"ownershipPct":1.785366739288308,"effectiveDate":"2012-02-29"}],"currentPage":1,"size":10,"totalElements":12,"totalPages":2}