{
  "data": [
    {
      "code": "SRF",
      "shareholderType": "COMPANY",
      "shareholderName": "Công ty Cổ phần TAISEI ONCHO",
      "roleType": "Cổ đông lớn",
      "enRoleType": "Major Shareholder",
      "numberOfShares": 8909457,
      "ownershipPct": 26.36965404812178,
      "effectiveDate": "2021-09-06"
    },
    {
      "code": "SRF",
      "shareholderType": "COMPANY",
      "shareholderName": "Công ty TNHH Kỹ thuật và Xây dựng Sanyo Việt Nam",
      "roleType": "Cổ đông lớn",
      "enRoleType": "Major Shareholder",
      "numberOfShares": 7150000,
      "ownershipPct": 21.162123173619978,
      "effectiveDate": "2021-09-06"
    },
    {
      "code": "SRF",
      "shareholderType": "COMPANY",
      "shareholderName": "TCT Thủy sản VN",
      "roleType": "Cổ đông lớn",
      "enRoleType": "Major Shareholder",
      "numberOfShares": 4578200,
      "ownershipPct": 13.550270253631746,
      "effectiveDate": "2021-09-06"
    },
    {
      "code": "SRF",
      "shareholderType": "COMPANY",
      "shareholderName": "CTCP Searefico",
      "roleType": "Cổ phiếu quỹ",
      "enRoleType": "Treasury Stock",
      "numberOfShares": 1780000,
      "ownershipPct": 5.268332762103994,
      "effectiveDate": "2018-12-21"
    },
    {
      "code": "SRF",
      "shareholderType": "PERSON",
      "shareholderName": "Nguyễn Thị Hồng",
      "roleType": "Vợ của Thành viên HĐQT",
      "enRoleType": "Wife of Board member",
      "numberOfShares": 1692910,
      "ownershipPct": 5.010569222636783,
      "groupPct": 5.010601779749358,
      "effectiveDate": "2025-02-19"
    },
    {
      "code": "SRF",
      "shareholderType": "COMPANY",
      "shareholderName": "Vận Tải Ngoại Thương",
      "roleType": "Cổ đông lớn",
      "enRoleType": "Major Shareholder",
      "numberOfShares": 1595000,
      "ownershipPct": 4.720781323345995,
      "effectiveDate": "2012-06-26"
    },
    {
      "code": "SRF",
      "shareholderType": "PERSON",
      "shareholderName": "Nguyễn Hữu Thịnh",
      "roleType": "Thành viên HĐQT",
      "enRoleType": "Board member",
      "numberOfShares": 1515258,
      "ownershipPct": 4.48476593507875,
      "effectiveDate": "2021-09-06"
    },
    {
      "code": "SRF",
      "shareholderType": "PERSON",
      "shareholderName": "Nguyễn Thanh Sơn",
      "roleType": "Cổ đông lớn",
      "enRoleType": "Major Shareholder",
      "numberOfShares": 1336300,
      "ownershipPct": 3.9550972303368357,
      "effectiveDate": "2019-06-21"
    },
    {
      "code": "SRF",
      "shareholderType": "PERSON",
      "shareholderName": "Lê Tấn Phước",
      "roleType": "Chủ tịch HĐQT",
      "enRoleType": "Chairman",
      "numberOfShares": 1164798,
      "ownershipPct": 3.447496328445623,
      "effectiveDate": "2024-04-12"
    },
    {
      "code": "SRF",
      "shareholderType": "PERSON",
      "shareholderName": "Ngô Thị Mai",
      "roleType": "Vợ của Chủ tịch HĐQT",
      "enRoleType": "Wife of Chairman",
      "numberOfShares": 618090,
      "ownershipPct": 1.8293841555780102,
      "effectiveDate": "2021-09-06"
    }
  ],
  "currentPage": 1,
  "size": 10,
  "totalElements": 11,
  "totalPages": 2
}