{
  "data": [
    {
      "code": "SSB",
      "shareholderType": "COMPANY",
      "shareholderName": "CÔNG TY TNHH PHÁT TRIỂN VÀ ĐẦU TƯ PHÚ MỸ",
      "roleType": "Cổ đông lớn",
      "enRoleType": "Major Shareholder",
      "numberOfShares": 124280660,
      "ownershipPct": 4.368701956647905,
      "effectiveDate": "2023-06-23"
    },
    {
      "code": "SSB",
      "shareholderType": "PERSON",
      "shareholderName": "Nguyễn Thị Nga",
      "roleType": "Phó chủ tịch HĐQT",
      "enRoleType": "Vice-chairman",
      "numberOfShares": 117083628,
      "ownershipPct": 4.115712571328761,
      "effectiveDate": "2025-04-29"
    },
    {
      "code": "SSB",
      "shareholderType": "COMPANY",
      "shareholderName": "Công ty TNHH Đầu tư Tài chính và Thương mại Vạn Lộc",
      "roleType": "Cổ đông lớn",
      "enRoleType": "Major Shareholder",
      "numberOfShares": 72971986,
      "ownershipPct": 2.565104321289278,
      "effectiveDate": "2023-06-23"
    },
    {
      "code": "SSB",
      "shareholderType": "COMPANY",
      "shareholderName": "Công ty TNHH MTV Đầu tư Xây dựng và Thương mại Đức Thịnh",
      "roleType": "Cổ đông lớn",
      "enRoleType": "Major Shareholder",
      "numberOfShares": 71970579,
      "ownershipPct": 2.529902957534846,
      "effectiveDate": "2023-06-23"
    },
    {
      "code": "SSB",
      "shareholderType": "COMPANY",
      "shareholderName": "Vinamotor",
      "roleType": "Cổ đông lớn",
      "enRoleType": "Major Shareholder",
      "numberOfShares": 68726212,
      "ownershipPct": 2.4158572768876407,
      "effectiveDate": "2023-06-23"
    },
    {
      "code": "SSB",
      "shareholderType": "PERSON",
      "shareholderName": "Lê Thu Thủy",
      "roleType": "Phó chủ tịch HĐQT",
      "enRoleType": "Vice-chairman",
      "numberOfShares": 57788594,
      "ownershipPct": 2.031379167762155,
      "groupPct": 7.764815240177602,
      "effectiveDate": "2023-06-23"
    },
    {
      "code": "SSB",
      "shareholderType": "PERSON",
      "shareholderName": "Lê Tuấn Anh",
      "roleType": "Con của Phó chủ tịch HĐQT",
      "enRoleType": "Child of Vice-chairman",
      "numberOfShares": 56244648,
      "ownershipPct": 1.9771065246078727,
      "groupPct": 7.764815240177602,
      "effectiveDate": "2024-08-23"
    },
    {
      "code": "SSB",
      "shareholderType": "PERSON",
      "shareholderName": "Lê Tuấn Anh",
      "roleType": "Con của Phó chủ tịch HĐQT",
      "enRoleType": "Child of Vice-chairman",
      "numberOfShares": 56244648,
      "ownershipPct": 1.9771065246078727,
      "groupPct": 7.764815240177602,
      "effectiveDate": "2024-08-23"
    },
    {
      "code": "SSB",
      "shareholderType": "PERSON",
      "shareholderName": "Lê Hữu Báu",
      "roleType": "Chồng của Phó chủ tịch HĐQT",
      "enRoleType": "Husband of Vice-chairman",
      "numberOfShares": 50615266,
      "ownershipPct": 1.7792230231997013,
      "groupPct": 7.764815240177602,
      "effectiveDate": "2024-10-24"
    },
    {
      "code": "SSB",
      "shareholderType": "PERSON",
      "shareholderName": "Lê Tuấn Anh",
      "roleType": "Cổ đông lớn",
      "enRoleType": "Major Shareholder",
      "numberOfShares": 44518166,
      "ownershipPct": 1.5648983430774848,
      "effectiveDate": "2025-06-19"
    }
  ],
  "currentPage": 1,
  "size": 10,
  "totalElements": 11,
  "totalPages": 2
}