{
  "data": [
    {
      "code": "SSN",
      "shareholderType": "PERSON",
      "shareholderName": "Nguyễn Nhân Kiệt",
      "roleType": "Cổ đông lớn",
      "enRoleType": "Major Shareholder",
      "numberOfShares": 9900000,
      "ownershipPct": 25,
      "effectiveDate": "2019-05-02"
    },
    {
      "code": "SSN",
      "shareholderType": "COMPANY",
      "shareholderName": "TCT Thủy sản VN",
      "roleType": "Cổ đông lớn",
      "enRoleType": "Major Shareholder",
      "numberOfShares": 5858500,
      "ownershipPct": 14.794191919191919,
      "effectiveDate": "2020-06-30"
    },
    {
      "code": "SSN",
      "shareholderType": "PERSON",
      "shareholderName": "Trương Việt Tiến",
      "roleType": "Cổ đông lớn",
      "enRoleType": "Major Shareholder",
      "numberOfShares": 4538800,
      "ownershipPct": 11.461616161616162,
      "effectiveDate": "2019-05-02"
    },
    {
      "code": "SSN",
      "shareholderType": "PERSON",
      "shareholderName": "Nguyễn Trọng Trí",
      "roleType": "Trưởng BKS",
      "enRoleType": "Head of Control",
      "numberOfShares": 3200000,
      "ownershipPct": 8.080808080808081,
      "effectiveDate": "2020-06-30"
    },
    {
      "code": "SSN",
      "shareholderType": "PERSON",
      "shareholderName": "Trần Minh Tính",
      "roleType": "Cổ đông lớn",
      "enRoleType": "Major Shareholder",
      "numberOfShares": 2038100,
      "ownershipPct": 5.146717171717172,
      "effectiveDate": "2019-03-07"
    },
    {
      "code": "SSN",
      "shareholderType": "COMPANY",
      "shareholderName": "Công ty TNHH MTV Quản lý Quỹ Ngân hàng TMCP Công thương Việt Nam",
      "roleType": "Cổ đông lớn",
      "enRoleType": "Major Shareholder",
      "numberOfShares": 1981500,
      "ownershipPct": 5.003787878787879,
      "effectiveDate": "2016-12-30"
    },
    {
      "code": "SSN",
      "shareholderType": "PERSON",
      "shareholderName": "Hàn Hồng Hạnh",
      "roleType": "Cổ đông lớn",
      "enRoleType": "Major Shareholder",
      "numberOfShares": 1976500,
      "ownershipPct": 4.991161616161616,
      "effectiveDate": "2018-06-08"
    },
    {
      "code": "SSN",
      "shareholderType": "COMPANY",
      "shareholderName": "Công ty Cổ phần Quản lý Quỹ Đầu tư MB",
      "roleType": "Cổ đông lớn",
      "enRoleType": "Major Shareholder",
      "numberOfShares": 1972000,
      "ownershipPct": 4.97979797979798,
      "effectiveDate": "2018-04-18"
    },
    {
      "code": "SSN",
      "shareholderType": "PERSON",
      "shareholderName": "Nguyễn Lê Phan",
      "roleType": "Cổ đông lớn",
      "enRoleType": "Major Shareholder",
      "numberOfShares": 1897600,
      "ownershipPct": 4.791919191919192,
      "effectiveDate": "2019-07-10"
    },
    {
      "code": "SSN",
      "shareholderType": "PERSON",
      "shareholderName": "Nguyễn Thị Hằng",
      "roleType": "Cổ đông lớn",
      "enRoleType": "Major Shareholder",
      "numberOfShares": 1548410,
      "ownershipPct": 3.9101262626262625,
      "effectiveDate": "2023-06-30"
    }
  ],
  "currentPage": 1,
  "size": 10,
  "totalElements": 13,
  "totalPages": 2
}