{
  "data": [
    {
      "code": "STB",
      "shareholderType": "COMPANY",
      "shareholderName": "PYN ELITE FUND",
      "roleType": "Cổ đông lớn",
      "enRoleType": "Major Shareholder",
      "numberOfShares": 112378800,
      "ownershipPct": 5.961057880338613,
      "effectiveDate": "2025-02-26"
    },
    {
      "code": "STB",
      "shareholderType": "COMPANY",
      "shareholderName": "Eximbank",
      "roleType": "Cổ đông lớn",
      "enRoleType": "Major Shareholder",
      "numberOfShares": 88470716,
      "ownershipPct": 4.69286964081303,
      "effectiveDate": "2018-01-05"
    },
    {
      "code": "STB",
      "shareholderType": "COMPANY",
      "shareholderName": "Công ty Cổ phần đầu tư Sài Gòn E Xim",
      "roleType": "Cổ đông lớn",
      "enRoleType": "Major Shareholder",
      "numberOfShares": 74904577,
      "ownershipPct": 3.9732629196901943,
      "effectiveDate": "2020-06-30"
    },
    {
      "code": "STB",
      "shareholderType": "PERSON",
      "shareholderName": "Dương Công Minh",
      "roleType": "Chủ tịch HĐQT",
      "enRoleType": "Chairman",
      "numberOfShares": 62569075,
      "ownershipPct": 3.3189345107284263,
      "effectiveDate": "2018-01-19"
    },
    {
      "code": "STB",
      "shareholderType": "COMPANY",
      "shareholderName": "Tài chính quốc tế (IFC)",
      "roleType": "Cổ đông lớn",
      "enRoleType": "Major Shareholder",
      "numberOfShares": 58647040,
      "ownershipPct": 3.1108928014050146,
      "effectiveDate": "2020-06-30"
    },
    {
      "code": "STB",
      "shareholderType": "PERSON",
      "shareholderName": "Trầm Trọng Ngân",
      "roleType": "Cổ đông lớn",
      "enRoleType": "Major Shareholder",
      "numberOfShares": 48000000,
      "ownershipPct": 2.5461277238790005,
      "effectiveDate": "2013-03-01"
    },
    {
      "code": "STB",
      "shareholderType": "COMPANY",
      "shareholderName": "CTBC Vietnam Equity Fund",
      "roleType": "Cổ đông lớn",
      "enRoleType": "Major Shareholder",
      "numberOfShares": 43000000,
      "ownershipPct": 2.2809060859749377,
      "effectiveDate": "2023-11-06"
    },
    {
      "code": "STB",
      "shareholderType": "COMPANY",
      "shareholderName": "Công ty cổ phần Đầu tư tài chính Sài Gòn Á Châu",
      "roleType": "Cổ đông lớn",
      "enRoleType": "Major Shareholder",
      "numberOfShares": 39407123,
      "ownershipPct": 2.090324341429371,
      "effectiveDate": "2020-06-30"
    },
    {
      "code": "STB",
      "shareholderType": "COMPANY",
      "shareholderName": "Công ty TNHH Thương mại Đầu tư Thuận Thiên",
      "roleType": "Cổ đông lớn",
      "enRoleType": "Major Shareholder",
      "numberOfShares": 31899015,
      "ownershipPct": 1.692061801165252,
      "effectiveDate": "2016-07-13"
    },
    {
      "code": "STB",
      "shareholderType": "COMPANY",
      "shareholderName": "Norges Bank",
      "roleType": "Cổ đông lớn",
      "enRoleType": "Major Shareholder",
      "numberOfShares": 25300000,
      "ownershipPct": 1.3420214877945564,
      "effectiveDate": "2023-11-06"
    }
  ],
  "currentPage": 1,
  "size": 10,
  "totalElements": 12,
  "totalPages": 2
}