{"data":[{"code":"SVN","shareholderType":"COMPANY","shareholderName":"Công ty cổ phần Đầu tư và Phát triển Hoàng Gia Holding","roleType":"Cổ đông lớn","enRoleType":"Major Shareholder","numberOfShares":5000000,"ownershipPct":23.80952380952381,"effectiveDate":"2023-05-30"},{"code":"SVN","shareholderType":"COMPANY","shareholderName":"Wardhaven Vietnam Fund","roleType":"Cổ đông lớn","enRoleType":"Major Shareholder","numberOfShares":4094893,"ownershipPct":19.499490476190477,"effectiveDate":"2019-11-05"},{"code":"SVN","shareholderType":"COMPANY","shareholderName":"CTCP Tập đoàn Đầu tư tài chính MYA Capital","roleType":"Cổ đông lớn","enRoleType":"Major Shareholder","numberOfShares":2000000,"ownershipPct":9.523809523809524,"effectiveDate":"2023-05-31"},{"code":"SVN","shareholderType":"COMPANY","shareholderName":"Công ty CP đầu tư Xanh Việt Nam","roleType":"Cổ đông lớn","enRoleType":"Major Shareholder","numberOfShares":1035000,"ownershipPct":4.928571428571429,"effectiveDate":"2016-04-25"},{"code":"SVN","shareholderType":"PERSON","shareholderName":"Đỗ Bảo Anh","roleType":"Cổ đông lớn","enRoleType":"Major Shareholder","numberOfShares":1030000,"ownershipPct":4.904761904761905,"effectiveDate":"2023-04-20"},{"code":"SVN","shareholderType":"PERSON","shareholderName":"Bùi Thị Xuân","roleType":"Cổ đông lớn","enRoleType":"Major Shareholder","numberOfShares":1000000,"ownershipPct":4.761904761904762,"effectiveDate":"2023-05-30"},{"code":"SVN","shareholderType":"COMPANY","shareholderName":"Công ty TNHH Đầu tư Bảo Lộc Hà Việt","roleType":"Cổ đông lớn","enRoleType":"Major Shareholder","numberOfShares":1000000,"ownershipPct":4.761904761904762,"effectiveDate":"2016-04-29"},{"code":"SVN","shareholderType":"PERSON","shareholderName":"Triệu Văn Hợi","roleType":"Cổ đông lớn","enRoleType":"Major Shareholder","numberOfShares":891000,"ownershipPct":4.242857142857143,"effectiveDate":"2016-06-13"},{"code":"SVN","shareholderType":"PERSON","shareholderName":"Trương Huy Tâm","roleType":"Cổ đông lớn","enRoleType":"Major Shareholder","numberOfShares":869900,"ownershipPct":4.142380952380952,"effectiveDate":"2024-01-24"},{"code":"SVN","shareholderType":"PERSON","shareholderName":"Nguyễn Thị Hiền","roleType":"Cổ đông lớn","enRoleType":"Major Shareholder","numberOfShares":700000,"ownershipPct":3.3333333333333335,"effectiveDate":"2016-06-09"}],"currentPage":1,"size":10,"totalElements":14,"totalPages":2}