{"data":[{"code":"TCO","shareholderType":"PERSON","shareholderName":"Nguyễn Hoàng Nam","roleType":"Cổ đông lớn","enRoleType":"Major Shareholder","numberOfShares":2824700,"ownershipPct":13.64990032823161,"effectiveDate":"2023-08-23"},{"code":"TCO","shareholderType":"PERSON","shareholderName":"Nguyễn Thị Nhung","roleType":"Cổ đông lớn","enRoleType":"Major Shareholder","numberOfShares":979150,"ownershipPct":4.7315820817743415,"effectiveDate":"2020-10-01"},{"code":"TCO","shareholderType":"PERSON","shareholderName":"Lê Trung Nghĩa","roleType":"Cổ đông lớn","enRoleType":"Major Shareholder","numberOfShares":829150,"ownershipPct":4.006731637750288,"effectiveDate":"2020-12-03"},{"code":"TCO","shareholderType":"PERSON","shareholderName":"Nguyễn Duy Dinh","roleType":"Cổ đông lớn","enRoleType":"Major Shareholder","numberOfShares":818140,"ownershipPct":3.953527615158923,"effectiveDate":"2023-06-29"},{"code":"TCO","shareholderType":"PERSON","shareholderName":"Nguyễn Thị Kim Phượng","roleType":"Nhóm cổ đông lớn","enRoleType":"Major Shareholder Group","numberOfShares":814598,"ownershipPct":3.936411480007368,"groupPct":4.170388371002039,"effectiveDate":"2016-09-13"},{"code":"TCO","shareholderType":"PERSON","shareholderName":"Bùi Lê Quốc Bảo","roleType":"Thành viên HĐQT","enRoleType":"Board member","numberOfShares":711100,"ownershipPct":3.436274338303359,"effectiveDate":"2023-12-31"},{"code":"TCO","shareholderType":"PERSON","shareholderName":"Lê Thái Cường","roleType":"Cổ đông lớn","enRoleType":"Major Shareholder","numberOfShares":433408,"ownershipPct":2.0943732082905107,"effectiveDate":"2020-06-30"},{"code":"TCO","shareholderType":"PERSON","shareholderName":"Lê Hồng Ngọc","roleType":"Cổ đông lớn","enRoleType":"Major Shareholder","numberOfShares":370940,"ownershipPct":1.7925068247085474,"effectiveDate":"2021-07-09"},{"code":"TCO","shareholderType":"PERSON","shareholderName":"Đào Kim Phương","roleType":"Cổ đông lớn","enRoleType":"Major Shareholder","numberOfShares":356800,"ownershipPct":1.7241775895185465,"effectiveDate":"2017-07-28"},{"code":"TCO","shareholderType":"PERSON","shareholderName":"Trần Thị Kim Hồng","roleType":"Cổ đông lớn","enRoleType":"Major Shareholder","numberOfShares":310000,"ownershipPct":1.4980242509830421,"effectiveDate":"2016-08-08"}],"currentPage":1,"size":10,"totalElements":11,"totalPages":2}