{"data":[{"code":"TEG","shareholderType":"COMPANY","shareholderName":"CTCP Tập đoàn Trường Thành Việt Nam","roleType":"Cổ đông lớn","enRoleType":"Major Shareholder","numberOfShares":38334389,"ownershipPct":52.652381800420684,"effectiveDate":"2024-01-18"},{"code":"TEG","shareholderType":"COMPANY","shareholderName":"CTCP đầu tư Mernus","roleType":"Cổ đông lớn","enRoleType":"Major Shareholder","numberOfShares":10921062,"ownershipPct":15.000106721149669,"effectiveDate":"2023-06-15"},{"code":"TEG","shareholderType":"PERSON","shareholderName":"Nguyễn Anh Tuấn","roleType":"Thành viên HĐQT","enRoleType":"Board member","numberOfShares":7109550,"ownershipPct":9.76498519460375,"effectiveDate":"2023-06-15"},{"code":"TEG","shareholderType":"PERSON","shareholderName":"Đặng Trung Kiên","roleType":"Chủ tịch HĐQT","enRoleType":"Chairman","numberOfShares":5206774,"ownershipPct":7.151517468988578,"effectiveDate":"2024-01-18"},{"code":"TEG","shareholderType":"COMPANY","shareholderName":"Chứng khoán SG HN","roleType":"Cổ đông lớn","enRoleType":"Major Shareholder","numberOfShares":2564100,"ownershipPct":3.521797939037418,"effectiveDate":"2023-06-15"},{"code":"TEG","shareholderType":"PERSON","shareholderName":"Phan Ngọc Anh Cương","roleType":"Phó TGĐ","enRoleType":"Deputy CEO","numberOfShares":1744902,"ownershipPct":2.396627380922066,"effectiveDate":"2023-06-15"},{"code":"TEG","shareholderType":"COMPANY","shareholderName":"Công ty TNHH MTV Đầu tư Phát triển Trường Thành Việt Nam","roleType":"Cổ đông lớn","enRoleType":"Major Shareholder","numberOfShares":1531800,"ownershipPct":2.103931236308068,"effectiveDate":"2023-06-15"},{"code":"TEG","shareholderType":"PERSON","shareholderName":"Lê Đình Ngọc","roleType":"Thành viên HĐQT","enRoleType":"Board member","numberOfShares":1454102,"ownershipPct":1.997212833645407,"effectiveDate":"2024-01-18"},{"code":"TEG","shareholderType":"PERSON","shareholderName":"Nguyễn Thị Bích Liên","roleType":"Vợ của Phó TGĐ","enRoleType":"Wife of Deputy CEO","numberOfShares":1222416,"ownershipPct":1.6789915172755994,"effectiveDate":"2023-06-15"},{"code":"TEG","shareholderType":"PERSON","shareholderName":"Nguyễn Tùng Lâm","roleType":"Cổ đông lớn","enRoleType":"Major Shareholder","numberOfShares":1107147,"ownershipPct":1.520669249565719,"effectiveDate":"2023-06-15"}],"currentPage":1,"size":10,"totalElements":12,"totalPages":2}