{"data":[{"code":"TKC","shareholderType":"PERSON","shareholderName":"Phạm Thị Minh Nguyệt","roleType":"Cổ đông lớn","enRoleType":"Major Shareholder","numberOfShares":1540000,"ownershipPct":9.824741915513345,"effectiveDate":"2022-09-21"},{"code":"TKC","shareholderType":"COMPANY","shareholderName":"Quỹ Đầu tư tài chính MKDS","roleType":"Cổ đông lớn","enRoleType":"Major Shareholder","numberOfShares":1524503,"ownershipPct":9.725875665211584,"effectiveDate":"2023-06-30"},{"code":"TKC","shareholderType":"PERSON","shareholderName":"Nguyễn Thị Thuận Vi","roleType":"Cổ đông lớn","enRoleType":"Major Shareholder","numberOfShares":1486700,"ownershipPct":9.484703769995901,"effectiveDate":"2023-09-22"},{"code":"TKC","shareholderType":"COMPANY","shareholderName":"Công ty Cổ phần Đầu tư và Xây dựng COTEC ","roleType":"Cổ đông lớn","enRoleType":"Major Shareholder","numberOfShares":1038986,"ownershipPct":6.628421625864641,"effectiveDate":"2022-09-21"},{"code":"TKC","shareholderType":"COMPANY","shareholderName":"Chứng khoán SSI","roleType":"Cổ đông lớn","enRoleType":"Major Shareholder","numberOfShares":1003272,"ownershipPct":6.400576929260327,"effectiveDate":"2022-09-21"},{"code":"TKC","shareholderType":"COMPANY","shareholderName":"Địa ốc Tân Kỷ","roleType":"Cổ phiếu quỹ","enRoleType":"Treasury Stock","numberOfShares":650000,"ownershipPct":4.146806652651736,"effectiveDate":"2011-06-30"},{"code":"TKC","shareholderType":"PERSON","shareholderName":"Nguyễn Thanh Hằng","roleType":"Em gái của Phó chủ tịch HĐQT","enRoleType":"Young Sister of Vice-chairman","numberOfShares":570606,"ownershipPct":3.6402965489892254,"effectiveDate":"2022-09-21"},{"code":"TKC","shareholderType":"PERSON","shareholderName":"Trần Văn Tuấn","roleType":"Thành viên HĐQT","enRoleType":"Board member","numberOfShares":424061,"ownershipPct":2.7053830398925354,"effectiveDate":"2022-09-21"},{"code":"TKC","shareholderType":"PERSON","shareholderName":"Nguyễn Uy Trường","roleType":"Cổ đông lớn","enRoleType":"Major Shareholder","numberOfShares":372914,"ownershipPct":2.379080393949184,"effectiveDate":"2019-07-04"},{"code":"TKC","shareholderType":"PERSON","shareholderName":"Trần Thị Cẩm Vân","roleType":"Cổ đông lớn","enRoleType":"Major Shareholder","numberOfShares":293400,"ownershipPct":1.8718047259815682,"effectiveDate":"2010-03-31"}],"currentPage":1,"size":10,"totalElements":12,"totalPages":2}