{
  "data": [
    {
      "code": "TMS",
      "shareholderType": "COMPANY",
      "shareholderName": "Casco Invesment Limeted",
      "roleType": "Cổ đông lớn",
      "enRoleType": "Major Shareholder",
      "numberOfShares": 34069568,
      "ownershipPct": 20.119466976771406,
      "effectiveDate": "2023-10-04"
    },
    {
      "code": "TMS",
      "shareholderType": "COMPANY",
      "shareholderName": "CTCP Logistics Quốc tế Ryobi Việt Nam",
      "roleType": "Cổ đông lớn",
      "enRoleType": "Major Shareholder",
      "numberOfShares": 33175546,
      "ownershipPct": 19.591510587494408,
      "effectiveDate": "2023-10-04"
    },
    {
      "code": "TMS",
      "shareholderType": "COMPANY",
      "shareholderName": "JWD Asia Holding Private Limited",
      "roleType": "Cổ đông lớn",
      "enRoleType": "Major Shareholder",
      "numberOfShares": 24778470,
      "ownershipPct": 14.632695339721389,
      "effectiveDate": "2023-10-04"
    },
    {
      "code": "TMS",
      "shareholderType": "PERSON",
      "shareholderName": "Bùi Minh Tuấn",
      "roleType": "Thành viên HĐQT",
      "enRoleType": "Board member",
      "numberOfShares": 24543105,
      "ownershipPct": 14.493702724816856,
      "effectiveDate": "2024-09-23"
    },
    {
      "code": "TMS",
      "shareholderType": "COMPANY",
      "shareholderName": "CTCP Prosper Logistics",
      "roleType": "Cổ đông lớn",
      "enRoleType": "Major Shareholder",
      "numberOfShares": 22156128,
      "ownershipPct": 13.084095625430892,
      "effectiveDate": "2024-09-23"
    },
    {
      "code": "TMS",
      "shareholderType": "COMPANY",
      "shareholderName": "Công ty Cổ phần Dịch vụ Văn hóa Việt",
      "roleType": "Cổ đông lớn",
      "enRoleType": "Major Shareholder",
      "numberOfShares": 15933494,
      "ownershipPct": 9.409376906616055,
      "effectiveDate": "2023-10-04"
    },
    {
      "code": "TMS",
      "shareholderType": "COMPANY",
      "shareholderName": "Công ty TNHH Đầu tư và Thương mại Thiên Hải",
      "roleType": "Cổ đông lớn",
      "enRoleType": "Major Shareholder",
      "numberOfShares": 11954909,
      "ownershipPct": 7.059860484166024,
      "effectiveDate": "2023-10-04"
    },
    {
      "code": "TMS",
      "shareholderType": "COMPANY",
      "shareholderName": "CTCP Đầu Tư New Asia",
      "roleType": "Cổ đông lớn",
      "enRoleType": "Major Shareholder",
      "numberOfShares": 11594603,
      "ownershipPct": 6.847085122044244,
      "effectiveDate": "2023-10-04"
    },
    {
      "code": "TMS",
      "shareholderType": "COMPANY",
      "shareholderName": "Công ty cổ phần Đầu tư VINA",
      "roleType": "Cổ đông lớn",
      "enRoleType": "Major Shareholder",
      "numberOfShares": 11372712,
      "ownershipPct": 6.71604945270606,
      "effectiveDate": "2023-10-04"
    },
    {
      "code": "TMS",
      "shareholderType": "COMPANY",
      "shareholderName": "Công ty TNHH Quản lý quỹ SSI",
      "roleType": "Cổ đông lớn",
      "enRoleType": "Major Shareholder",
      "numberOfShares": 3688714,
      "ownershipPct": 2.178335795445201,
      "effectiveDate": "2023-10-04"
    }
  ],
  "currentPage": 1,
  "size": 10,
  "totalElements": 14,
  "totalPages": 2
}