{
  "data": [
    {
      "code": "TNA",
      "shareholderType": "PERSON",
      "shareholderName": "Nguyễn Quang Hòa",
      "roleType": "Chủ tịch HĐQT",
      "enRoleType": "Chairman",
      "numberOfShares": 8559569,
      "ownershipPct": 17.386433552143952,
      "effectiveDate": "2022-11-30"
    },
    {
      "code": "TNA",
      "shareholderType": "PERSON",
      "shareholderName": "Nguyễn Trần Thảo Nguyên",
      "roleType": "Con của Chủ tịch HĐQT",
      "enRoleType": "Child of Chairman",
      "numberOfShares": 7905515,
      "ownershipPct": 16.057900957744167,
      "groupPct": 24.10194244272598,
      "effectiveDate": "2024-08-28"
    },
    {
      "code": "TNA",
      "shareholderType": "PERSON",
      "shareholderName": "Nguyễn Trần Thảo Nguyên",
      "roleType": "Cổ đông lớn",
      "enRoleType": "Major Shareholder",
      "numberOfShares": 7905515,
      "ownershipPct": 16.057900957744167,
      "effectiveDate": "2024-08-28"
    },
    {
      "code": "TNA",
      "shareholderType": "PERSON",
      "shareholderName": "Nguyễn Trần Thảo Hương",
      "roleType": "Con của Chủ tịch HĐQT",
      "enRoleType": "Child of Chairman",
      "numberOfShares": 3960159,
      "ownershipPct": 8.043984610606543,
      "groupPct": 24.10194244272598,
      "effectiveDate": "2021-11-23"
    },
    {
      "code": "TNA",
      "shareholderType": "PERSON",
      "shareholderName": "Trần Thị Hiền",
      "roleType": "Cổ đông lớn",
      "enRoleType": "Major Shareholder",
      "numberOfShares": 3121956,
      "ownershipPct": 6.341403468646274,
      "effectiveDate": "2023-06-30"
    },
    {
      "code": "TNA",
      "shareholderType": "PERSON",
      "shareholderName": "Lê Thị Hoài Hương",
      "roleType": "Cổ đông lớn",
      "enRoleType": "Major Shareholder",
      "numberOfShares": 2675640,
      "ownershipPct": 5.434834051744713,
      "effectiveDate": "2021-11-23"
    },
    {
      "code": "TNA",
      "shareholderType": "PERSON",
      "shareholderName": "Phạm Thị Phương Vũ",
      "roleType": "Cổ đông lớn",
      "enRoleType": "Major Shareholder",
      "numberOfShares": 2340069,
      "ownershipPct": 4.753212945176555,
      "effectiveDate": "2021-12-24"
    },
    {
      "code": "TNA",
      "shareholderType": "COMPANY",
      "shareholderName": "PYN ELITE FUND (NON - UCITS)",
      "roleType": "Cổ đông lớn",
      "enRoleType": "Major Shareholder",
      "numberOfShares": 2181771,
      "ownershipPct": 4.431673664584591,
      "effectiveDate": "2021-11-23"
    },
    {
      "code": "TNA",
      "shareholderType": "PERSON",
      "shareholderName": "Nguyễn Thị Hiền",
      "roleType": "Cổ đông lớn",
      "enRoleType": "Major Shareholder",
      "numberOfShares": 1858040,
      "ownershipPct": 3.774102293845116,
      "effectiveDate": "2020-01-17"
    },
    {
      "code": "TNA",
      "shareholderType": "PERSON",
      "shareholderName": "Lê Đức Hiếu",
      "roleType": "Cổ đông lớn",
      "enRoleType": "Major Shareholder",
      "numberOfShares": 1810025,
      "ownershipPct": 3.676572896394591,
      "effectiveDate": "2020-01-10"
    }
  ],
  "currentPage": 1,
  "size": 10,
  "totalElements": 13,
  "totalPages": 2
}