{"data":[{"code":"TNG","shareholderType":"PERSON","shareholderName":"Nguyễn Văn Thời","roleType":"Chủ tịch HĐQT","enRoleType":"Chairman","numberOfShares":21031410,"ownershipPct":17.153816812552964,"effectiveDate":"2024-07-12"},{"code":"TNG","shareholderType":"PERSON","shareholderName":"Nguyễn Đức Mạnh","roleType":"Phó chủ tịch HĐQT","enRoleType":"Vice-chairman","numberOfShares":9127065,"ownershipPct":7.444294084241795,"groupPct":10.118534307152403,"effectiveDate":"2024-07-12"},{"code":"TNG","shareholderType":"COMPANY","shareholderName":"ASAM VIETNAM MEZZANINE FOCUS HEDGE FUND 1","roleType":"Cổ đông lớn","enRoleType":"Major Shareholder","numberOfShares":8273288,"ownershipPct":6.747929253887053,"effectiveDate":"2023-06-14"},{"code":"TNG","shareholderType":"PERSON","shareholderName":"Trần Cảnh Thông","roleType":"Cổ đông lớn","enRoleType":"Major Shareholder","numberOfShares":7107069,"ownershipPct":5.796727832331451,"effectiveDate":"2023-06-14"},{"code":"TNG","shareholderType":"COMPANY","shareholderName":"AFC VF Limited","roleType":"Cổ đông lớn","enRoleType":"Major Shareholder","numberOfShares":6114242,"ownershipPct":4.986949862877357,"effectiveDate":"2024-07-12"},{"code":"TNG","shareholderType":"COMPANY","shareholderName":"PHILLIP SECURITIES (THAILAND) PUBLIC COMPANY LIMITED","roleType":"Cổ đông lớn","enRoleType":"Major Shareholder","numberOfShares":5687969,"ownershipPct":4.639269467024802,"effectiveDate":"2024-07-12"},{"code":"TNG","shareholderType":"COMPANY","shareholderName":"Korea Investment & Securities Co. Ltd","roleType":"Cổ đông lớn","enRoleType":"Major Shareholder","numberOfShares":5248812,"ownershipPct":4.281080513932721,"effectiveDate":"2023-06-14"},{"code":"TNG","shareholderType":"COMPANY","shareholderName":"Asean Small Cap Fund","roleType":"Cổ đông lớn","enRoleType":"Major Shareholder","numberOfShares":4606822,"ownershipPct":3.757455190880634,"effectiveDate":"2023-06-14"},{"code":"TNG","shareholderType":"COMPANY","shareholderName":"Tundra Vietnam Fund","roleType":"Cổ đông lớn","enRoleType":"Major Shareholder","numberOfShares":4148744,"ownershipPct":3.383833731460622,"effectiveDate":"2023-06-14"},{"code":"TNG","shareholderType":"COMPANY","shareholderName":"Chứng khoán BIDV","roleType":"Cổ đông lớn","enRoleType":"Major Shareholder","numberOfShares":3003917,"ownershipPct":2.450080234188467,"effectiveDate":"2023-06-14"}],"currentPage":1,"size":10,"totalElements":13,"totalPages":2}