{
  "data": [
    {
      "code": "TNH",
      "shareholderType": "COMPANY",
      "shareholderName": "Blooming Earth Pte. Ltd",
      "roleType": "Cổ đông lớn",
      "enRoleType": "Major Shareholder",
      "numberOfShares": 22781593,
      "ownershipPct": 13.74438971131699,
      "effectiveDate": "2025-09-24"
    },
    {
      "code": "TNH",
      "shareholderType": "COMPANY",
      "shareholderName": "Access S.A., Sicav-SIF-Asia Top Picks",
      "roleType": "Cổ đông lớn",
      "enRoleType": "Major Shareholder",
      "numberOfShares": 16746645,
      "ownershipPct": 10.103438123799249,
      "effectiveDate": "2025-09-24"
    },
    {
      "code": "TNH",
      "shareholderType": "COMPANY",
      "shareholderName": "KWE Beteiligungen AG",
      "roleType": "Cổ đông lớn",
      "enRoleType": "Major Shareholder",
      "numberOfShares": 11581650,
      "ownershipPct": 6.98733890558375,
      "effectiveDate": "2024-01-02"
    },
    {
      "code": "TNH",
      "shareholderType": "PERSON",
      "shareholderName": "Hoàng Tuyên",
      "roleType": "Chủ tịch HĐQT",
      "enRoleType": "Chairman",
      "numberOfShares": 9618784,
      "ownershipPct": 5.80311990671506,
      "effectiveDate": "2024-12-05"
    },
    {
      "code": "TNH",
      "shareholderType": "PERSON",
      "shareholderName": "Hoàng Anh",
      "roleType": "Con của Chủ tịch HĐQT",
      "enRoleType": "Child of Chairman",
      "numberOfShares": 8452500,
      "ownershipPct": 5.099487732701872,
      "groupPct": 5.492993828735993,
      "effectiveDate": "2024-12-05"
    },
    {
      "code": "TNH",
      "shareholderType": "COMPANY",
      "shareholderName": "Endurance Capital Vietnam I Ltd",
      "roleType": "Cổ đông lớn",
      "enRoleType": "Major Shareholder",
      "numberOfShares": 4279792,
      "ownershipPct": 2.582046353447573,
      "effectiveDate": "2024-12-05"
    },
    {
      "code": "TNH",
      "shareholderType": "PERSON",
      "shareholderName": "Nguyễn Văn Thủy",
      "roleType": "Cổ đông lớn",
      "enRoleType": "Major Shareholder",
      "numberOfShares": 3419196,
      "ownershipPct": 2.0628391668386055,
      "effectiveDate": "2024-12-05"
    },
    {
      "code": "TNH",
      "shareholderType": "COMPANY",
      "shareholderName": "Endurance Capital Vietnam II S.A. SICAV-RAIF",
      "roleType": "Cổ đông lớn",
      "enRoleType": "Major Shareholder",
      "numberOfShares": 3380540,
      "ownershipPct": 2.039517569938833,
      "effectiveDate": "2024-12-05"
    },
    {
      "code": "TNH",
      "shareholderType": "PERSON",
      "shareholderName": "Nguyễn Xuân Hiệp",
      "roleType": "Con của Thành viên ban KT nội bộ",
      "enRoleType": "Child of Member of Internal Audit",
      "numberOfShares": 3363750,
      "ownershipPct": 2.0293879752589086,
      "groupPct": 2.072969968140886,
      "effectiveDate": "2024-01-02"
    },
    {
      "code": "TNH",
      "shareholderType": "PERSON",
      "shareholderName": "Lê Xuân Tân",
      "roleType": "Phó chủ tịch HĐQT",
      "enRoleType": "Vice-chairman",
      "numberOfShares": 2605349,
      "ownershipPct": 1.5718361744935925,
      "effectiveDate": "2024-12-05"
    }
  ],
  "currentPage": 1,
  "size": 10,
  "totalElements": 12,
  "totalPages": 2
}