{"data":[{"code":"TPB","shareholderType":"COMPANY","shareholderName":"CTCP FPT","roleType":"Cổ đông lớn","enRoleType":"Major Shareholder","numberOfShares":149099577,"ownershipPct":6.772220481165141,"effectiveDate":"2023-06-09"},{"code":"TPB","shareholderType":"COMPANY","shareholderName":"Công ty cổ phần Tập đoàn Vàng bạc đá quý DOJI","roleType":"Cổ đông lớn","enRoleType":"Major Shareholder","numberOfShares":130594494,"ownershipPct":5.931705004060462,"effectiveDate":"2023-06-09"},{"code":"TPB","shareholderType":"COMPANY","shareholderName":"PYN ELITE FUND (NON - UCITS)","roleType":"Cổ đông lớn","enRoleType":"Major Shareholder","numberOfShares":108834989,"ownershipPct":4.943371110792507,"effectiveDate":"2023-06-09"},{"code":"TPB","shareholderType":"COMPANY","shareholderName":"SBI VEN HOLDINGS PTE.LTD","roleType":"Cổ đông lớn","enRoleType":"Major Shareholder","numberOfShares":99325578,"ownershipPct":4.511446156786654,"effectiveDate":"2023-06-09"},{"code":"TPB","shareholderType":"COMPANY","shareholderName":"Công ty TNHH SP (Sp Company Limited)","roleType":"Cổ đông lớn","enRoleType":"Major Shareholder","numberOfShares":89882717,"ownershipPct":4.0825439563129695,"effectiveDate":"2023-06-09"},{"code":"TPB","shareholderType":"COMPANY","shareholderName":"Công ty TNHH JB (Jb Company Limited)","roleType":"Cổ đông lớn","enRoleType":"Major Shareholder","numberOfShares":89840401,"ownershipPct":4.080621930190246,"effectiveDate":"2023-06-30"},{"code":"TPB","shareholderType":"COMPANY","shareholderName":"International Finance Corporation","roleType":"Cổ đông lớn","enRoleType":"Major Shareholder","numberOfShares":85920706,"ownershipPct":3.902586289224473,"effectiveDate":"2023-06-09"},{"code":"TPB","shareholderType":"COMPANY","shareholderName":"Công ty TNHH VG (Vg Company Limited)","roleType":"Cổ đông lớn","enRoleType":"Major Shareholder","numberOfShares":84478306,"ownershipPct":3.837071342645969,"effectiveDate":"2023-06-30"},{"code":"TPB","shareholderType":"PERSON","shareholderName":"Đỗ Anh Tú","roleType":"Phó chủ tịch HĐQT","enRoleType":"Vice-chairman","numberOfShares":81621558,"ownershipPct":3.7073155934721966,"effectiveDate":"2023-06-09"},{"code":"TPB","shareholderType":"PERSON","shareholderName":"Lê Quang Tiến","roleType":"Phó chủ tịch HĐQT","enRoleType":"Vice-chairman","numberOfShares":79415569,"ownershipPct":3.6071178317640933,"effectiveDate":"2023-06-09"}],"currentPage":1,"size":10,"totalElements":20,"totalPages":2}