{"data":[{"code":"TPC","shareholderType":"PERSON","shareholderName":"Lê Thị Mỹ Hạnh","roleType":"Cổ đông lớn","enRoleType":"Major Shareholder","numberOfShares":3382590,"ownershipPct":15.02241244331605,"effectiveDate":"2020-06-30"},{"code":"TPC","shareholderType":"PERSON","shareholderName":"Phạm Trung Cang","roleType":"Phó chủ tịch HĐQT","enRoleType":"Vice-chairman","numberOfShares":3223220,"ownershipPct":14.314634713502127,"groupPct":21.77567873739239,"effectiveDate":"2012-05-16"},{"code":"TPC","shareholderType":"COMPANY","shareholderName":"Công ty TNHH Mirae Fiber Technology","roleType":"Cổ đông lớn","enRoleType":"Major Shareholder","numberOfShares":2331840,"ownershipPct":10.355929105159685,"effectiveDate":"2009-06-09"},{"code":"TPC","shareholderType":"COMPANY","shareholderName":"Nhựa Tân Đại Hưng","roleType":"Cổ phiếu quỹ","enRoleType":"Treasury Stock","numberOfShares":1913640,"ownershipPct":8.498662074927001,"effectiveDate":"2019-12-23"},{"code":"TPC","shareholderType":"COMPANY","shareholderName":"Mekong Enterprise Fund II LTD","roleType":"Cổ đông lớn","enRoleType":"Major Shareholder","numberOfShares":1167648,"ownershipPct":5.185638769290129,"effectiveDate":"2020-06-30"},{"code":"TPC","shareholderType":"COMPANY","shareholderName":"Công ty TNHH Quế Trân","roleType":"Cổ đông lớn","enRoleType":"Major Shareholder","numberOfShares":1022936,"ownershipPct":4.542958648584649,"effectiveDate":"2012-06-07"},{"code":"TPC","shareholderType":"COMPANY","shareholderName":"Mekong Enterprise Fund","roleType":"Cổ đông lớn","enRoleType":"Major Shareholder","numberOfShares":973040,"ownershipPct":4.321365641075108,"effectiveDate":"2009-07-28"},{"code":"TPC","shareholderType":"PERSON","shareholderName":"Đỗ Thị Quế Thanh","roleType":"Mẹ của Chủ tịch HĐQT","enRoleType":"Mother of Chairman","numberOfShares":960000,"ownershipPct":4.263453727937293,"groupPct":21.77567873739239,"effectiveDate":"2020-06-30"},{"code":"TPC","shareholderType":"PERSON","shareholderName":"Phạm Đỗ Diễm Hương","roleType":"Chủ tịch HĐQT","enRoleType":"Chairman","numberOfShares":896700,"ownershipPct":3.982332247751428,"effectiveDate":"2020-06-30"},{"code":"TPC","shareholderType":"PERSON","shareholderName":"Phạm Đỗ Quế Hương","roleType":"Chị của Chủ tịch HĐQT","enRoleType":"Elder Sister of Chairman","numberOfShares":720000,"ownershipPct":3.19759029595297,"groupPct":21.77567873739239,"effectiveDate":"2020-06-30"}],"currentPage":1,"size":10,"totalElements":11,"totalPages":2}