{"data":[{"code":"TRC","shareholderType":"COMPANY","shareholderName":"Cao su Việt Nam","roleType":"Cổ đông lớn","enRoleType":"Major Shareholder","numberOfShares":18000000,"ownershipPct":61.802575107296136,"effectiveDate":"2020-06-30"},{"code":"TRC","shareholderType":"PERSON","shareholderName":"Phạm Văn Hỏi Em","roleType":"Cổ đông lớn","enRoleType":"Major Shareholder","numberOfShares":7500000,"ownershipPct":25.751072961373392,"effectiveDate":"2023-06-30"},{"code":"TRC","shareholderType":"PERSON","shareholderName":"Lê Văn Chành","roleType":"Cổ đông lớn","enRoleType":"Major Shareholder","numberOfShares":4497400,"ownershipPct":15.441716738197425,"effectiveDate":"2023-12-31"},{"code":"TRC","shareholderType":"PERSON","shareholderName":"Nguyễn Thái Bình","roleType":"Thành viên HĐQT","enRoleType":"Board member","numberOfShares":3004700,"ownershipPct":10.31656652360515,"effectiveDate":"2023-06-30"},{"code":"TRC","shareholderType":"PERSON","shareholderName":"Võ Trần Minh Đăng","roleType":"Thành viên HĐQT","enRoleType":"Board member","numberOfShares":3001000,"ownershipPct":10.303862660944207,"effectiveDate":"2023-06-30"},{"code":"TRC","shareholderType":"COMPANY","shareholderName":"Công ty cổ phần Đầu tư Sài Gòn","roleType":"Cổ đông lớn","enRoleType":"Major Shareholder","numberOfShares":2758620,"ownershipPct":9.471656652360515,"effectiveDate":"2020-07-09"},{"code":"TRC","shareholderType":"COMPANY","shareholderName":"FTIF – Templeton Frontier Markets Fund","roleType":"Cổ đông lớn","enRoleType":"Major Shareholder","numberOfShares":1391010,"ownershipPct":4.776,"effectiveDate":"2020-06-30"},{"code":"TRC","shareholderType":"COMPANY","shareholderName":"America LLC","roleType":"Cổ đông lớn","enRoleType":"Major Shareholder","numberOfShares":1385090,"ownershipPct":4.75567381974249,"effectiveDate":"2020-06-24"},{"code":"TRC","shareholderType":"COMPANY","shareholderName":"Balestrand Limited","roleType":"Cổ đông lớn","enRoleType":"Major Shareholder","numberOfShares":1349180,"ownershipPct":4.632377682403433,"effectiveDate":"2014-09-23"},{"code":"TRC","shareholderType":"COMPANY","shareholderName":"Cao su Tây Ninh","roleType":"Cổ phiếu quỹ","enRoleType":"Treasury Stock","numberOfShares":875000,"ownershipPct":3.004291845493562,"effectiveDate":"2012-10-19"}],"currentPage":1,"size":10,"totalElements":11,"totalPages":2}