{
  "data": [
    {
      "code": "TS4",
      "shareholderType": "COMPANY",
      "shareholderName": "TCT Thủy sản VN",
      "roleType": "Cổ đông lớn",
      "enRoleType": "Major Shareholder",
      "numberOfShares": 4347000,
      "ownershipPct": 27.081422567752462,
      "effectiveDate": "2022-07-19"
    },
    {
      "code": "TS4",
      "shareholderType": "PERSON",
      "shareholderName": "Nguyễn Văn Lực",
      "roleType": "Thành viên HĐQT",
      "enRoleType": "Board member",
      "numberOfShares": 4011456,
      "ownershipPct": 24.99101335356476,
      "effectiveDate": "2015-07-07"
    },
    {
      "code": "TS4",
      "shareholderType": "PERSON",
      "shareholderName": "Tạo Dư",
      "roleType": "Cổ đông lớn",
      "enRoleType": "Major Shareholder",
      "numberOfShares": 2107710,
      "ownershipPct": 13.130845447498858,
      "effectiveDate": "2013-06-04"
    },
    {
      "code": "TS4",
      "shareholderType": "PERSON",
      "shareholderName": "Thái Cường",
      "roleType": "Cổ đông lớn",
      "enRoleType": "Major Shareholder",
      "numberOfShares": 1506065,
      "ownershipPct": 9.382650719922271,
      "effectiveDate": "2014-10-16"
    },
    {
      "code": "TS4",
      "shareholderType": "COMPANY",
      "shareholderName": "Công ty TNHH Uni Eastern Việt Nam",
      "roleType": "Cổ đông lớn",
      "enRoleType": "Major Shareholder",
      "numberOfShares": 1053760,
      "ownershipPct": 6.564830882216433,
      "effectiveDate": "2016-09-12"
    },
    {
      "code": "TS4",
      "shareholderType": "PERSON",
      "shareholderName": "Trần Thị Thanh Lan",
      "roleType": "Em gái của Thành viên HĐQT",
      "enRoleType": "Young Sister of Board member",
      "numberOfShares": 792284,
      "ownershipPct": 4.935858706618172,
      "groupPct": 4.935983304835644,
      "effectiveDate": "2017-07-06"
    },
    {
      "code": "TS4",
      "shareholderType": "PERSON",
      "shareholderName": "Nguyễn Thị Ngọc Ánh",
      "roleType": "Cổ đông lớn",
      "enRoleType": "Major Shareholder",
      "numberOfShares": 792100,
      "ownershipPct": 4.93471240301742,
      "effectiveDate": "2017-06-15"
    },
    {
      "code": "TS4",
      "shareholderType": "PERSON",
      "shareholderName": "Đỗ Thanh Nga",
      "roleType": "Phó TGĐ",
      "enRoleType": "Deputy CEO",
      "numberOfShares": 790760,
      "ownershipPct": 4.92636432244673,
      "effectiveDate": "2017-07-06"
    },
    {
      "code": "TS4",
      "shareholderType": "PERSON",
      "shareholderName": "Lê Văn Lợi",
      "roleType": "Cổ đông lớn",
      "enRoleType": "Major Shareholder",
      "numberOfShares": 663261,
      "ownershipPct": 4.132056915967349,
      "effectiveDate": "2021-03-30"
    },
    {
      "code": "TS4",
      "shareholderType": "COMPANY",
      "shareholderName": "Citigroup Global Market LTD",
      "roleType": "Cổ đông lớn",
      "enRoleType": "Major Shareholder",
      "numberOfShares": 484130,
      "ownershipPct": 3.016086751259719,
      "effectiveDate": "2007-07-04"
    }
  ],
  "currentPage": 1,
  "size": 10,
  "totalElements": 13,
  "totalPages": 2
}