{"data":[{"code":"TST","shareholderType":"COMPANY","shareholderName":"Tập đoàn Bưu chính viễn thông Việt Nam","roleType":"Cổ đông lớn","enRoleType":"Major Shareholder","numberOfShares":1575000,"ownershipPct":32.8125,"effectiveDate":"2018-12-21"},{"code":"TST","shareholderType":"PERSON","shareholderName":"Tạ Công Sơn","roleType":"Cổ đông lớn","enRoleType":"Major Shareholder","numberOfShares":1281343,"ownershipPct":26.694645833333333,"effectiveDate":"2020-03-11"},{"code":"TST","shareholderType":"PERSON","shareholderName":"Nguyễn Thị Tố Linh","roleType":"Cổ đông lớn","enRoleType":"Major Shareholder","numberOfShares":398000,"ownershipPct":8.291666666666666,"effectiveDate":"2021-05-20"},{"code":"TST","shareholderType":"PERSON","shareholderName":"Nguyễn Xuân Hiển","roleType":"Phó chủ tịch HĐQT","enRoleType":"Vice-chairman","numberOfShares":391400,"ownershipPct":8.154166666666667,"effectiveDate":"2022-05-23"},{"code":"TST","shareholderType":"PERSON","shareholderName":"Lâm Vũ Hoàng Tùng","roleType":"Thành viên HĐQT","enRoleType":"Board member","numberOfShares":250600,"ownershipPct":5.220833333333333,"effectiveDate":"2021-12-31"},{"code":"TST","shareholderType":"PERSON","shareholderName":"Yu Jen Chieh","roleType":"Cổ đông lớn","enRoleType":"Major Shareholder","numberOfShares":239000,"ownershipPct":4.979166666666667,"effectiveDate":"2020-01-07"},{"code":"TST","shareholderType":"PERSON","shareholderName":"Yu Jen Chieh","roleType":"Cổ đông lớn","enRoleType":"Major Shareholder","numberOfShares":239000,"ownershipPct":4.979166666666667,"effectiveDate":"2020-01-07"},{"code":"TST","shareholderType":"PERSON","shareholderName":"Nguyễn Duy Hưng","roleType":"Cổ đông lớn","enRoleType":"Major Shareholder","numberOfShares":216900,"ownershipPct":4.51875,"effectiveDate":"2015-03-17"},{"code":"TST","shareholderType":"PERSON","shareholderName":"Vũ Hoàng Lan","roleType":"Cổ đông lớn","enRoleType":"Major Shareholder","numberOfShares":216700,"ownershipPct":4.514583333333333,"effectiveDate":"2022-05-23"},{"code":"TST","shareholderType":"PERSON","shareholderName":"Nguyễn Nguyệt Ánh","roleType":"Cổ đông lớn","enRoleType":"Major Shareholder","numberOfShares":122700,"ownershipPct":2.55625,"effectiveDate":"2021-06-30"}],"currentPage":1,"size":10,"totalElements":11,"totalPages":2}