{"data":[{"code":"TTB","shareholderType":"COMPANY","shareholderName":"Công ty TNHH MTV Quyết Thắng QT","roleType":"Cổ đông lớn","enRoleType":"Major Shareholder","numberOfShares":8000000,"ownershipPct":7.88102932114301,"effectiveDate":"2022-03-03"},{"code":"TTB","shareholderType":"COMPANY","shareholderName":"Công ty TNHH Bắc Nam Thái Nguyên","roleType":"Cổ đông lớn","enRoleType":"Major Shareholder","numberOfShares":8000000,"ownershipPct":7.88102932114301,"effectiveDate":"2022-03-03"},{"code":"TTB","shareholderType":"COMPANY","shareholderName":"Công ty TNHH Công nghiệp Anh Thảo","roleType":"Cổ đông lớn","enRoleType":"Major Shareholder","numberOfShares":7000000,"ownershipPct":6.8959006560001335,"effectiveDate":"2022-03-03"},{"code":"TTB","shareholderType":"COMPANY","shareholderName":"Công ty TNHH Ngọc Bích","roleType":"Cổ đông lớn","enRoleType":"Major Shareholder","numberOfShares":6500000,"ownershipPct":6.403336323428696,"effectiveDate":"2022-03-03"},{"code":"TTB","shareholderType":"COMPANY","shareholderName":"Công ty TNHH TPVA Hà Nội","roleType":"Cổ đông lớn","enRoleType":"Major Shareholder","numberOfShares":6000000,"ownershipPct":5.910771990857257,"effectiveDate":"2022-03-03"},{"code":"TTB","shareholderType":"COMPANY","shareholderName":"CTCP Blue Investments","roleType":"Cổ đông lớn","enRoleType":"Major Shareholder","numberOfShares":5500000,"ownershipPct":5.418207658285819,"effectiveDate":"2023-06-30"},{"code":"TTB","shareholderType":"PERSON","shareholderName":"Phùng Văn Bộ","roleType":"Cổ đông lớn","enRoleType":"Major Shareholder","numberOfShares":4343611,"ownershipPct":4.279015706329914,"effectiveDate":"2020-11-03"},{"code":"TTB","shareholderType":"PERSON","shareholderName":"Dương Thị Vân","roleType":"Cổ đông lớn","enRoleType":"Major Shareholder","numberOfShares":3110101,"ownershipPct":3.0638496465895244,"effectiveDate":"2022-06-30"},{"code":"TTB","shareholderType":"PERSON","shareholderName":"Trần Thanh Hà","roleType":"Cổ đông lớn","enRoleType":"Major Shareholder","numberOfShares":3110100,"ownershipPct":3.063848661460859,"effectiveDate":"2022-06-30"},{"code":"TTB","shareholderType":"PERSON","shareholderName":"Dương Văn Linh","roleType":"Cổ đông lớn","enRoleType":"Major Shareholder","numberOfShares":1846100,"ownershipPct":1.8186460287202637,"effectiveDate":"2017-04-21"}],"currentPage":1,"size":10,"totalElements":11,"totalPages":2}