{
  "data": [
    {
      "code": "TTE",
      "shareholderType": "PERSON",
      "shareholderName": "Lê Thị Hạnh",
      "roleType": "Thành viên BKS",
      "enRoleType": "Control member",
      "numberOfShares": 2288900,
      "ownershipPct": 8.033934237497544,
      "effectiveDate": "2021-02-03"
    },
    {
      "code": "TTE",
      "shareholderType": "PERSON",
      "shareholderName": "Đinh Xuân Hoàng",
      "roleType": "Thành viên HĐQT",
      "enRoleType": "Board member",
      "numberOfShares": 1307719,
      "ownershipPct": 4.590033835958779,
      "effectiveDate": "2019-12-18"
    },
    {
      "code": "TTE",
      "shareholderType": "PERSON",
      "shareholderName": "Lê Tuấn Điệp",
      "roleType": "Em trai của Thành viên HĐQT",
      "enRoleType": "Young Brother of Board member",
      "numberOfShares": 1303300,
      "ownershipPct": 4.574523348215539,
      "groupPct": 4.576278325330637,
      "effectiveDate": "2021-06-30"
    },
    {
      "code": "TTE",
      "shareholderType": "PERSON",
      "shareholderName": "Trần Văn Hải",
      "roleType": "Thành viên HĐQT",
      "enRoleType": "Board member",
      "numberOfShares": 1250000,
      "ownershipPct": 4.387442787746048,
      "effectiveDate": "2020-06-30"
    },
    {
      "code": "TTE",
      "shareholderType": "PERSON",
      "shareholderName": "Trần Văn Hải",
      "roleType": "Thành viên HĐQT",
      "enRoleType": "Board member",
      "numberOfShares": 1250000,
      "ownershipPct": 4.387442787746048,
      "effectiveDate": "2023-06-30"
    },
    {
      "code": "TTE",
      "shareholderType": "PERSON",
      "shareholderName": "Phương Thừa Vũ",
      "roleType": "Chủ tịch HĐQT",
      "enRoleType": "Chairman",
      "numberOfShares": 1250000,
      "ownershipPct": 4.387442787746048,
      "effectiveDate": "2023-06-30"
    },
    {
      "code": "TTE",
      "shareholderType": "PERSON",
      "shareholderName": "Trần Quang Chung",
      "roleType": "Cổ đông lớn",
      "enRoleType": "Major Shareholder",
      "numberOfShares": 1038900,
      "ownershipPct": 3.6464914497514953,
      "effectiveDate": "2020-06-30"
    },
    {
      "code": "TTE",
      "shareholderType": "PERSON",
      "shareholderName": "Phương Minh Huệ",
      "roleType": "Chị của Chủ tịch HĐQT",
      "enRoleType": "Elder Sister of Chairman",
      "numberOfShares": 798000,
      "ownershipPct": 2.800943475697077,
      "groupPct": 4.559079549602673,
      "effectiveDate": "2022-06-30"
    },
    {
      "code": "TTE",
      "shareholderType": "PERSON",
      "shareholderName": "Nguyễn Ngọc Tưởng",
      "roleType": "Cổ đông lớn",
      "enRoleType": "Major Shareholder",
      "numberOfShares": 700000,
      "ownershipPct": 2.456967961137787,
      "effectiveDate": "2019-12-18"
    },
    {
      "code": "TTE",
      "shareholderType": "PERSON",
      "shareholderName": "Lê Nhất Minh Xuân",
      "roleType": "Cổ đông lớn",
      "enRoleType": "Major Shareholder",
      "numberOfShares": 550000,
      "ownershipPct": 1.930474826608261,
      "effectiveDate": "2019-12-18"
    }
  ],
  "currentPage": 1,
  "size": 10,
  "totalElements": 11,
  "totalPages": 2
}