{
  "data": [
    {
      "code": "TTG",
      "shareholderType": "COMPANY",
      "shareholderName": "CTCP Sông Đà 19",
      "roleType": "Cổ đông lớn",
      "enRoleType": "Major Shareholder",
      "numberOfShares": 400000,
      "ownershipPct": 11.764705882352942,
      "effectiveDate": "2023-10-16"
    },
    {
      "code": "TTG",
      "shareholderType": "PERSON",
      "shareholderName": "Lê Khánh Việt",
      "roleType": "Cổ đông lớn",
      "enRoleType": "Major Shareholder",
      "numberOfShares": 345000,
      "ownershipPct": 10.147058823529411,
      "effectiveDate": "2024-08-20"
    },
    {
      "code": "TTG",
      "shareholderType": "PERSON",
      "shareholderName": "Nguyễn Thị Ngọc Tú",
      "roleType": "Cổ đông lớn",
      "enRoleType": "Major Shareholder",
      "numberOfShares": 304000,
      "ownershipPct": 8.941176470588236,
      "effectiveDate": "2024-08-19"
    },
    {
      "code": "TTG",
      "shareholderType": "PERSON",
      "shareholderName": "Nguyễn Văn Sơn",
      "roleType": "Cổ đông lớn",
      "enRoleType": "Major Shareholder",
      "numberOfShares": 251000,
      "ownershipPct": 7.382352941176471,
      "effectiveDate": "2024-08-20"
    },
    {
      "code": "TTG",
      "shareholderType": "PERSON",
      "shareholderName": "Trịnh Quốc Khánh",
      "roleType": "Cổ đông lớn",
      "enRoleType": "Major Shareholder",
      "numberOfShares": 231500,
      "ownershipPct": 6.8088235294117645,
      "effectiveDate": "2024-08-15"
    },
    {
      "code": "TTG",
      "shareholderType": "PERSON",
      "shareholderName": "Trịnh Quốc Khánh",
      "roleType": "Cổ đông lớn",
      "enRoleType": "Major Shareholder",
      "numberOfShares": 200000,
      "ownershipPct": 5.882352941176471,
      "effectiveDate": "2024-08-30"
    },
    {
      "code": "TTG",
      "shareholderType": "PERSON",
      "shareholderName": "Lý Nam Ninh",
      "roleType": "Thành viên HĐQT",
      "enRoleType": "Board member",
      "numberOfShares": 200000,
      "ownershipPct": 5.882352941176471,
      "effectiveDate": "2024-08-20"
    },
    {
      "code": "TTG",
      "shareholderType": "PERSON",
      "shareholderName": "Nguyễn Việt Dũng",
      "roleType": "Cổ đông lớn",
      "enRoleType": "Major Shareholder",
      "numberOfShares": 200000,
      "ownershipPct": 5.882352941176471,
      "effectiveDate": "2024-08-20"
    },
    {
      "code": "TTG",
      "shareholderType": "COMPANY",
      "shareholderName": "công ty TNHH Maxport",
      "roleType": "Cổ đông lớn",
      "enRoleType": "Major Shareholder",
      "numberOfShares": 130000,
      "ownershipPct": 3.823529411764706,
      "effectiveDate": "2020-06-30"
    },
    {
      "code": "TTG",
      "shareholderType": "PERSON",
      "shareholderName": "Nguyễn Tấn Lộc",
      "roleType": "Cổ đông lớn",
      "enRoleType": "Major Shareholder",
      "numberOfShares": 97300,
      "ownershipPct": 2.861764705882353,
      "effectiveDate": "2016-08-31"
    }
  ],
  "currentPage": 1,
  "size": 10,
  "totalElements": 12,
  "totalPages": 2
}