{"data":[{"code":"TTZ","shareholderType":"PERSON","shareholderName":"Trần Thị Thu","roleType":"Vợ của Người ĐD theo pháp luật","enRoleType":"Wife of Legal representative","numberOfShares":1425100,"ownershipPct":18.824523370095598,"effectiveDate":"2022-12-31"},{"code":"TTZ","shareholderType":"PERSON","shareholderName":"Nguyễn Thị Thu Huyền","roleType":"Cổ đông lớn","enRoleType":"Major Shareholder","numberOfShares":1274200,"ownershipPct":16.83124530080402,"effectiveDate":"2021-11-16"},{"code":"TTZ","shareholderType":"PERSON","shareholderName":"Huỳnh Văn Quảng","roleType":"Người ĐD theo pháp luật","enRoleType":"Legal representative","numberOfShares":786200,"ownershipPct":10.385124042922714,"effectiveDate":"2021-08-31"},{"code":"TTZ","shareholderType":"PERSON","shareholderName":"Trần Thị Hiền","roleType":"Cổ đông lớn","enRoleType":"Major Shareholder","numberOfShares":653100,"ownershipPct":8.626970888365332,"effectiveDate":"2020-07-16"},{"code":"TTZ","shareholderType":"PERSON","shareholderName":"Nguyễn Thị Bích Thủy","roleType":"Cổ đông lớn","enRoleType":"Major Shareholder","numberOfShares":386000,"ownershipPct":5.098776240865133,"effectiveDate":"2022-08-09"},{"code":"TTZ","shareholderType":"PERSON","shareholderName":"Nguyễn Thị Hương","roleType":"Cổ đông lớn","enRoleType":"Major Shareholder","numberOfShares":385995,"ownershipPct":5.098710194540769,"effectiveDate":"2018-10-22"},{"code":"TTZ","shareholderType":"PERSON","shareholderName":"Chen Yu","roleType":"Cổ đông lớn","enRoleType":"Major Shareholder","numberOfShares":369520,"ownershipPct":4.881087555762912,"effectiveDate":"2021-01-26"},{"code":"TTZ","shareholderType":"PERSON","shareholderName":"Nguyễn Thị Bảo Linh","roleType":"Cổ đông lớn","enRoleType":"Major Shareholder","numberOfShares":363500,"ownershipPct":4.801567781229212,"effectiveDate":"2020-09-04"},{"code":"TTZ","shareholderType":"PERSON","shareholderName":"Nguyễn Thị Tới","roleType":"Cổ đông lớn","enRoleType":"Major Shareholder","numberOfShares":352100,"ownershipPct":4.6509821616803455,"effectiveDate":"2013-09-20"},{"code":"TTZ","shareholderType":"PERSON","shareholderName":"Phạm Ngọc Duẩn","roleType":"Cổ đông lớn","enRoleType":"Major Shareholder","numberOfShares":312300,"ownershipPct":4.125253419746583,"effectiveDate":"2018-03-23"}],"currentPage":1,"size":10,"totalElements":21,"totalPages":3}