{
  "data": [
    {
      "code": "UNI",
      "shareholderType": "PERSON",
      "shareholderName": "Nguyễn Thị Hồng Lý",
      "roleType": "Cổ đông lớn",
      "enRoleType": "Major Shareholder",
      "numberOfShares": 10000000,
      "ownershipPct": 23.464466538168992,
      "effectiveDate": "2025-04-01"
    },
    {
      "code": "UNI",
      "shareholderType": "PERSON",
      "shareholderName": "Vũ Thị Lan",
      "roleType": "Cổ đông lớn",
      "enRoleType": "Major Shareholder",
      "numberOfShares": 9000000,
      "ownershipPct": 21.11801988435209,
      "effectiveDate": "2025-04-01"
    },
    {
      "code": "UNI",
      "shareholderType": "PERSON",
      "shareholderName": "Nguyễn Đắc Long",
      "roleType": "Cổ đông lớn",
      "enRoleType": "Major Shareholder",
      "numberOfShares": 8000000,
      "ownershipPct": 18.771573230535193,
      "effectiveDate": "2025-04-01"
    },
    {
      "code": "UNI",
      "shareholderType": "PERSON",
      "shareholderName": "Vũ Thị Như Mai",
      "roleType": "Thành viên HĐQT",
      "enRoleType": "Board member",
      "numberOfShares": 3446236,
      "ownershipPct": 8.086408930463335,
      "effectiveDate": "2022-02-08"
    },
    {
      "code": "UNI",
      "shareholderType": "PERSON",
      "shareholderName": "Vũ Duy Bé",
      "roleType": "Bố của Thành viên BKS",
      "enRoleType": "Father of Control member",
      "numberOfShares": 1519388,
      "ownershipPct": 3.5651628884495508,
      "groupPct": 5.015787831665541,
      "effectiveDate": "2022-11-16"
    },
    {
      "code": "UNI",
      "shareholderType": "PERSON",
      "shareholderName": "Vũ Thanh Thủy",
      "roleType": "Thành viên BKS",
      "enRoleType": "Control member",
      "numberOfShares": 1442431,
      "ownershipPct": 3.3845873933117634,
      "effectiveDate": "2024-12-31"
    },
    {
      "code": "UNI",
      "shareholderType": "PERSON",
      "shareholderName": "Vũ Thanh Thảo",
      "roleType": "Phụ trách QT công ty",
      "enRoleType": "In charge of Corp Governance",
      "numberOfShares": 1395992,
      "ownershipPct": 3.2756207571551608,
      "effectiveDate": "2024-12-31"
    },
    {
      "code": "UNI",
      "shareholderType": "PERSON",
      "shareholderName": "Vũ Thị Kim Liên",
      "roleType": "Cổ đông lớn",
      "enRoleType": "Major Shareholder",
      "numberOfShares": 1082312,
      "ownershipPct": 2.539587370785876,
      "effectiveDate": "2023-06-30"
    },
    {
      "code": "UNI",
      "shareholderType": "PERSON",
      "shareholderName": "Phan Thanh Bình",
      "roleType": "Cổ đông lớn",
      "enRoleType": "Major Shareholder",
      "numberOfShares": 925612,
      "ownershipPct": 2.1718991801327676,
      "effectiveDate": "2021-04-02"
    },
    {
      "code": "UNI",
      "shareholderType": "PERSON",
      "shareholderName": "Hồ Thị Thuỷ",
      "roleType": "Cổ đông lớn",
      "enRoleType": "Major Shareholder",
      "numberOfShares": 787740,
      "ownershipPct": 1.848389887077724,
      "effectiveDate": "2017-12-13"
    }
  ],
  "currentPage": 1,
  "size": 10,
  "totalElements": 14,
  "totalPages": 2
}