{
  "data": [
    {
      "code": "UXC",
      "shareholderType": "PERSON",
      "shareholderName": "Nguyễn Hoàng Nhã",
      "roleType": "Thành viên HĐQT",
      "enRoleType": "Board member",
      "numberOfShares": 7973086,
      "ownershipPct": 22.522841807909604,
      "groupPct": 28.65962429378531,
      "effectiveDate": "2024-10-28"
    },
    {
      "code": "UXC",
      "shareholderType": "PERSON",
      "shareholderName": "Nguyễn Hoàng Nhã",
      "roleType": "Thành viên HĐQT",
      "enRoleType": "Board member",
      "numberOfShares": 7973086,
      "ownershipPct": 22.522841807909604,
      "groupPct": 43.97875706214689,
      "effectiveDate": "2024-10-28"
    },
    {
      "code": "UXC",
      "shareholderType": "PERSON",
      "shareholderName": "Nguyễn Triệu Dõng",
      "roleType": "Chủ tịch HĐQT",
      "enRoleType": "Chairman",
      "numberOfShares": 7116000,
      "ownershipPct": 20.10169491525424,
      "effectiveDate": "2024-10-28"
    },
    {
      "code": "UXC",
      "shareholderType": "PERSON",
      "shareholderName": "Nguyễn Hoàng Phương",
      "roleType": "Thành viên HĐQT",
      "enRoleType": "Board member",
      "numberOfShares": 5329411,
      "ownershipPct": 15.054833333333333,
      "groupPct": 43.97875706214689,
      "effectiveDate": "2024-10-28"
    },
    {
      "code": "UXC",
      "shareholderType": "PERSON",
      "shareholderName": "Nguyễn Hoàng Phương",
      "roleType": "Thành viên HĐQT",
      "enRoleType": "Board member",
      "numberOfShares": 5329411,
      "ownershipPct": 15.054833333333333,
      "groupPct": 16.067771186440677,
      "effectiveDate": "2024-10-28"
    },
    {
      "code": "UXC",
      "shareholderType": "PERSON",
      "shareholderName": "Trương Văn Phước",
      "roleType": "Phó TGĐ",
      "enRoleType": "Deputy CEO",
      "numberOfShares": 1789411,
      "ownershipPct": 5.054833333333334,
      "groupPct": 6.3215225988700565,
      "effectiveDate": "2024-10-28"
    },
    {
      "code": "UXC",
      "shareholderType": "PERSON",
      "shareholderName": "Trương Văn Phước",
      "roleType": "Phó TGĐ",
      "enRoleType": "Deputy CEO",
      "numberOfShares": 1789411,
      "ownershipPct": 5.054833333333334,
      "groupPct": 28.65962429378531,
      "effectiveDate": "2024-10-28"
    },
    {
      "code": "UXC",
      "shareholderType": "PERSON",
      "shareholderName": "Trương Văn Phước",
      "roleType": "Phó TGĐ",
      "enRoleType": "Deputy CEO",
      "numberOfShares": 1789411,
      "ownershipPct": 5.054833333333334,
      "groupPct": 43.97875706214689,
      "effectiveDate": "2024-10-28"
    },
    {
      "code": "UXC",
      "shareholderType": "PERSON",
      "shareholderName": "Nguyễn Thị Thanh Thủy",
      "roleType": "Chị của Thành viên HĐQT",
      "enRoleType": "Elder Sister of Board member",
      "numberOfShares": 358580,
      "ownershipPct": 1.0129378531073447,
      "groupPct": 28.65962429378531,
      "effectiveDate": "2024-10-28"
    },
    {
      "code": "UXC",
      "shareholderType": "PERSON",
      "shareholderName": "Nguyễn Thị Thanh Thủy",
      "roleType": "Em gái của Chủ tịch HĐQT",
      "enRoleType": "Young Sister of Chairman",
      "numberOfShares": 358580,
      "ownershipPct": 1.0129378531073447,
      "groupPct": 43.97875706214689,
      "effectiveDate": "2024-10-28"
    }
  ],
  "currentPage": 1,
  "size": 10,
  "totalElements": 13,
  "totalPages": 2
}