{
  "data": [
    {
      "code": "VC6",
      "shareholderType": "PERSON",
      "shareholderName": "Hoàng Hoa Cương",
      "roleType": "Thành viên HĐQT",
      "enRoleType": "Board member",
      "numberOfShares": 1589706,
      "ownershipPct": 14.663998124874952,
      "effectiveDate": "2022-07-11"
    },
    {
      "code": "VC6",
      "shareholderType": "PERSON",
      "shareholderName": "Trần Văn Khánh",
      "roleType": "Chủ tịch HĐQT",
      "enRoleType": "Chairman",
      "numberOfShares": 1482596,
      "ownershipPct": 13.675978428682477,
      "effectiveDate": "2022-07-11"
    },
    {
      "code": "VC6",
      "shareholderType": "COMPANY",
      "shareholderName": "Media Corporation",
      "roleType": "Cổ đông lớn",
      "enRoleType": "Major Shareholder",
      "numberOfShares": 880000,
      "ownershipPct": 8.117424448224991,
      "effectiveDate": "2022-07-11"
    },
    {
      "code": "VC6",
      "shareholderType": "PERSON",
      "shareholderName": "Nguyễn Phấn Tuấn",
      "roleType": "Thành viên HĐQT",
      "enRoleType": "Board member",
      "numberOfShares": 679294,
      "ownershipPct": 6.266042867196076,
      "effectiveDate": "2024-07-18"
    },
    {
      "code": "VC6",
      "shareholderType": "PERSON",
      "shareholderName": "Nguyễn Minh Tuấn",
      "roleType": "Thành viên HĐQT",
      "enRoleType": "Board member",
      "numberOfShares": 627287,
      "ownershipPct": 5.7863123066519435,
      "effectiveDate": "2024-07-18"
    },
    {
      "code": "VC6",
      "shareholderType": "PERSON",
      "shareholderName": "Phùng Thị Kim Oanh",
      "roleType": "Vợ của Thành viên HĐQT",
      "enRoleType": "Wife of Board member",
      "numberOfShares": 561275,
      "ownershipPct": 5.177394780883502,
      "effectiveDate": "2024-07-18"
    },
    {
      "code": "VC6",
      "shareholderType": "PERSON",
      "shareholderName": "Mai Phương Anh",
      "roleType": "Kế toán trưởng",
      "enRoleType": "Chief Accountant",
      "numberOfShares": 453101,
      "ownershipPct": 4.179560380585445,
      "effectiveDate": "2022-07-11"
    },
    {
      "code": "VC6",
      "shareholderType": "PERSON",
      "shareholderName": "Trịnh Thị Ngọc Khanh",
      "roleType": "Vợ của Chủ tịch HĐQT",
      "enRoleType": "Wife of Chairman",
      "numberOfShares": 436810,
      "ownershipPct": 4.02928656048768,
      "effectiveDate": "2022-07-11"
    },
    {
      "code": "VC6",
      "shareholderType": "PERSON",
      "shareholderName": "Nguyễn Minh Tuấn",
      "roleType": "Cổ đông lớn",
      "enRoleType": "Major Shareholder",
      "numberOfShares": 270561,
      "ownershipPct": 2.4957482683365932,
      "effectiveDate": "2024-07-18"
    },
    {
      "code": "VC6",
      "shareholderType": "PERSON",
      "shareholderName": "Nguyễn Xuân Quỳnh",
      "roleType": "Phó TGĐ",
      "enRoleType": "Deputy CEO",
      "numberOfShares": 234080,
      "ownershipPct": 2.1592349032278477,
      "effectiveDate": "2024-07-18"
    }
  ],
  "currentPage": 1,
  "size": 10,
  "totalElements": 12,
  "totalPages": 2
}