{
  "data": [
    {
      "code": "VDP",
      "shareholderType": "PERSON",
      "shareholderName": "Đinh Thị Hoàng Oanh",
      "roleType": "Vợ của Thành viên HĐQT",
      "enRoleType": "Wife of Board member",
      "numberOfShares": 7480800,
      "ownershipPct": 33.87523076165111,
      "effectiveDate": "2024-06-27"
    },
    {
      "code": "VDP",
      "shareholderType": "COMPANY",
      "shareholderName": "Dược Việt Nam",
      "roleType": "Cổ đông lớn",
      "enRoleType": "Major Shareholder",
      "numberOfShares": 3156127,
      "ownershipPct": 14.291857881253025,
      "effectiveDate": "2024-06-27"
    },
    {
      "code": "VDP",
      "shareholderType": "COMPANY",
      "shareholderName": "CÔNG TY TNHH NUTRI - PHARMA USA",
      "roleType": "Cổ đông lớn",
      "enRoleType": "Major Shareholder",
      "numberOfShares": 1800000,
      "ownershipPct": 8.150921742456957,
      "effectiveDate": "2024-06-27"
    },
    {
      "code": "VDP",
      "shareholderType": "PERSON",
      "shareholderName": "Kiều Hữu",
      "roleType": "Chủ tịch HĐQT",
      "enRoleType": "Chairman",
      "numberOfShares": 1652917,
      "ownershipPct": 7.484887285431514,
      "effectiveDate": "2024-10-25"
    },
    {
      "code": "VDP",
      "shareholderType": "PERSON",
      "shareholderName": "Kiều Thúy Mai",
      "roleType": "Con của Chủ tịch HĐQT",
      "enRoleType": "Child of Chairman",
      "numberOfShares": 1377944,
      "ownershipPct": 6.239729838604505,
      "groupPct": 6.283473118622356,
      "effectiveDate": "2024-06-27"
    },
    {
      "code": "VDP",
      "shareholderType": "PERSON",
      "shareholderName": "Nguyễn Thị Ánh Thủy",
      "roleType": "Vợ của Thành viên HĐQT",
      "enRoleType": "Wife of Board member",
      "numberOfShares": 1020000,
      "ownershipPct": 4.618855654058942,
      "effectiveDate": "2024-06-27"
    },
    {
      "code": "VDP",
      "shareholderType": "PERSON",
      "shareholderName": "Trần Văn Đạt",
      "roleType": "Thành viên HĐQT",
      "enRoleType": "Board member",
      "numberOfShares": 899320,
      "ownershipPct": 4.072381634125772,
      "effectiveDate": "2024-06-27"
    },
    {
      "code": "VDP",
      "shareholderType": "COMPANY",
      "shareholderName": "TNHH MỘT THÀNH VIÊN NUTRI KOREA",
      "roleType": "Cổ đông lớn",
      "enRoleType": "Major Shareholder",
      "numberOfShares": 807600,
      "ownershipPct": 3.657046888449021,
      "effectiveDate": "2024-06-27"
    },
    {
      "code": "VDP",
      "shareholderType": "COMPANY",
      "shareholderName": "Công ty cổ phần Dược Mỹ Phẩm Phúc Lai Thành",
      "roleType": "Cổ đông lớn",
      "enRoleType": "Major Shareholder",
      "numberOfShares": 807600,
      "ownershipPct": 3.657046888449021,
      "effectiveDate": "2024-06-27"
    },
    {
      "code": "VDP",
      "shareholderType": "PERSON",
      "shareholderName": "Dương Minh Liễu",
      "roleType": "Cổ đông lớn",
      "enRoleType": "Major Shareholder",
      "numberOfShares": 272016,
      "ownershipPct": 1.2317672937200952,
      "effectiveDate": "2024-06-27"
    }
  ],
  "currentPage": 1,
  "size": 10,
  "totalElements": 11,
  "totalPages": 2
}