{"data":[{"code":"VFG","shareholderType":"COMPANY","shareholderName":"CÔNG TY CỔ PHẦN PAN FARM","roleType":"Cổ đông lớn","enRoleType":"Major Shareholder","numberOfShares":21379191,"ownershipPct":51.25353927711171,"effectiveDate":"2023-06-30"},{"code":"VFG","shareholderType":"COMPANY","shareholderName":"PYN ELITE FUND","roleType":"Cổ đông lớn","enRoleType":"Major Shareholder","numberOfShares":14000000,"ownershipPct":33.562988883890135,"effectiveDate":"2024-05-22"},{"code":"VFG","shareholderType":"COMPANY","shareholderName":"Quỹ tầm nhìn SSI","roleType":"Cổ đông lớn","enRoleType":"Major Shareholder","numberOfShares":5239249,"ownershipPct":12.560346853352321,"effectiveDate":"2022-08-15"},{"code":"VFG","shareholderType":"COMPANY","shareholderName":"Cao su Việt Nam","roleType":"Cổ đông lớn","enRoleType":"Major Shareholder","numberOfShares":5184129,"ownershipPct":12.428204571403748,"effectiveDate":"2022-08-15"},{"code":"VFG","shareholderType":"COMPANY","shareholderName":"Công ty cổ phần đầu tư Đường Mặt Trời","roleType":"Cổ đông lớn","enRoleType":"Major Shareholder","numberOfShares":3022810,"ownershipPct":7.246752744865138,"effectiveDate":"2022-08-15"},{"code":"VFG","shareholderType":"COMPANY","shareholderName":"FTIF – Templeton Frontier Markets Fund","roleType":"Cổ đông lớn","enRoleType":"Major Shareholder","numberOfShares":1913174,"ownershipPct":4.586559835353402,"effectiveDate":"2022-08-15"},{"code":"VFG","shareholderType":"PERSON","shareholderName":"Thân Trọng Hoàn Mỹ","roleType":"Con dâu/rể của Chủ tịch HĐQT","enRoleType":"Child in law of Chairman","numberOfShares":1545424,"ownershipPct":3.7049320380640736,"groupPct":4.635679269584975,"effectiveDate":"2023-12-31"},{"code":"VFG","shareholderType":"COMPANY","shareholderName":"ANDBANC INVESTMENTS SIF-VIETNAM VALUE AND INCOME PORTFOLIO","roleType":"Cổ đông lớn","enRoleType":"Major Shareholder","numberOfShares":1528277,"ownershipPct":3.6638245687503543,"effectiveDate":"2022-08-15"},{"code":"VFG","shareholderType":"COMPANY","shareholderName":"Công ty cổ phần chứng khoán Ngân hàng Phát triển nhà Đồng bằng Sông Cửu Long","roleType":"Cổ đông lớn","enRoleType":"Major Shareholder","numberOfShares":1496246,"ownershipPct":3.587034847540363,"effectiveDate":"2022-08-15"},{"code":"VFG","shareholderType":"COMPANY","shareholderName":"Thủy sản Bến Tre","roleType":"Cổ đông lớn","enRoleType":"Major Shareholder","numberOfShares":867083,"ownershipPct":2.0787069350292935,"effectiveDate":"2022-08-15"}],"currentPage":1,"size":10,"totalElements":15,"totalPages":2}