{
  "data": [
    {
      "code": "VID",
      "shareholderType": "PERSON",
      "shareholderName": "Bùi Quang Mẫn",
      "roleType": "Chồng của Phó TGĐ",
      "enRoleType": "Husband of Deputy CEO",
      "numberOfShares": 6736924,
      "ownershipPct": 16.497484123655486,
      "groupPct": 17.72581978936317,
      "effectiveDate": "2022-12-31"
    },
    {
      "code": "VID",
      "shareholderType": "PERSON",
      "shareholderName": "Bùi Quang Mẫn",
      "roleType": "Bố của Phó chủ tịch HĐQT",
      "enRoleType": "Father of Vice-chairman",
      "numberOfShares": 6736924,
      "ownershipPct": 16.497484123655486,
      "effectiveDate": "2022-12-31"
    },
    {
      "code": "VID",
      "shareholderType": "COMPANY",
      "shareholderName": "Công ty cổ phần Thương mại Toàn Lực",
      "roleType": "Cổ đông lớn",
      "enRoleType": "Major Shareholder",
      "numberOfShares": 3230053,
      "ownershipPct": 7.909803952971085,
      "effectiveDate": "2022-07-05"
    },
    {
      "code": "VID",
      "shareholderType": "PERSON",
      "shareholderName": "Nguyễn Thị Thu",
      "roleType": "Phó TGĐ",
      "enRoleType": "Deputy CEO",
      "numberOfShares": 2914773,
      "ownershipPct": 7.137741392297089,
      "effectiveDate": "2022-07-05"
    },
    {
      "code": "VID",
      "shareholderType": "PERSON",
      "shareholderName": "Bùi Thị Ngọc Minh",
      "roleType": "Cổ đông lớn",
      "enRoleType": "Major Shareholder",
      "numberOfShares": 1980871,
      "ownershipPct": 4.850787670086462,
      "effectiveDate": "2022-07-05"
    },
    {
      "code": "VID",
      "shareholderType": "PERSON",
      "shareholderName": "Bùi Thị Ngọc Yến",
      "roleType": "Cổ đông lớn",
      "enRoleType": "Major Shareholder",
      "numberOfShares": 1925371,
      "ownershipPct": 4.714878408105345,
      "effectiveDate": "2022-07-05"
    },
    {
      "code": "VID",
      "shareholderType": "PERSON",
      "shareholderName": "Nguyễn Thị Thủy Tiên",
      "roleType": "Kế toán trưởng",
      "enRoleType": "Chief Accountant",
      "numberOfShares": 1745667,
      "ownershipPct": 4.2748164618881415,
      "effectiveDate": "2022-07-05"
    },
    {
      "code": "VID",
      "shareholderType": "PERSON",
      "shareholderName": "Bùi Quang Khoa",
      "roleType": "Người ĐD theo pháp luật",
      "enRoleType": "Legal representative",
      "numberOfShares": 1120380,
      "ownershipPct": 2.7436039448361202,
      "effectiveDate": "2023-08-28"
    },
    {
      "code": "VID",
      "shareholderType": "PERSON",
      "shareholderName": "Trần Hoàng Nghĩa",
      "roleType": "Chủ tịch HĐQT",
      "enRoleType": "Chairman",
      "numberOfShares": 993138,
      "ownershipPct": 2.4320117590162758,
      "effectiveDate": "2022-07-05"
    },
    {
      "code": "VID",
      "shareholderType": "COMPANY",
      "shareholderName": "Quỹ tầm nhìn SSI",
      "roleType": "Cổ đông lớn",
      "enRoleType": "Major Shareholder",
      "numberOfShares": 816840,
      "ownershipPct": 2.00029047849831,
      "effectiveDate": "2009-11-19"
    }
  ],
  "currentPage": 1,
  "size": 10,
  "totalElements": 12,
  "totalPages": 2
}