{
  "data": [
    {
      "code": "VIG",
      "shareholderType": "PERSON",
      "shareholderName": "YEH LI CHENG",
      "roleType": "Cổ đông lớn",
      "enRoleType": "Major Shareholder",
      "numberOfShares": 4557000,
      "ownershipPct": 10.09675782626132,
      "effectiveDate": "2012-04-09"
    },
    {
      "code": "VIG",
      "shareholderType": "COMPANY",
      "shareholderName": "Asean Small Cap Fund",
      "roleType": "Cổ đông lớn",
      "enRoleType": "Major Shareholder",
      "numberOfShares": 4344400,
      "ownershipPct": 9.625708733906007,
      "effectiveDate": "2013-08-28"
    },
    {
      "code": "VIG",
      "shareholderType": "PERSON",
      "shareholderName": "Lê Hải Đoàn",
      "roleType": "Cổ đông lớn",
      "enRoleType": "Major Shareholder",
      "numberOfShares": 4140000,
      "ownershipPct": 9.172828044924701,
      "effectiveDate": "2019-12-13"
    },
    {
      "code": "VIG",
      "shareholderType": "PERSON",
      "shareholderName": "La Mỹ Phượng",
      "roleType": "Cổ đông lớn",
      "enRoleType": "Major Shareholder",
      "numberOfShares": 2338700,
      "ownershipPct": 5.1817615818032365,
      "effectiveDate": "2021-12-20"
    },
    {
      "code": "VIG",
      "shareholderType": "PERSON",
      "shareholderName": "Nguyễn Thị Thảo",
      "roleType": "Cổ đông lớn",
      "enRoleType": "Major Shareholder",
      "numberOfShares": 1693300,
      "ownershipPct": 3.7517752967321245,
      "effectiveDate": "2020-11-03"
    },
    {
      "code": "VIG",
      "shareholderType": "COMPANY",
      "shareholderName": "Tổng Công ty Xây dựng Công trình Giao thông 4",
      "roleType": "Cổ đông lớn",
      "enRoleType": "Major Shareholder",
      "numberOfShares": 1600000,
      "ownershipPct": 3.5450543168791113,
      "effectiveDate": "2020-06-30"
    },
    {
      "code": "VIG",
      "shareholderType": "COMPANY",
      "shareholderName": "Tổng công ty Lương thực miền Bắc",
      "roleType": "Cổ đông lớn",
      "enRoleType": "Major Shareholder",
      "numberOfShares": 1600000,
      "ownershipPct": 3.5450543168791113,
      "effectiveDate": "2020-06-30"
    },
    {
      "code": "VIG",
      "shareholderType": "COMPANY",
      "shareholderName": "Viet Nam Chemical Group",
      "roleType": "Cổ đông lớn",
      "enRoleType": "Major Shareholder",
      "numberOfShares": 1592100,
      "ownershipPct": 3.527550611189521,
      "effectiveDate": "2015-06-08"
    },
    {
      "code": "VIG",
      "shareholderType": "PERSON",
      "shareholderName": "Lê Thị Thanh Bình",
      "roleType": "Cổ đông lớn",
      "enRoleType": "Major Shareholder",
      "numberOfShares": 1532400,
      "ownershipPct": 3.395275771990969,
      "effectiveDate": "2016-05-31"
    },
    {
      "code": "VIG",
      "shareholderType": "COMPANY",
      "shareholderName": "LILAMA",
      "roleType": "Cổ đông lớn",
      "enRoleType": "Major Shareholder",
      "numberOfShares": 1500000,
      "ownershipPct": 3.323488422074167,
      "effectiveDate": "2020-06-30"
    }
  ],
  "currentPage": 1,
  "size": 10,
  "totalElements": 18,
  "totalPages": 2
}