{
  "data": [
    {
      "code": "VIP",
      "shareholderType": "COMPANY",
      "shareholderName": "Xăng dầu Việt Nam",
      "roleType": "Cổ đông lớn",
      "enRoleType": "Major Shareholder",
      "numberOfShares": 34923232,
      "ownershipPct": 51.00445749679415,
      "effectiveDate": "2020-06-30"
    },
    {
      "code": "VIP",
      "shareholderType": "COMPANY",
      "shareholderName": "Công ty Cổ phần Đầu tư Thành Thành Công",
      "roleType": "Cổ đông lớn",
      "enRoleType": "Major Shareholder",
      "numberOfShares": 4092750,
      "ownershipPct": 5.977353224925008,
      "effectiveDate": "2020-06-30"
    },
    {
      "code": "VIP",
      "shareholderType": "COMPANY",
      "shareholderName": "Công ty cổ phần bảo hiểm Petrolimex",
      "roleType": "Cổ đông lớn",
      "enRoleType": "Major Shareholder",
      "numberOfShares": 3962864,
      "ownershipPct": 5.787658154135782,
      "effectiveDate": "2020-06-30"
    },
    {
      "code": "VIP",
      "shareholderType": "COMPANY",
      "shareholderName": "Macstar Group",
      "roleType": "Cổ đông lớn",
      "enRoleType": "Major Shareholder",
      "numberOfShares": 3420000,
      "ownershipPct": 4.994819627205065,
      "effectiveDate": "2025-03-03"
    },
    {
      "code": "VIP",
      "shareholderType": "COMPANY",
      "shareholderName": "Halley Sicav - Halley Asian Prosperity",
      "roleType": "Cổ đông lớn",
      "enRoleType": "Major Shareholder",
      "numberOfShares": 3396212,
      "ownershipPct": 4.960077881798061,
      "effectiveDate": "2020-06-30"
    },
    {
      "code": "VIP",
      "shareholderType": "COMPANY",
      "shareholderName": "Bảo hiểm Petro",
      "roleType": "Cổ đông lớn",
      "enRoleType": "Major Shareholder",
      "numberOfShares": 3286249,
      "ownershipPct": 4.799479826047666,
      "effectiveDate": "2024-06-13"
    },
    {
      "code": "VIP",
      "shareholderType": "COMPANY",
      "shareholderName": "Công ty TNHH Quỹ TM Holding",
      "roleType": "Cổ đông lớn",
      "enRoleType": "Major Shareholder",
      "numberOfShares": 2850000,
      "ownershipPct": 4.162349689337554,
      "effectiveDate": "2025-02-21"
    },
    {
      "code": "VIP",
      "shareholderType": "COMPANY",
      "shareholderName": "Quỹ Đầu Tư Việt Nam",
      "roleType": "Cổ đông lớn",
      "enRoleType": "Major Shareholder",
      "numberOfShares": 2671970,
      "ownershipPct": 3.9023415787436018,
      "effectiveDate": "2010-03-15"
    },
    {
      "code": "VIP",
      "shareholderType": "COMPANY",
      "shareholderName": "Công ty cổ phần quản lý quỹ đầu tư Sao Vàng",
      "roleType": "Cổ đông lớn",
      "enRoleType": "Major Shareholder",
      "numberOfShares": 2582055,
      "ownershipPct": 3.7710230972289396,
      "effectiveDate": "2008-09-10"
    },
    {
      "code": "VIP",
      "shareholderType": "COMPANY",
      "shareholderName": "KITMC WORLDWIDE VIETNAM RSP BALANCED FUND",
      "roleType": "Cổ đông lớn",
      "enRoleType": "Major Shareholder",
      "numberOfShares": 1871000,
      "ownershipPct": 2.732546059210724,
      "effectiveDate": "2025-03-19"
    }
  ],
  "currentPage": 1,
  "size": 10,
  "totalElements": 12,
  "totalPages": 2
}