{
  "data": [
    {
      "code": "VKC",
      "shareholderType": "PERSON",
      "shareholderName": "Thân Xuân Nghĩa",
      "roleType": "Chủ tịch HĐQT",
      "enRoleType": "Chairman",
      "numberOfShares": 3000000,
      "ownershipPct": 15.560973079516572,
      "effectiveDate": "2025-02-07"
    },
    {
      "code": "VKC",
      "shareholderType": "PERSON",
      "shareholderName": "Quách Văn Hên",
      "roleType": "Cổ đông lớn",
      "enRoleType": "Major Shareholder",
      "numberOfShares": 1313888,
      "ownershipPct": 6.81512526583329,
      "effectiveDate": "2020-06-30"
    },
    {
      "code": "VKC",
      "shareholderType": "PERSON",
      "shareholderName": "Phạm Thị Lan",
      "roleType": "Thành viên HĐQT",
      "enRoleType": "Board member",
      "numberOfShares": 1197200,
      "ownershipPct": 6.209865656932413,
      "effectiveDate": "2025-04-04"
    },
    {
      "code": "VKC",
      "shareholderType": "PERSON",
      "shareholderName": "Võ Thiên Chương",
      "roleType": "Cổ đông lớn",
      "enRoleType": "Major Shareholder",
      "numberOfShares": 1130000,
      "ownershipPct": 5.8612998599512425,
      "effectiveDate": "2021-12-31"
    },
    {
      "code": "VKC",
      "shareholderType": "PERSON",
      "shareholderName": "Võ Xuân Phong",
      "roleType": "Cổ đông lớn",
      "enRoleType": "Major Shareholder",
      "numberOfShares": 904800,
      "ownershipPct": 4.693189480782198,
      "effectiveDate": "2022-06-08"
    },
    {
      "code": "VKC",
      "shareholderType": "PERSON",
      "shareholderName": "Trần Thục Mẫn",
      "roleType": "Cổ đông lớn",
      "enRoleType": "Major Shareholder",
      "numberOfShares": 762500,
      "ownershipPct": 3.9550806577104622,
      "effectiveDate": "2010-12-21"
    },
    {
      "code": "VKC",
      "shareholderType": "COMPANY",
      "shareholderName": "Nhựa Vĩnh Khánh",
      "roleType": "Cổ phiếu quỹ",
      "enRoleType": "Treasury Stock",
      "numberOfShares": 721000,
      "ownershipPct": 3.739820530110483,
      "effectiveDate": "2019-02-21"
    },
    {
      "code": "VKC",
      "shareholderType": "COMPANY",
      "shareholderName": "Finansia Syrus Securities Public Company Limited",
      "roleType": "Cổ đông lớn",
      "enRoleType": "Major Shareholder",
      "numberOfShares": 645400,
      "ownershipPct": 3.3476840085066653,
      "effectiveDate": "2020-06-30"
    },
    {
      "code": "VKC",
      "shareholderType": "COMPANY",
      "shareholderName": "Công ty Chứng khoán Maybank Kim Eng",
      "roleType": "Cổ đông lớn",
      "enRoleType": "Major Shareholder",
      "numberOfShares": 406306,
      "ownershipPct": 2.1075055760153534,
      "effectiveDate": "2020-06-30"
    },
    {
      "code": "VKC",
      "shareholderType": "PERSON",
      "shareholderName": "Tạ Ngọc Bích",
      "roleType": "Thành viên HĐQT",
      "enRoleType": "Board member",
      "numberOfShares": 380100,
      "ownershipPct": 1.9715752891747498,
      "effectiveDate": "2024-07-26"
    }
  ],
  "currentPage": 1,
  "size": 10,
  "totalElements": 15,
  "totalPages": 2
}