{
  "data": [
    {
      "code": "VLA",
      "shareholderType": "PERSON",
      "shareholderName": "Đặng Trọng Khang",
      "roleType": "Cổ đông lớn",
      "enRoleType": "Major Shareholder",
      "numberOfShares": 499130,
      "ownershipPct": 12.490753243997242,
      "effectiveDate": "2022-05-06"
    },
    {
      "code": "VLA",
      "shareholderType": "PERSON",
      "shareholderName": "Nguyễn Thành Tiến",
      "roleType": "Chủ tịch HĐQT",
      "enRoleType": "Chairman",
      "numberOfShares": 458170,
      "ownershipPct": 11.465727192920113,
      "effectiveDate": "2025-07-01"
    },
    {
      "code": "VLA",
      "shareholderType": "PERSON",
      "shareholderName": "Nguyễn Hữu Thuận",
      "roleType": "Phó chủ tịch HĐQT",
      "enRoleType": "Vice-chairman",
      "numberOfShares": 399600,
      "ownershipPct": 10.00001001002003,
      "effectiveDate": "2025-07-01"
    },
    {
      "code": "VLA",
      "shareholderType": "PERSON",
      "shareholderName": "Nguyễn Thu Hà",
      "roleType": "Phó TGĐ",
      "enRoleType": "Deputy CEO",
      "numberOfShares": 375347,
      "ownershipPct": 9.393077470548018,
      "groupPct": 20.84679263943207,
      "effectiveDate": "2023-12-04"
    },
    {
      "code": "VLA",
      "shareholderType": "COMPANY",
      "shareholderName": "Nhà Xuất bản Giáo dục Việt Nam",
      "roleType": "Cổ đông lớn",
      "enRoleType": "Major Shareholder",
      "numberOfShares": 199800,
      "ownershipPct": 5.000005005010015,
      "effectiveDate": "2022-05-06"
    },
    {
      "code": "VLA",
      "shareholderType": "PERSON",
      "shareholderName": "Trần Thị Thanh Hoa",
      "roleType": "Mẹ của Chủ tịch HĐQT",
      "enRoleType": "Mother of Chairman",
      "numberOfShares": 176120,
      "ownershipPct": 4.40741181923105,
      "groupPct": 20.84679263943207,
      "effectiveDate": "2023-12-31"
    },
    {
      "code": "VLA",
      "shareholderType": "PERSON",
      "shareholderName": "Nguyễn Văn Thọ",
      "roleType": "Thư ký công ty",
      "enRoleType": "Secretary of the company",
      "numberOfShares": 160950,
      "ownershipPct": 4.027781809591401,
      "groupPct": 20.84679263943207,
      "effectiveDate": "2023-12-31"
    },
    {
      "code": "VLA",
      "shareholderType": "PERSON",
      "shareholderName": "Huỳnh Thị Thanh Hiền",
      "roleType": "Cổ đông lớn",
      "enRoleType": "Major Shareholder",
      "numberOfShares": 140785,
      "ownershipPct": 3.5231516748265013,
      "effectiveDate": "2022-05-06"
    },
    {
      "code": "VLA",
      "shareholderType": "COMPANY",
      "shareholderName": "Công ty Cổ phần Chứng khoán VINA ",
      "roleType": "Cổ đông lớn",
      "enRoleType": "Major Shareholder",
      "numberOfShares": 121900,
      "ownershipPct": 3.050553604157762,
      "effectiveDate": "2012-08-13"
    },
    {
      "code": "VLA",
      "shareholderType": "PERSON",
      "shareholderName": "Vũ Thị Hiền Nhung",
      "roleType": "Vợ của Chủ tịch HĐQT",
      "enRoleType": "Wife of Chairman",
      "numberOfShares": 120620,
      "ownershipPct": 3.0185215400616014,
      "groupPct": 20.84679263943207,
      "effectiveDate": "2023-12-31"
    }
  ],
  "currentPage": 1,
  "size": 10,
  "totalElements": 15,
  "totalPages": 2
}