{"data":[{"code":"VMD","shareholderType":"COMPANY","shareholderName":"Công ty Cổ phần Dược phẩm Vimedimex 2","roleType":"Cổ đông lớn","enRoleType":"Major Shareholder","numberOfShares":7000000,"ownershipPct":45.3360006445484,"effectiveDate":"2017-04-27"},{"code":"VMD","shareholderType":"COMPANY","shareholderName":"Dược Việt Nam","roleType":"Cổ đông lớn","enRoleType":"Major Shareholder","numberOfShares":1558333,"ownershipPct":10.09265512748872,"effectiveDate":"2020-06-30"},{"code":"VMD","shareholderType":"PERSON","shareholderName":"Lê Xuân Tùng","roleType":"Chủ tịch HĐQT","enRoleType":"Chairman","numberOfShares":1141150,"ownershipPct":7.390739590789487,"effectiveDate":"2023-12-27"},{"code":"VMD","shareholderType":"PERSON","shareholderName":"Trần Kiên Cường","roleType":"Cổ đông lớn","enRoleType":"Major Shareholder","numberOfShares":1098680,"ownershipPct":7.115679598307491,"effectiveDate":"2014-12-18"},{"code":"VMD","shareholderType":"PERSON","shareholderName":"Trần Thị Đoan Trang","roleType":"Cổ đông lớn","enRoleType":"Major Shareholder","numberOfShares":807290,"ownershipPct":5.228471422905353,"effectiveDate":"2017-08-24"},{"code":"VMD","shareholderType":"PERSON","shareholderName":"Trịnh Ngọc Duyên","roleType":"Phó TGĐ","enRoleType":"Deputy CEO","numberOfShares":679986,"ownershipPct":4.403977962040555,"effectiveDate":"2020-06-30"},{"code":"VMD","shareholderType":"PERSON","shareholderName":"Nguyễn Ngọc Dung","roleType":"Cổ đông lớn","enRoleType":"Major Shareholder","numberOfShares":378980,"ownershipPct":2.4544910748958504,"effectiveDate":"2017-08-24"},{"code":"VMD","shareholderType":"PERSON","shareholderName":"Lê Duy Phúc","roleType":"Cổ đông lớn","enRoleType":"Major Shareholder","numberOfShares":370000,"ownershipPct":2.3963314626404153,"effectiveDate":"2016-04-05"},{"code":"VMD","shareholderType":"PERSON","shareholderName":"Đào Thị Bình","roleType":"Nhóm cổ đông lớn","enRoleType":"Major Shareholder Group","numberOfShares":320064,"ownershipPct":2.072917387185248,"groupPct":2.0731764500460743,"effectiveDate":"2022-04-01"},{"code":"VMD","shareholderType":"PERSON","shareholderName":"Trần Văn Kỳ","roleType":"Cổ đông lớn","enRoleType":"Major Shareholder","numberOfShares":272730,"ownershipPct":1.7663553508268122,"effectiveDate":"2012-08-15"}],"currentPage":1,"size":10,"totalElements":12,"totalPages":2}