{
  "data": [
    {
      "code": "VNC",
      "shareholderType": "COMPANY",
      "shareholderName": "SCIC",
      "roleType": "Cổ đông lớn",
      "enRoleType": "Major Shareholder",
      "numberOfShares": 6300000,
      "ownershipPct": 30.00126862507329,
      "effectiveDate": "2025-07-09"
    },
    {
      "code": "VNC",
      "shareholderType": "COMPANY",
      "shareholderName": "Công ty TNHH Doha Đầu tư",
      "roleType": "Cổ đông lớn",
      "enRoleType": "Major Shareholder",
      "numberOfShares": 5056800,
      "ownershipPct": 24.081018283058828,
      "effectiveDate": "2025-07-09"
    },
    {
      "code": "VNC",
      "shareholderType": "COMPANY",
      "shareholderName": "Công ty TNHH Daho Đầu tư",
      "roleType": "Cổ đông lớn",
      "enRoleType": "Major Shareholder",
      "numberOfShares": 3921000,
      "ownershipPct": 18.672218139509898,
      "effectiveDate": "2025-07-09"
    },
    {
      "code": "VNC",
      "shareholderType": "COMPANY",
      "shareholderName": "Công ty Cổ phần Chứng khoán Đông Nam Á",
      "roleType": "Cổ đông lớn",
      "enRoleType": "Major Shareholder",
      "numberOfShares": 2109532,
      "ownershipPct": 10.045815270664779,
      "effectiveDate": "2025-07-09"
    },
    {
      "code": "VNC",
      "shareholderType": "PERSON",
      "shareholderName": "Bùi Duy Chinh",
      "roleType": "Chủ tịch HĐQT",
      "enRoleType": "Chairman",
      "numberOfShares": 1900722,
      "ownershipPct": 9.051439889458182,
      "effectiveDate": "2025-07-09"
    },
    {
      "code": "VNC",
      "shareholderType": "PERSON",
      "shareholderName": "Đỗ Vân Anh",
      "roleType": "Cổ đông lớn",
      "enRoleType": "Major Shareholder",
      "numberOfShares": 1851066,
      "ownershipPct": 8.814972747419034,
      "effectiveDate": "2025-07-09"
    },
    {
      "code": "VNC",
      "shareholderType": "COMPANY",
      "shareholderName": "Công ty quản lý Quỹ Đầu tư Chứng khoán Đông Á",
      "roleType": "Cổ đông lớn",
      "enRoleType": "Major Shareholder",
      "numberOfShares": 1473732,
      "ownershipPct": 7.018068192597858,
      "effectiveDate": "2025-07-09"
    },
    {
      "code": "VNC",
      "shareholderType": "PERSON",
      "shareholderName": "Nguyễn Thị Thủy Ngân",
      "roleType": "Trưởng BKS",
      "enRoleType": "Head of Control",
      "numberOfShares": 1466694,
      "ownershipPct": 6.9845524896481335,
      "effectiveDate": "2025-07-09"
    },
    {
      "code": "VNC",
      "shareholderType": "COMPANY",
      "shareholderName": "Barca Global Master Fund, L.P",
      "roleType": "Cổ đông lớn",
      "enRoleType": "Major Shareholder",
      "numberOfShares": 764000,
      "ownershipPct": 3.6382490840565067,
      "effectiveDate": "2025-07-09"
    },
    {
      "code": "VNC",
      "shareholderType": "PERSON",
      "shareholderName": "Phùng Tân Phú",
      "roleType": "Cổ đông lớn",
      "enRoleType": "Major Shareholder",
      "numberOfShares": 468098,
      "ownershipPct": 2.229132355691993,
      "effectiveDate": "2025-07-09"
    }
  ],
  "currentPage": 1,
  "size": 10,
  "totalElements": 11,
  "totalPages": 2
}