{
  "data": [
    {
      "code": "VNE",
      "shareholderType": "PERSON",
      "shareholderName": "La Mỹ Phượng",
      "roleType": "Cổ đông lớn",
      "enRoleType": "Major Shareholder",
      "numberOfShares": 9527289,
      "ownershipPct": 11.61082438215732,
      "effectiveDate": "2023-10-23"
    },
    {
      "code": "VNE",
      "shareholderType": "COMPANY",
      "shareholderName": "Xây dựng điện VN",
      "roleType": "Cổ phiếu quỹ",
      "enRoleType": "Treasury Stock",
      "numberOfShares": 8377720,
      "ownershipPct": 10.209854623165837,
      "effectiveDate": "2023-10-26"
    },
    {
      "code": "VNE",
      "shareholderType": "PERSON",
      "shareholderName": "Vũ Đình Cương",
      "roleType": "Cổ đông lớn",
      "enRoleType": "Major Shareholder",
      "numberOfShares": 4063260,
      "ownershipPct": 4.9518596821241125,
      "effectiveDate": "2018-08-23"
    },
    {
      "code": "VNE",
      "shareholderType": "COMPANY",
      "shareholderName": "CTCP Malblue",
      "roleType": "Cổ đông lớn",
      "enRoleType": "Major Shareholder",
      "numberOfShares": 4025300,
      "ownershipPct": 4.905598159717614,
      "effectiveDate": "2023-11-09"
    },
    {
      "code": "VNE",
      "shareholderType": "PERSON",
      "shareholderName": "Trần Huyền Linh",
      "roleType": "Cổ đông lớn",
      "enRoleType": "Major Shareholder",
      "numberOfShares": 3883300,
      "ownershipPct": 4.732543992654314,
      "effectiveDate": "2023-08-09"
    },
    {
      "code": "VNE",
      "shareholderType": "PERSON",
      "shareholderName": "Phạm Đỗ Minh Triết",
      "roleType": "Cổ đông lớn",
      "enRoleType": "Major Shareholder",
      "numberOfShares": 3743170,
      "ownershipPct": 4.561768778354453,
      "effectiveDate": "2020-03-25"
    },
    {
      "code": "VNE",
      "shareholderType": "COMPANY",
      "shareholderName": "Công Ty Cổ Phần Khải Toàn",
      "roleType": "Cổ đông lớn",
      "enRoleType": "Major Shareholder",
      "numberOfShares": 3665000,
      "ownershipPct": 4.466503678077424,
      "effectiveDate": "2017-06-19"
    },
    {
      "code": "VNE",
      "shareholderType": "COMPANY",
      "shareholderName": "VIB Bank",
      "roleType": "Cổ đông lớn",
      "enRoleType": "Major Shareholder",
      "numberOfShares": 3383838,
      "ownershipPct": 4.123853989909455,
      "effectiveDate": "2020-06-30"
    },
    {
      "code": "VNE",
      "shareholderType": "COMPANY",
      "shareholderName": "Tổng Công ty Tài chính cổ phần Dầu khí Việt Nam",
      "roleType": "Cổ đông lớn",
      "enRoleType": "Major Shareholder",
      "numberOfShares": 2365568,
      "ownershipPct": 2.88289718219434,
      "effectiveDate": "2007-09-28"
    },
    {
      "code": "VNE",
      "shareholderType": "COMPANY",
      "shareholderName": "PYN ELITE FUND (NON - UCITS)",
      "roleType": "Cổ đông lớn",
      "enRoleType": "Major Shareholder",
      "numberOfShares": 2250406,
      "ownershipPct": 2.7425502527060037,
      "effectiveDate": "2020-03-24"
    }
  ],
  "currentPage": 1,
  "size": 10,
  "totalElements": 14,
  "totalPages": 2
}