{"data":[{"code":"VNS","shareholderType":"PERSON","shareholderName":"Đặng Phước Thành","roleType":"Anh của Phó TGĐ","enRoleType":"Elder Brother of Deputy CEO","numberOfShares":16907888,"ownershipPct":24.916135164120433,"groupPct":36.94294797969301,"effectiveDate":"2016-07-21"},{"code":"VNS","shareholderType":"PERSON","shareholderName":"Đặng Phước Thành","roleType":"Bố của Thành viên HĐQT","enRoleType":"Father of Board member","numberOfShares":16907888,"ownershipPct":24.916135164120433,"groupPct":37.59102819850846,"effectiveDate":"2016-07-21"},{"code":"VNS","shareholderType":"COMPANY","shareholderName":"Công ty TNHH Tư vấn Kim Ngưu","roleType":"Cổ đông lớn","enRoleType":"Major Shareholder","numberOfShares":8600090,"ownershipPct":12.67343413107542,"effectiveDate":"2020-07-02"},{"code":"VNS","shareholderType":"PERSON","shareholderName":"Ngô Thị Thúy Vân","roleType":"Nhóm cổ đông lớn","enRoleType":"Major Shareholder Group","numberOfShares":8080590,"ownershipPct":11.907878301881343,"groupPct":17.045755569857064,"effectiveDate":"2022-06-30"},{"code":"VNS","shareholderType":"PERSON","shareholderName":"Ngô Thị Thúy Vân","roleType":"Chị/em dâu của Phó TGĐ","enRoleType":"Sister in law of Deputy CEO","numberOfShares":8080590,"ownershipPct":11.907878301881343,"groupPct":36.94294797969301,"effectiveDate":"2022-06-30"},{"code":"VNS","shareholderType":"PERSON","shareholderName":"Ngô Thị Thúy Vân","roleType":"Mẹ của Thành viên HĐQT","enRoleType":"Mother of Board member","numberOfShares":8080590,"ownershipPct":11.907878301881343,"groupPct":37.59102819850846,"effectiveDate":"2022-06-30"},{"code":"VNS","shareholderType":"COMPANY","shareholderName":"TAEL TWO PARTNERS LTD","roleType":"Cổ đông lớn","enRoleType":"Major Shareholder","numberOfShares":7916510,"ownershipPct":11.666083498312211,"effectiveDate":"2024-07-15"},{"code":"VNS","shareholderType":"COMPANY","shareholderName":"Tổng công ty thương mại Sài Gòn - TNHH MTV","roleType":"Cổ đông lớn","enRoleType":"Major Shareholder","numberOfShares":5370300,"ownershipPct":7.9138873330528305,"effectiveDate":"2020-06-30"},{"code":"VNS","shareholderType":"PERSON","shareholderName":"Nguyễn Ngọc Phi","roleType":"Cổ đông lớn","enRoleType":"Major Shareholder","numberOfShares":3390020,"ownershipPct":4.995668088709338,"effectiveDate":"2020-07-24"},{"code":"VNS","shareholderType":"PERSON","shareholderName":"Đặng Thành Duy","roleType":"Thành viên HĐQT","enRoleType":"Board member","numberOfShares":3390020,"ownershipPct":4.995668088709338,"groupPct":17.045755569857064,"effectiveDate":"2022-06-17"}],"currentPage":1,"size":10,"totalElements":14,"totalPages":2}