{"data":[{"code":"VRG","shareholderType":"COMPANY","shareholderName":"Công ty CP xây dựng Incontec","roleType":"Cổ đông lớn","enRoleType":"Major Shareholder","numberOfShares":5660000,"ownershipPct":21.857612867538077,"effectiveDate":"2024-06-25"},{"code":"VRG","shareholderType":"COMPANY","shareholderName":"Cao su Việt Nam","roleType":"Cổ đông lớn","enRoleType":"Major Shareholder","numberOfShares":3908480,"ownershipPct":15.09364712729951,"effectiveDate":"2021-12-31"},{"code":"VRG","shareholderType":"COMPANY","shareholderName":"CTCP Đầu tư và Phát triển Đô thị An Lộc","roleType":"Cổ đông lớn","enRoleType":"Major Shareholder","numberOfShares":2130600,"ownershipPct":8.227885154695517,"effectiveDate":"2023-04-10"},{"code":"VRG","shareholderType":"COMPANY","shareholderName":"Cao su Tây Ninh","roleType":"Cổ đông lớn","enRoleType":"Major Shareholder","numberOfShares":1766000,"ownershipPct":6.81988415619651,"effectiveDate":"2020-12-31"},{"code":"VRG","shareholderType":"COMPANY","shareholderName":"Công ty TNHH MTV Tổng Công ty Cao su Đồng Nai ","roleType":"Cổ đông lớn","enRoleType":"Major Shareholder","numberOfShares":1432600,"ownershipPct":5.532370352303012,"effectiveDate":"2023-06-30"},{"code":"VRG","shareholderType":"COMPANY","shareholderName":"America LLC","roleType":"Cổ đông lớn","enRoleType":"Major Shareholder","numberOfShares":1292700,"ownershipPct":4.992108861107151,"effectiveDate":"2021-04-28"},{"code":"VRG","shareholderType":"COMPANY","shareholderName":"Công ty Cổ phần Đầu tư và Tư vấn Xây dựng Phú An Thành","roleType":"Cổ đông lớn","enRoleType":"Major Shareholder","numberOfShares":1266900,"ownershipPct":4.892475219414132,"effectiveDate":"2021-08-03"},{"code":"VRG","shareholderType":"COMPANY","shareholderName":"Công ty TNHH MTV Cao su Phú Riềng","roleType":"Cổ đông lớn","enRoleType":"Major Shareholder","numberOfShares":1200000,"ownershipPct":4.634122869442702,"effectiveDate":"2021-01-07"},{"code":"VRG","shareholderType":"COMPANY","shareholderName":"Công ty TNHH TB.Group Việt Nam","roleType":"Cổ đông lớn","enRoleType":"Major Shareholder","numberOfShares":1192200,"ownershipPct":4.604001070791324,"effectiveDate":"2023-07-07"},{"code":"VRG","shareholderType":"COMPANY","shareholderName":"Cao su Bình Long","roleType":"Cổ đông lớn","enRoleType":"Major Shareholder","numberOfShares":1000000,"ownershipPct":3.8617690578689183,"effectiveDate":"2020-06-30"}],"currentPage":1,"size":10,"totalElements":14,"totalPages":2}