{"data":[{"code":"VSC","shareholderType":"COMPANY","shareholderName":"Công ty TNHH MTV Quản lý Quỹ Ngân hàng TMCP Công thương Việt Nam","roleType":"Cổ đông lớn","enRoleType":"Major Shareholder","numberOfShares":43000000,"ownershipPct":16.117468065411014,"effectiveDate":"2024-07-03"},{"code":"VSC","shareholderType":"PERSON","shareholderName":"Lê Thị Thu Trang","roleType":"Cổ đông lớn","enRoleType":"Major Shareholder","numberOfShares":8281000,"ownershipPct":3.1039244895271767,"effectiveDate":"2024-03-29"},{"code":"VSC","shareholderType":"PERSON","shareholderName":"Đàm Văn Huy","roleType":"Cổ đông lớn","enRoleType":"Major Shareholder","numberOfShares":7796900,"ownershipPct":2.922471785097747,"effectiveDate":"2024-03-29"},{"code":"VSC","shareholderType":"COMPANY","shareholderName":"CTCP Thành Đức Hải Phòng","roleType":"Cổ đông lớn","enRoleType":"Major Shareholder","numberOfShares":6909100,"ownershipPct":2.5897022932728193,"effectiveDate":"2023-08-21"},{"code":"VSC","shareholderType":"COMPANY","shareholderName":"Đại lý V.tải SAFI","roleType":"Cổ đông lớn","enRoleType":"Major Shareholder","numberOfShares":6050000,"ownershipPct":2.2676902743194565,"effectiveDate":"2023-08-21"},{"code":"VSC","shareholderType":"PERSON","shareholderName":"Đoàn Quang Huy","roleType":"Cổ đông lớn","enRoleType":"Major Shareholder","numberOfShares":3767189,"ownershipPct":1.4120360093922708,"effectiveDate":"2023-08-21"},{"code":"VSC","shareholderType":"COMPANY","shareholderName":"Công ty TNHH một thành viên Lũng Lô 3","roleType":"Cổ đông lớn","enRoleType":"Major Shareholder","numberOfShares":3394658,"ownershipPct":1.2724021373951633,"effectiveDate":"2023-08-21"},{"code":"VSC","shareholderType":"COMPANY","shareholderName":"CTCP Đầu tư Sao Á D.C","roleType":"Cổ đông lớn","enRoleType":"Major Shareholder","numberOfShares":3308140,"ownershipPct":1.2399730419978787,"effectiveDate":"2023-08-21"},{"code":"VSC","shareholderType":"COMPANY","shareholderName":"Forum One - VCG Partners Vietnam Fund","roleType":"Cổ đông lớn","enRoleType":"Major Shareholder","numberOfShares":3279552,"ownershipPct":1.2292575495082516,"effectiveDate":"2023-08-21"},{"code":"VSC","shareholderType":"COMPANY","shareholderName":"Quỹ đầu tư chứng khoán Bản Việt","roleType":"Cổ đông lớn","enRoleType":"Major Shareholder","numberOfShares":3274459,"ownershipPct":1.2273485666045971,"effectiveDate":"2023-08-21"}],"currentPage":1,"size":10,"totalElements":12,"totalPages":2}