{"data":[{"code":"VTD","shareholderType":"COMPANY","shareholderName":"Công ty Hoàng Kim Tây Nguyên","roleType":"Cổ đông lớn","enRoleType":"Major Shareholder","numberOfShares":3400000,"ownershipPct":28.333333333333332,"effectiveDate":"2023-06-30"},{"code":"VTD","shareholderType":"PERSON","shareholderName":"Phạm Thị Tuyên","roleType":"Cổ đông lớn","enRoleType":"Major Shareholder","numberOfShares":700000,"ownershipPct":5.833333333333333,"effectiveDate":"2024-05-21"},{"code":"VTD","shareholderType":"PERSON","shareholderName":"Nguyễn Văn Tùng","roleType":"Cổ đông lớn","enRoleType":"Major Shareholder","numberOfShares":661000,"ownershipPct":5.508333333333334,"effectiveDate":"2022-08-31"},{"code":"VTD","shareholderType":"PERSON","shareholderName":"Nguyễn Quốc Ánh","roleType":"Cổ đông lớn","enRoleType":"Major Shareholder","numberOfShares":622200,"ownershipPct":5.185,"effectiveDate":"2022-08-31"},{"code":"VTD","shareholderType":"PERSON","shareholderName":"Trần Văn Tuấn","roleType":"Chủ tịch HĐQT","enRoleType":"Chairman","numberOfShares":608900,"ownershipPct":5.074166666666667,"effectiveDate":"2022-08-25"},{"code":"VTD","shareholderType":"PERSON","shareholderName":"Lê Hoàng Yến","roleType":"Cổ đông lớn","enRoleType":"Major Shareholder","numberOfShares":607200,"ownershipPct":5.06,"effectiveDate":"2022-08-31"},{"code":"VTD","shareholderType":"PERSON","shareholderName":"Nguyễn Trọng Quang","roleType":"Cổ đông lớn","enRoleType":"Major Shareholder","numberOfShares":599700,"ownershipPct":4.9975,"effectiveDate":"2022-08-31"},{"code":"VTD","shareholderType":"PERSON","shareholderName":"Phạm Thị Thu Hoài","roleType":"Cổ đông lớn","enRoleType":"Major Shareholder","numberOfShares":588500,"ownershipPct":4.904166666666667,"effectiveDate":"2020-12-31"},{"code":"VTD","shareholderType":"PERSON","shareholderName":"Trần Xuân Hùng","roleType":"Cổ đông lớn","enRoleType":"Major Shareholder","numberOfShares":586058,"ownershipPct":4.883816666666666,"effectiveDate":"2023-11-27"},{"code":"VTD","shareholderType":"PERSON","shareholderName":"Đặng Thị Huyền Trang","roleType":"Cổ đông lớn","enRoleType":"Major Shareholder","numberOfShares":529400,"ownershipPct":4.411666666666667,"effectiveDate":"2023-04-13"}],"currentPage":1,"size":10,"totalElements":16,"totalPages":2}